%!PS-Adobe-2.0 EPSF-2.0
%%BoundingBox:  0 0 567 354
%%Title: : canvas
%%Creator: ROOT Version 6.14/04
%%CreationDate: Fri May 15 17:07:35 2020
%%DocumentNeededResources: ProcSet (FontSetInit)
%%EndComments
%%BeginProlog
80 dict begin
/s {stroke} def /l {lineto} def /m {moveto} def /t {translate} def
/r {rotate} def /rl {roll}  def /R {repeat} def
/d {rlineto} def /rm {rmoveto} def /gr {grestore} def /f {eofill} def
/c {setrgbcolor} def /black {0 setgray} def /sd {setdash} def
/cl {closepath} def /sf {scalefont setfont} def /lw {setlinewidth} def
/box {m dup 0 exch d exch 0 d 0 exch neg d cl} def
/NC{systemdict begin initclip end}def/C{NC box clip newpath}def
/bl {box s} def /bf {gsave box gsave f grestore 1 lw [] 0 sd s grestore} def /Y { 0 exch d} def /X { 0 d} def 
/K {{pop pop 0 moveto} exch kshow} bind def
/ita {/ang 15 def gsave [1 0 ang dup sin exch cos div 1 0 0] concat} def 
/mp {newpath /y exch def /x exch def} def
/side {[w .77 mul w .23 mul] .385 w mul sd w 0 l currentpoint t -144 r} def
/mr {mp x y w2 0 360 arc} def /m24 {mr s} def /m20 {mr f} def
/mb {mp x y w2 add m w2 neg 0 d 0 w neg d w 0 d 0 w d cl} def
/mt {mp x y w2 add m w2 neg w neg d w 0 d cl} def
/w4 {w 4 div} def
/w6 {w 6 div} def
/w8 {w 8 div} def
/m21 {mb f} def /m25 {mb s} def /m22 {mt f} def /m26{mt s} def
/m23 {mp x y w2 sub m w2 w d w neg 0 d cl f} def
/m27 {mp x y w2 add m w3 neg w2 neg d w3 w2 neg d w3 w2 d cl s} def
/m28 {mp x w2 sub y w2 sub w3 add m w3 0 d  0 w3 neg d w3 0 d 0 w3 d w3 0 d  0 w3 d w3 neg 0 d 0 w3 d w3 neg 0 d 0 w3 neg d w3 neg 0 d cl s } def
/m29 {mp gsave x w2 sub y w2 add w3 sub m currentpoint t 4 {side} repeat cl fill gr} def
/m30 {mp gsave x w2 sub y w2 add w3 sub m currentpoint t 4 {side} repeat cl s gr} def
/m31 {mp x y w2 sub m 0 w d x w2 sub y m w 0 d x w2 sub y w2 add m w w neg d x w2 sub y w2 sub m w w d s} def
/m32 {mp x y w2 sub m w2 w d w neg 0 d cl s} def
/m33 {mp x y w2 add m w3 neg w2 neg d w3 w2 neg d w3 w2 d cl f} def
/m34 {mp x w2 sub y w2 sub w3 add m w3 0 d  0 w3 neg d w3 0 d 0 w3 d w3 0 d  0 w3 d w3 neg 0 d 0 w3 d w3 neg 0 d 0 w3 neg d w3 neg 0 d cl f } def
/m35 {mp x y w2 add m w2 neg w2 neg d w2 w2 neg d w2 w2 d w2 neg w2 d x y w2 sub m 0 w d x w2 sub y m w 0 d s} def
/m36 {mb x w2 sub y w2 add m w w neg d x w2 sub y w2 sub m w w d s} def
/m37 {mp x y m w4 neg w2 d w4 neg w2 neg d w2 0 d  w4 neg w2 neg d w2 0 d w4 neg w2 d w2 0 d w4 neg w2 d w4 neg w2 neg d cl s} def
/m38 {mp x w4 sub y w2 add m w4 neg w4 neg d 0 w2 neg d w4 w4 neg d w2 0 d w4 w4 d 0 w2 d w4 neg w4 d w2 neg 0 d x y w2 sub m 0 w d x w2 sub y m w 0 d cl s} def
/m39 {mp x y m w4 neg w2 d w4 neg w2 neg d w2 0 d  w4 neg w2 neg d w2 0 d w4 neg w2 d w2 0 d w4 neg w2 d w4 neg w2 neg d cl f} def
/m40 {mp x y m w4 w2 d w4 w4 neg d w2 neg w4 neg d w2 w4 neg d w4 neg w4 neg d w4 neg w2 d w4 neg w2 neg d w4 neg w4 d w2 w4 d w2 neg w4 d w4 w4 d w4 w2 neg d cl s} def
/m41 {mp x y m w4 w2 d w4 w4 neg d w2 neg w4 neg d w2 w4 neg d w4 neg w4 neg d w4 neg w2 d w4 neg w2 neg d w4 neg w4 d w2 w4 d w2 neg w4 d w4 w4 d w4 w2 neg d cl f} def
/m42 {mp x y w2 add m w8 neg w2 -3 4 div mul d w2 -3 4 div mul w8 neg d w2 3 4 div mul w8 neg d w8 w2 -3 4 div mul d w8 w2 3 4 div mul d w2 3 4 div mul w8 d w2 -3 4 div mul w8 d w8 neg w2 3 4 div mul d cl s} def
/m43 {mp x y w2 add m w8 neg w2 -3 4 div mul d w2 -3 4 div mul w8 neg d w2 3 4 div mul w8 neg d w8 w2 -3 4 div mul d w8 w2 3 4 div mul d w2 3 4 div mul w8 d w2 -3 4 div mul w8 d w8 neg w2 3 4 div mul d cl f} def
/m44 {mp x y m w6 neg w2 d w2 2 3 div mul 0 d w6 neg w2 neg d w2 w6 d 0 w2 -2 3 div mul d w2 neg w6 d w6 w2 neg d w2 -2 3 div mul 0 d w6 w2 d w2 neg w6 neg d 0 w2 2 3 div mul d w2 w6 neg d cl s} def
/m45 {mp x y m w6 neg w2 d w2 2 3 div mul 0 d w6 neg w2 neg d w2 w6 d 0 w2 -2 3 div mul d w2 neg w6 d w6 w2 neg d w2 -2 3 div mul 0 d w6 w2 d w2 neg w6 neg d 0 w2 2 3 div mul d w2 w6 neg d cl f} def
/m46 {mp x y w4 add m w4 neg w4 d w4 neg w4 neg d  w4 w4 neg d w4 neg w4 neg d w4 w4 neg d w4 w4 d w4 w4 neg d w4 w4 d w4 neg w4 d w4 w4 d w4 neg w4 d w4 neg w4 neg d cl s} def
/m47 {mp x y w4 add m w4 neg w4 d w4 neg w4 neg d w4 w4 neg d w4 neg w4 neg d  w4 w4 neg d w4 w4 d w4 w4 neg d w4 w4 d w4 neg w4 d w4 w4 d w4 neg w4 d w4 neg w4 neg d cl f} def
/m48 {mp x y w4 add m w4 neg w4 d w4 neg w4 neg d w4 w4 neg d  w4 neg w4 neg d w4 w4 neg d w4 w4 d w4 w4 neg d w4 w4 d w4 neg w4 d w4 w4 d w4 neg w4 d w4 neg w4 neg d  w4 w4 neg d w4 neg w4 neg d w4 neg w4 d w4 w4 d cl f} def
/m49 {mp x w2 sub w3 add y w2 sub w3 add m  0 w3 neg d w3 0 d 0 w3 d w3 0 d 0 w3 d w3 neg 0 d 0 w3 d w3 neg 0 d 0 w3 neg d w3 neg 0 d 0 w3 neg d w3 0 d 0 w3 d w3 0 d 0 w3 neg d w3 neg 0 d cl f } def
/m2 {mp x y w2 sub m 0 w d x w2 sub y m w 0 d s} def
/m5 {mp x w2 sub y w2 sub m w w d x w2 sub y w2 add m w w neg d s} def
%%IncludeResource: ProcSet (FontSetInit)
%%IncludeResource: font Times-Roman
%%IncludeResource: font Times-Italic
%%IncludeResource: font Times-Bold
%%IncludeResource: font Times-BoldItalic
%%IncludeResource: font Helvetica
%%IncludeResource: font Helvetica-Oblique
%%IncludeResource: font Helvetica-Bold
%%IncludeResource: font Helvetica-BoldOblique
%%IncludeResource: font Courier
%%IncludeResource: font Courier-Oblique
%%IncludeResource: font Courier-Bold
%%IncludeResource: font Courier-BoldOblique
%%IncludeResource: font Symbol
%%IncludeResource: font ZapfDingbats
/reEncode {exch findfont dup length dict begin {1 index /FID eq  {pop pop} {def} ifelse } forall /Encoding exch def currentdict end dup /FontName get exch definefont pop } def [/Times-Bold /Times-Italic /Times-BoldItalic /Helvetica /Helvetica-Oblique
 /Helvetica-Bold /Helvetica-BoldOblique /Courier /Courier-Oblique /Courier-Bold /Courier-BoldOblique /Times-Roman /AvantGarde-Book /AvantGarde-BookOblique /AvantGarde-Demi /AvantGarde-DemiOblique /Bookman-Demi /Bookman-DemiItalic /Bookman-Light
 /Bookman-LightItalic /Helvetica-Narrow /Helvetica-Narrow-Bold /Helvetica-Narrow-BoldOblique /Helvetica-Narrow-Oblique /NewCenturySchlbk-Roman /NewCenturySchlbk-Bold /NewCenturySchlbk-BoldItalic /NewCenturySchlbk-Italic /Palatino-Bold
 /Palatino-BoldItalic /Palatino-Italic /Palatino-Roman ] {ISOLatin1Encoding reEncode } forall
%%EndProlog
%%BeginSetup
%%EndSetup
newpath  gsave  .25 .25 scale  gsave  0 0 t black[  ] 0 sd 3 lw 1 1 1 c 2268 1415 0 0 bf black 1 1 1 c 1814 1132 227 142 bf black 1814 1132 227 142 bl 1 0 0 c 6 lw 1 1 1 c black 1 0 0 c 227 612 m 79 X 69 Y 79 X 46 Y 78 X 61 Y 79 X 148 Y 79 X -19 Y 79
 X -21 Y 79 X -204 Y 79 X 1 Y 79 X -4 Y 79 X -16 Y 78 X -107 Y 79 X -42 Y 79 X 141 Y 79 X 39 Y 79 X 67 Y 79 X -101 Y 79 X -82 Y 79 X 114 Y 78 X 52 Y 79 X -12 Y 79 X -92 Y 79 X 60 Y 79 X s black 3 lw 227 142 m 1814 X s 266 176 m -34 Y s 306 159 m -17
 Y s 345 159 m -17 Y s 385 159 m -17 Y s 424 159 m -17 Y s 463 176 m -34 Y s 503 159 m -17 Y s 542 159 m -17 Y s 582 159 m -17 Y s 621 159 m -17 Y s 661 176 m -34 Y s 700 159 m -17 Y s 739 159 m -17 Y s 779 159 m -17 Y s 818 159 m -17 Y s 858 176 m
 -34 Y s 897 159 m -17 Y s 937 159 m -17 Y s 976 159 m -17 Y s 1016 159 m -17 Y s 1055 176 m -34 Y s 1094 159 m -17 Y s 1134 159 m -17 Y s 1173 159 m -17 Y s 1213 159 m -17 Y s 1252 176 m -34 Y s 1292 159 m -17 Y s 1331 159 m -17 Y s 1370 159 m -17 Y
 s 1410 159 m -17 Y s 1449 176 m -34 Y s 1489 159 m -17 Y s 1528 159 m -17 Y s 1568 159 m -17 Y s 1607 159 m -17 Y s 1647 176 m -34 Y s 1686 159 m -17 Y s 1725 159 m -17 Y s 1765 159 m -17 Y s 1804 159 m -17 Y s 1844 176 m -34 Y s 1883 159 m -17 Y s
 1923 159 m -17 Y s 1962 159 m -17 Y s 2002 159 m -17 Y s 2041 176 m -34 Y s 266 176 m -34 Y s 227 159 m -17 Y s
 gsave  2268 1415 0 0 C 224.489 95.1223 t 0 r /Helvetica findfont 45.6587 sf 0 0 m (400) show NC gr 
 gsave  2268 1415 0 0 C 422.343 95.1223 t 0 r /Helvetica findfont 45.6587 sf 0 0 m (450) show NC gr 
 gsave  2268 1415 0 0 C 620.198 95.1223 t 0 r /Helvetica findfont 45.6587 sf 0 0 m (500) show NC gr 
 gsave  2268 1415 0 0 C 818.052 95.1223 t 0 r /Helvetica findfont 45.6587 sf 0 0 m (550) show NC gr 
 gsave  2268 1415 0 0 C 1015.91 95.1223 t 0 r /Helvetica findfont 45.6587 sf 0 0 m (600) show NC gr 
 gsave  2268 1415 0 0 C 1213.76 95.1223 t 0 r /Helvetica findfont 45.6587 sf 0 0 m (650) show NC gr 
 gsave  2268 1415 0 0 C 1407.81 95.1223 t 0 r /Helvetica findfont 45.6587 sf 0 0 m (700) show NC gr 
 gsave  2268 1415 0 0 C 1605.67 95.1223 t 0 r /Helvetica findfont 45.6587 sf 0 0 m (750) show NC gr 
 gsave  2268 1415 0 0 C 1803.52 95.1223 t 0 r /Helvetica findfont 45.6587 sf 0 0 m (800) show NC gr 
 gsave  2268 1415 0 0 C 2001.37 95.1223 t 0 r /Helvetica findfont 45.6587 sf 0 0 m (850) show NC gr 
 gsave  2268 1415 0 0 C 1940.5 45.6587 t 0 r /Helvetica findfont 45.6587 sf 0 0 m (mVH) show NC gr  227 142 m 1132 Y s 281 181 m -54 X s 254 218 m -27 X s 254 255 m -27 X s 254 292 m -27 X s 254 329 m -27 X s 281 366 m -54 X s 254 403 m -27 X s 254
 440 m -27 X s 254 477 m -27 X s 254 514 m -27 X s 281 551 m -54 X s 254 588 m -27 X s 254 624 m -27 X s 254 661 m -27 X s 254 698 m -27 X s 281 735 m -54 X s 254 772 m -27 X s 254 809 m -27 X s 254 846 m -27 X s 254 883 m -27 X s 281 920 m -54 X s
 254 957 m -27 X s 254 994 m -27 X s 254 1031 m -27 X s 254 1067 m -27 X s 281 1104 m -54 X s 281 181 m -54 X s 254 144 m -27 X s 281 1104 m -54 X s 254 1141 m -27 X s 254 1178 m -27 X s 254 1215 m -27 X s 254 1252 m -27 X s
 gsave  2268 1415 0 0 C 148.391 163.61 t 0 r /Helvetica findfont 45.6587 sf 0 0 m (1.5) show NC gr 
 gsave  2268 1415 0 0 C 121.757 163.61 t 0 r /Symbol findfont 45.6587 sf 0 0 m (-) show NC gr 
 gsave  2268 1415 0 0 C 194.05 350.05 t 0 r /Helvetica findfont 45.6587 sf 0 0 m (1) show NC gr 
 gsave  2268 1415 0 0 C 167.415 350.05 t 0 r /Symbol findfont 45.6587 sf 0 0 m (-) show NC gr 
 gsave  2268 1415 0 0 C 148.391 532.685 t 0 r /Helvetica findfont 45.6587 sf 0 0 m (0.5) show NC gr 
 gsave  2268 1415 0 0 C 121.757 532.685 t 0 r /Symbol findfont 45.6587 sf 0 0 m (-) show NC gr 
 gsave  2268 1415 0 0 C 186.44 719.125 t 0 r /Helvetica findfont 45.6587 sf 0 0 m (0) show NC gr 
 gsave  2268 1415 0 0 C 148.391 901.76 t 0 r /Helvetica findfont 45.6587 sf 0 0 m (0.5) show NC gr 
 gsave  2268 1415 0 0 C 194.05 1088.2 t 0 r /Helvetica findfont 45.6587 sf 0 0 m (1) show NC gr 
 gsave  2268 1415 0 0 C 68.4881 1107.22 t 90 r /Helvetica findfont 45.6587 sf 0 0 m (Shift [%]) show NC gr  1 1 1 c black
 gsave  2268 1415 0 0 C 407.124 1350.74 t 0 r /Helvetica findfont 45.6587 sf 0 0 m (Region_BMin0_incJet1_Y2015_DCRcutbasedJvar_T2_L2_distmVH_J2) show NC gr  6 lw 0.8 0.8 0 c black 3 lw 0.8 0.8 0 c 1 lw << /PatternType 1 /PaintType 2 /TilingType 1
 /BBox [ 0 0 100 100 ] /XStep 100 /YStep 100 /PaintProc { begin gsave 0 0 m 100 100 l s gr end } >> [ 0.24 0 0 0.24 0 0 ] makepattern /P04 exch def /cs {[/Pattern /DeviceRGB] setcolorspace} def /FA {f [/DeviceRGB] setcolorspace} def cs 0.8 0.8 0 P04
 setcolor 227 499 m 79 X 473 Y -79 X FA 6 lw 3 lw 0.8 0.8 0 c cs 0.8 0.8 0 P04 setcolor 306 514 m 79 X 442 Y -79 X FA 6 lw 3 lw 0.8 0.8 0 c cs 0.8 0.8 0 P04 setcolor 385 527 m 78 X 417 Y -78 X FA 6 lw 3 lw 0.8 0.8 0 c cs 0.8 0.8 0 P04 setcolor 463
 543 m 79 X 384 Y -79 X FA 6 lw 3 lw 0.8 0.8 0 c cs 0.8 0.8 0 P04 setcolor 542 530 m 79 X 411 Y -79 X FA 6 lw 3 lw 0.8 0.8 0 c cs 0.8 0.8 0 P04 setcolor 621 535 m 79 X 401 Y -79 X FA 6 lw 3 lw 0.8 0.8 0 c cs 0.8 0.8 0 P04 setcolor 700 538 m 79 X 394
 Y -79 X FA 6 lw 3 lw 0.8 0.8 0 c cs 0.8 0.8 0 P04 setcolor 779 524 m 79 X 422 Y -79 X FA 6 lw 3 lw 0.8 0.8 0 c cs 0.8 0.8 0 P04 setcolor 858 514 m 79 X 442 Y -79 X FA 6 lw 3 lw 0.8 0.8 0 c cs 0.8 0.8 0 P04 setcolor 937 520 m 79 X 431 Y -79 X FA 6 lw
 3 lw 0.8 0.8 0 c cs 0.8 0.8 0 P04 setcolor 1016 515 m 78 X 440 Y -78 X FA 6 lw 3 lw 0.8 0.8 0 c cs 0.8 0.8 0 P04 setcolor 1094 503 m 79 X 464 Y -79 X FA 6 lw 3 lw 0.8 0.8 0 c cs 0.8 0.8 0 P04 setcolor 1173 489 m 79 X 493 Y -79 X FA 6 lw 3 lw 0.8 0.8
 0 c cs 0.8 0.8 0 P04 setcolor 1252 477 m 79 X 516 Y -79 X FA 6 lw 3 lw 0.8 0.8 0 c cs 0.8 0.8 0 P04 setcolor 1331 452 m 79 X 566 Y -79 X FA 6 lw 3 lw 0.8 0.8 0 c cs 0.8 0.8 0 P04 setcolor 1410 448 m 79 X 575 Y -79 X FA 6 lw 3 lw 0.8 0.8 0 c cs 0.8
 0.8 0 P04 setcolor 1489 431 m 79 X 609 Y -79 X FA 6 lw 3 lw 0.8 0.8 0 c cs 0.8 0.8 0 P04 setcolor 1568 418 m 79 X 635 Y -79 X FA 6 lw 3 lw 0.8 0.8 0 c cs 0.8 0.8 0 P04 setcolor 1647 399 m 78 X 673 Y -78 X FA 6 lw 3 lw 0.8 0.8 0 c cs 0.8 0.8 0 P04
 setcolor 1725 382 m 79 X 707 Y -79 X FA 6 lw 3 lw 0.8 0.8 0 c cs 0.8 0.8 0 P04 setcolor 1804 367 m 79 X 736 Y -79 X FA 6 lw 3 lw 0.8 0.8 0 c cs 0.8 0.8 0 P04 setcolor 1883 346 m 79 X 778 Y -79 X FA 6 lw 3 lw 0.8 0.8 0 c cs 0.8 0.8 0 P04 setcolor
 1962 332 m 79 X 807 Y -79 X FA 6 lw 0 0 1 c 1 1 1 c black 0 0 1 c 227 860 m 79 X -70 Y 79 X -46 Y 78 X -63 Y 79 X -146 Y 79 X 18 Y 79 X 20 Y 79 X 206 Y 79 X -2 Y 79 X 4 Y 79 X 16 Y 78 X 106 Y 79 X 43 Y 79 X -140 Y 79 X -39 Y 79 X -68 Y 79 X 102 Y 79
 X 81 Y 79 X -115 Y 78 X -52 Y 79 X 12 Y 79 X 93 Y 79 X -59 Y 79 X s 1 0 0 c 1 1 1 c black 1 0 0 c 227 612 m 79 X 69 Y 79 X 46 Y 78 X 61 Y 79 X 148 Y 79 X -19 Y 79 X -21 Y 79 X -204 Y 79 X 1 Y 79 X -4 Y 79 X -16 Y 78 X -107 Y 79 X -42 Y 79 X 141 Y 79
 X 39 Y 79 X 67 Y 79 X -101 Y 79 X -82 Y 79 X 114 Y 78 X 52 Y 79 X -12 Y 79 X -92 Y 79 X 60 Y 79 X s[ 12 12] 0 sd 3 lw 1 1 1 c black 1 0 0 c 227 597 m 79 X 139 Y 79 X 68 Y 78 X -25 Y 79 X 399 Y 79 X -431 Y 79 X -31 Y 79 X -152 Y 79 X 180 Y 79 X -38 Y
 79 X -184 Y 78 X -100 Y 79 X 157 Y 79 X 367 Y 79 X -410 Y 79 X 237 Y 79 X -123 Y 79 X -374 Y 79 X 836 Y 78 X -292 Y 79 X -583 Y 79 X 607 Y 79 X 154 Y 79 X s 0 0 1 c 1 1 1 c black 0 0 1 c 227 595 m 79 X 143 Y 79 X 63 Y 78 X -20 Y 79 X 399 Y 79 X -433
 Y 79 X -30 Y 79 X -151 Y 79 X 175 Y 79 X -35 Y 79 X -183 Y 78 X -101 Y 79 X 158 Y 79 X 364 Y 79 X -407 Y 79 X 235 Y 79 X -118 Y 79 X -378 Y 79 X 836 Y 78 X -295 Y 79 X -581 Y 79 X 608 Y 79 X 154 Y 79 X s 1 0 0 c[  ] 0 sd 6 lw 1 1 1 c black 1 0 0 c
 227 612 m 79 X 69 Y 79 X 46 Y 78 X 61 Y 79 X 148 Y 79 X -19 Y 79 X -21 Y 79 X -204 Y 79 X 1 Y 79 X -4 Y 79 X -16 Y 78 X -107 Y 79 X -42 Y 79 X 141 Y 79 X 39 Y 79 X 67 Y 79 X -101 Y 79 X -82 Y 79 X 114 Y 78 X 52 Y 79 X -12 Y 79 X -92 Y 79 X 60 Y 79 X
 s 0 0 1 c 1 1 1 c black 0 0 1 c 227 860 m 79 X -70 Y 79 X -46 Y 78 X -63 Y 79 X -146 Y 79 X 18 Y 79 X 20 Y 79 X 206 Y 79 X -2 Y 79 X 4 Y 79 X 16 Y 78 X 106 Y 79 X 43 Y 79 X -140 Y 79 X -39 Y 79 X -68 Y 79 X 102 Y 79 X 81 Y 79 X -115 Y 78 X -52 Y 79
 X 12 Y 79 X 93 Y 79 X -59 Y 79 X s 0.4 0.4 0.4 c[ 12 12] 0 sd 227 735 m 1814 X s 0 0 0.6 c[  ] 0 sd 3 lw 1 1 1 c black 0 0 0.6 c 266 1079 m 6 Y s 266 1085 m 6 Y s 227 1085 m 39 X s 266 1085 m 40 X s 259 1079 m 15 X s 259 1091 m 15 X s 227 1078 m 15
 Y s 306 1078 m 15 Y s black /w 2 def /w2 {w 2 div} def /w3 {w 3 div} def 266 1085 m20 0 0 0.6 c 345 1004 m 6 Y s 345 1010 m 5 Y s 306 1010 m 39 X s 345 1010 m 40 X s 337 1004 m 16 X s 337 1015 m 16 X s 306 1002 m 15 Y s 385 1002 m 15 Y s black 345
 1010 m20 0 0 0.6 c 424 910 m 4 Y s 424 914 m 5 Y s 385 914 m 39 X s 424 914 m 39 X s 416 910 m 16 X s 416 919 m 16 X s 385 907 m 15 Y s 463 907 m 15 Y s black 424 914 m20 0 0 0.6 c 503 827 m 4 Y s 503 831 m 4 Y s 463 831 m 40 X s 503 831 m 39 X s
 495 827 m 15 X s 495 835 m 15 X s 463 823 m 16 Y s 542 823 m 16 Y s black 503 831 m20 0 0 0.6 c 582 736 m 3 Y s 582 739 m 4 Y s 542 739 m 40 X s 582 739 m 39 X s 574 736 m 15 X s 574 743 m 15 X s 542 732 m 15 Y s 621 732 m 15 Y s black 582 739 m20 0
 0 0.6 c 661 659 m 3 Y s 661 662 m 2 Y s 621 662 m 40 X s 661 662 m 39 X s 653 659 m 15 X s 653 664 m 15 X s 621 654 m 15 Y s 700 654 m 15 Y s black 661 662 m20 0 0 0.6 c 739 580 m 2 Y s 739 582 m 2 Y s 700 582 m 39 X s 739 582 m 40 X s 732 580 m 15
 X s 732 584 m 15 X s 700 574 m 16 Y s 779 574 m 16 Y s black 739 582 m20 0 0 0.6 c 818 521 m 3 Y s 818 524 m 2 Y s 779 524 m 39 X s 818 524 m 40 X s 811 521 m 15 X s 811 526 m 15 X s 779 516 m 15 Y s 858 516 m 15 Y s black 818 524 m20 0 0 0.6 c 897
 462 m 2 Y s 897 464 m 2 Y s 858 464 m 39 X s 897 464 m 40 X s 890 462 m 15 X s 890 466 m 15 X s 858 457 m 15 Y s 937 457 m 15 Y s black 897 464 m20 0 0 0.6 c 976 410 m 2 Y s 976 412 m 1 Y s 937 412 m 39 X s 976 412 m 40 X s 968 410 m 16 X s 968 413
 m 16 X s 937 404 m 15 Y s 1016 404 m 15 Y s black 976 412 m20 0 0 0.6 c 1055 371 m 1 Y s 1055 372 m 1 Y s 1016 372 m 39 X s 1055 372 m 39 X s 1047 371 m 16 X s 1047 373 m 16 X s 1016 364 m 16 Y s 1094 364 m 16 Y s black 1055 372 m20 0 0 0.6 c 1134
 332 m 1 Y s 1134 333 m 1 Y s 1094 333 m 40 X s 1134 333 m 39 X s 1126 332 m 15 X s 1126 334 m 15 X s 1094 326 m 15 Y s 1173 326 m 15 Y s black 1134 333 m20 0 0 0.6 c 1213 301 m 1 Y s 1213 302 m 1 Y s 1173 302 m 40 X s 1213 302 m 39 X s 1205 301 m 15
 X s 1205 303 m 15 X s 1173 294 m 15 Y s 1252 294 m 15 Y s black 1213 302 m20 0 0 0.6 c 1292 275 m s 1292 275 m 1 Y s 1252 275 m 40 X s 1292 275 m 39 X s 1284 275 m 15 X s 1284 276 m 15 X s 1252 268 m 15 Y s 1331 268 m 15 Y s black 1292 275 m20 0 0
 0.6 c 1370 254 m s 1370 254 m 1 Y s 1331 254 m 39 X s 1370 254 m 40 X s 1363 254 m 15 X s 1363 255 m 15 X s 1331 247 m 15 Y s 1410 247 m 15 Y s black 1370 254 m20 0 0 0.6 c 1449 234 m 1 Y s 1449 235 m 1 Y s 1410 235 m 39 X s 1449 235 m 40 X s 1442
 234 m 15 X s 1442 236 m 15 X s 1410 227 m 16 Y s 1489 227 m 16 Y s black 1449 235 m20 0 0 0.6 c 1528 220 m s 1528 220 m 1 Y s 1489 220 m 39 X s 1528 220 m 40 X s 1521 220 m 15 X s 1521 221 m 15 X s 1489 213 m 15 Y s 1568 213 m 15 Y s black 1528 220
 m20 0 0 0.6 c 1607 208 m 1 Y s 1607 209 m s 1568 209 m 39 X s 1607 209 m 40 X s 1600 208 m 15 X s 1600 209 m 15 X s 1568 201 m 15 Y s 1647 201 m 15 Y s black 1607 209 m20 0 0 0.6 c 1686 197 m 1 Y s 1686 198 m s 1647 198 m 39 X s 1686 198 m 39 X s
 1678 197 m 16 X s 1678 198 m 16 X s 1647 190 m 15 Y s 1725 190 m 15 Y s black 1686 198 m20 0 0 0.6 c 1765 190 m 1 Y s 1765 191 m s 1725 191 m 40 X s 1765 191 m 39 X s 1757 190 m 15 X s 1757 191 m 15 X s 1725 183 m 15 Y s 1804 183 m 15 Y s black 1765
 191 m20 0 0 0.6 c 1844 183 m 1 Y s 1844 184 m s 1804 184 m 40 X s 1844 184 m 39 X s 1836 183 m 15 X s 1836 184 m 15 X s 1804 176 m 16 Y s 1883 176 m 16 Y s black 1844 184 m20 0 0 0.6 c 1923 177 m s 1923 177 m 1 Y s 1883 177 m 40 X s 1923 177 m 39 X
 s 1915 177 m 15 X s 1915 178 m 15 X s 1883 170 m 15 Y s 1962 170 m 15 Y s black 1923 177 m20 0 0 0.6 c 2002 172 m s 2002 172 m 1 Y s 1962 172 m 40 X s 2002 172 m 39 X s 1994 172 m 15 X s 1994 173 m 15 X s 1962 165 m 15 Y s 2041 165 m 15 Y s black
 2002 172 m20
 gsave  2268 1415 0 0 C 680.315 1203.11 t 0 r /Helvetica-Bold findfont 64.6832 sf 0 0 m (SysJET_CR_JET_JER_EffectiveNP_1) show NC gr 
 gsave  2268 1415 0 0 C 680.315 1089.87 t 0 r /Helvetica-Bold findfont 64.6832 sf 0 0 m (Z) show NC gr 
 gsave  2268 1415 0 0 C 680.315 976.64 t 0 r /Helvetica-Bold findfont 64.6832 sf 0 0 m (NormEff = 1.05%) show NC gr 
 gsave  2268 1415 0 0 C 292.977 171.22 t 0 r /Helvetica-Bold findfont 45.6587 sf 0 0 m (/NDF: Up=0.499 Do=1.37) show NC gr 
 gsave  2268 1415 0 0 C 273.952 190.245 t 0 r /Helvetica-Bold findfont 30.4391 sf 0 0 m (2) show NC gr 
 gsave  2268 1415 0 0 C 247.318 171.22 t 0 r /Symbol findfont 45.6587 sf 0 0 m (c) show NC gr  2041 142 m 1132 Y s 1987 142 m 54 X s 2014 186 m 27 X s 2014 231 m 27 X s 2014 275 m 27 X s 2014 320 m 27 X s 1987 364 m 54 X s 2014 409 m 27 X s 2014 453
 m 27 X s 2014 498 m 27 X s 2014 542 m 27 X s 1987 587 m 54 X s 2014 632 m 27 X s 2014 676 m 27 X s 2014 721 m 27 X s 2014 765 m 27 X s 1987 810 m 54 X s 2014 854 m 27 X s 2014 899 m 27 X s 2014 943 m 27 X s 2014 988 m 27 X s 1987 1032 m 54 X s 2014
 1077 m 27 X s 2014 1122 m 27 X s 2014 1166 m 27 X s 2014 1211 m 27 X s 1987 1255 m 54 X s 1987 1255 m 54 X s
 gsave  2268 1415 0 0 C 2050.84 117.952 t 0 r /Helvetica findfont 64.6832 sf 0 0 m (0) show NC gr 
 gsave  2268 1415 0 0 C 2050.84 338.635 t 0 r /Helvetica findfont 64.6832 sf 0 0 m (5000) show NC gr 
 gsave  2268 1415 0 0 C 2050.84 563.124 t 0 r /Helvetica findfont 64.6832 sf 0 0 m (10000) show NC gr 
 gsave  2268 1415 0 0 C 2050.84 783.808 t 0 r /Helvetica findfont 64.6832 sf 0 0 m (15000) show NC gr 
 gsave  2268 1415 0 0 C 2050.84 1008.3 t 0 r /Helvetica findfont 64.6832 sf 0 0 m (20000) show NC gr 
 gsave  2268 1415 0 0 C 2050.84 1228.98 t 0 r /Helvetica findfont 64.6832 sf 0 0 m (25000) show NC gr 
 gsave  2268 1415 0 0 C 2336.2 1076.78 t 90 r /Helvetica findfont 64.6832 sf 0 0 m (Events) show NC gr 
 gsave  2268 1415 0 0 C 1643.71 1225.18 t 0 r /Helvetica findfont 53.2685 sf 0 0 m (Up) show NC gr  1 0 0 c 6 lw 1596 1238 m 40 X s black
 gsave  2268 1415 0 0 C 1643.71 1152.88 t 0 r /Helvetica findfont 53.2685 sf 0 0 m (Down) show NC gr  0 0 1 c 1596 1168 m 40 X s black
 gsave  2268 1415 0 0 C 1643.71 1084.39 t 0 r /Helvetica findfont 53.2685 sf 0 0 m (Unsmoothed) show NC gr  1 0 0 c[ 12 12] 0 sd 3 lw 1596 1097 m 40 X s 1 1 1 c black
 gsave  2268 1415 0 0 C 407.124 1350.74 t 0 r /Helvetica findfont 45.6587 sf 0 0 m (Region_BMin0_incJet1_Y2015_DCRcutbasedJvar_T2_L2_distmVH_J2) show NC gr 
 gr  gr showpage
end
%%EOF
