%!PS-Adobe-2.0 EPSF-2.0
%%BoundingBox:  0 0 567 354
%%Title: : canvas
%%Creator: ROOT Version 6.14/04
%%CreationDate: Fri May 15 17:07:35 2020
%%DocumentNeededResources: ProcSet (FontSetInit)
%%EndComments
%%BeginProlog
80 dict begin
/s {stroke} def /l {lineto} def /m {moveto} def /t {translate} def
/r {rotate} def /rl {roll}  def /R {repeat} def
/d {rlineto} def /rm {rmoveto} def /gr {grestore} def /f {eofill} def
/c {setrgbcolor} def /black {0 setgray} def /sd {setdash} def
/cl {closepath} def /sf {scalefont setfont} def /lw {setlinewidth} def
/box {m dup 0 exch d exch 0 d 0 exch neg d cl} def
/NC{systemdict begin initclip end}def/C{NC box clip newpath}def
/bl {box s} def /bf {gsave box gsave f grestore 1 lw [] 0 sd s grestore} def /Y { 0 exch d} def /X { 0 d} def 
/K {{pop pop 0 moveto} exch kshow} bind def
/ita {/ang 15 def gsave [1 0 ang dup sin exch cos div 1 0 0] concat} def 
/mp {newpath /y exch def /x exch def} def
/side {[w .77 mul w .23 mul] .385 w mul sd w 0 l currentpoint t -144 r} def
/mr {mp x y w2 0 360 arc} def /m24 {mr s} def /m20 {mr f} def
/mb {mp x y w2 add m w2 neg 0 d 0 w neg d w 0 d 0 w d cl} def
/mt {mp x y w2 add m w2 neg w neg d w 0 d cl} def
/w4 {w 4 div} def
/w6 {w 6 div} def
/w8 {w 8 div} def
/m21 {mb f} def /m25 {mb s} def /m22 {mt f} def /m26{mt s} def
/m23 {mp x y w2 sub m w2 w d w neg 0 d cl f} def
/m27 {mp x y w2 add m w3 neg w2 neg d w3 w2 neg d w3 w2 d cl s} def
/m28 {mp x w2 sub y w2 sub w3 add m w3 0 d  0 w3 neg d w3 0 d 0 w3 d w3 0 d  0 w3 d w3 neg 0 d 0 w3 d w3 neg 0 d 0 w3 neg d w3 neg 0 d cl s } def
/m29 {mp gsave x w2 sub y w2 add w3 sub m currentpoint t 4 {side} repeat cl fill gr} def
/m30 {mp gsave x w2 sub y w2 add w3 sub m currentpoint t 4 {side} repeat cl s gr} def
/m31 {mp x y w2 sub m 0 w d x w2 sub y m w 0 d x w2 sub y w2 add m w w neg d x w2 sub y w2 sub m w w d s} def
/m32 {mp x y w2 sub m w2 w d w neg 0 d cl s} def
/m33 {mp x y w2 add m w3 neg w2 neg d w3 w2 neg d w3 w2 d cl f} def
/m34 {mp x w2 sub y w2 sub w3 add m w3 0 d  0 w3 neg d w3 0 d 0 w3 d w3 0 d  0 w3 d w3 neg 0 d 0 w3 d w3 neg 0 d 0 w3 neg d w3 neg 0 d cl f } def
/m35 {mp x y w2 add m w2 neg w2 neg d w2 w2 neg d w2 w2 d w2 neg w2 d x y w2 sub m 0 w d x w2 sub y m w 0 d s} def
/m36 {mb x w2 sub y w2 add m w w neg d x w2 sub y w2 sub m w w d s} def
/m37 {mp x y m w4 neg w2 d w4 neg w2 neg d w2 0 d  w4 neg w2 neg d w2 0 d w4 neg w2 d w2 0 d w4 neg w2 d w4 neg w2 neg d cl s} def
/m38 {mp x w4 sub y w2 add m w4 neg w4 neg d 0 w2 neg d w4 w4 neg d w2 0 d w4 w4 d 0 w2 d w4 neg w4 d w2 neg 0 d x y w2 sub m 0 w d x w2 sub y m w 0 d cl s} def
/m39 {mp x y m w4 neg w2 d w4 neg w2 neg d w2 0 d  w4 neg w2 neg d w2 0 d w4 neg w2 d w2 0 d w4 neg w2 d w4 neg w2 neg d cl f} def
/m40 {mp x y m w4 w2 d w4 w4 neg d w2 neg w4 neg d w2 w4 neg d w4 neg w4 neg d w4 neg w2 d w4 neg w2 neg d w4 neg w4 d w2 w4 d w2 neg w4 d w4 w4 d w4 w2 neg d cl s} def
/m41 {mp x y m w4 w2 d w4 w4 neg d w2 neg w4 neg d w2 w4 neg d w4 neg w4 neg d w4 neg w2 d w4 neg w2 neg d w4 neg w4 d w2 w4 d w2 neg w4 d w4 w4 d w4 w2 neg d cl f} def
/m42 {mp x y w2 add m w8 neg w2 -3 4 div mul d w2 -3 4 div mul w8 neg d w2 3 4 div mul w8 neg d w8 w2 -3 4 div mul d w8 w2 3 4 div mul d w2 3 4 div mul w8 d w2 -3 4 div mul w8 d w8 neg w2 3 4 div mul d cl s} def
/m43 {mp x y w2 add m w8 neg w2 -3 4 div mul d w2 -3 4 div mul w8 neg d w2 3 4 div mul w8 neg d w8 w2 -3 4 div mul d w8 w2 3 4 div mul d w2 3 4 div mul w8 d w2 -3 4 div mul w8 d w8 neg w2 3 4 div mul d cl f} def
/m44 {mp x y m w6 neg w2 d w2 2 3 div mul 0 d w6 neg w2 neg d w2 w6 d 0 w2 -2 3 div mul d w2 neg w6 d w6 w2 neg d w2 -2 3 div mul 0 d w6 w2 d w2 neg w6 neg d 0 w2 2 3 div mul d w2 w6 neg d cl s} def
/m45 {mp x y m w6 neg w2 d w2 2 3 div mul 0 d w6 neg w2 neg d w2 w6 d 0 w2 -2 3 div mul d w2 neg w6 d w6 w2 neg d w2 -2 3 div mul 0 d w6 w2 d w2 neg w6 neg d 0 w2 2 3 div mul d w2 w6 neg d cl f} def
/m46 {mp x y w4 add m w4 neg w4 d w4 neg w4 neg d  w4 w4 neg d w4 neg w4 neg d w4 w4 neg d w4 w4 d w4 w4 neg d w4 w4 d w4 neg w4 d w4 w4 d w4 neg w4 d w4 neg w4 neg d cl s} def
/m47 {mp x y w4 add m w4 neg w4 d w4 neg w4 neg d w4 w4 neg d w4 neg w4 neg d  w4 w4 neg d w4 w4 d w4 w4 neg d w4 w4 d w4 neg w4 d w4 w4 d w4 neg w4 d w4 neg w4 neg d cl f} def
/m48 {mp x y w4 add m w4 neg w4 d w4 neg w4 neg d w4 w4 neg d  w4 neg w4 neg d w4 w4 neg d w4 w4 d w4 w4 neg d w4 w4 d w4 neg w4 d w4 w4 d w4 neg w4 d w4 neg w4 neg d  w4 w4 neg d w4 neg w4 neg d w4 neg w4 d w4 w4 d cl f} def
/m49 {mp x w2 sub w3 add y w2 sub w3 add m  0 w3 neg d w3 0 d 0 w3 d w3 0 d 0 w3 d w3 neg 0 d 0 w3 d w3 neg 0 d 0 w3 neg d w3 neg 0 d 0 w3 neg d w3 0 d 0 w3 d w3 0 d 0 w3 neg d w3 neg 0 d cl f } def
/m2 {mp x y w2 sub m 0 w d x w2 sub y m w 0 d s} def
/m5 {mp x w2 sub y w2 sub m w w d x w2 sub y w2 add m w w neg d s} def
%%IncludeResource: ProcSet (FontSetInit)
%%IncludeResource: font Times-Roman
%%IncludeResource: font Times-Italic
%%IncludeResource: font Times-Bold
%%IncludeResource: font Times-BoldItalic
%%IncludeResource: font Helvetica
%%IncludeResource: font Helvetica-Oblique
%%IncludeResource: font Helvetica-Bold
%%IncludeResource: font Helvetica-BoldOblique
%%IncludeResource: font Courier
%%IncludeResource: font Courier-Oblique
%%IncludeResource: font Courier-Bold
%%IncludeResource: font Courier-BoldOblique
%%IncludeResource: font Symbol
%%IncludeResource: font ZapfDingbats
/reEncode {exch findfont dup length dict begin {1 index /FID eq  {pop pop} {def} ifelse } forall /Encoding exch def currentdict end dup /FontName get exch definefont pop } def [/Times-Bold /Times-Italic /Times-BoldItalic /Helvetica /Helvetica-Oblique
 /Helvetica-Bold /Helvetica-BoldOblique /Courier /Courier-Oblique /Courier-Bold /Courier-BoldOblique /Times-Roman /AvantGarde-Book /AvantGarde-BookOblique /AvantGarde-Demi /AvantGarde-DemiOblique /Bookman-Demi /Bookman-DemiItalic /Bookman-Light
 /Bookman-LightItalic /Helvetica-Narrow /Helvetica-Narrow-Bold /Helvetica-Narrow-BoldOblique /Helvetica-Narrow-Oblique /NewCenturySchlbk-Roman /NewCenturySchlbk-Bold /NewCenturySchlbk-BoldItalic /NewCenturySchlbk-Italic /Palatino-Bold
 /Palatino-BoldItalic /Palatino-Italic /Palatino-Roman ] {ISOLatin1Encoding reEncode } forall
%%EndProlog
%%BeginSetup
%%EndSetup
newpath  gsave  .25 .25 scale  gsave  0 0 t black[  ] 0 sd 3 lw 1 1 1 c 2268 1415 0 0 bf black 1 1 1 c 1814 1132 227 142 bf black 1814 1132 227 142 bl 1 0 0 c 6 lw 1 1 1 c black 1 0 0 c 227 661 m 101 X 29 Y 100 X -27 Y 101 X -47 Y 101 X 20 Y 101 X
 -51 Y 201 X -97 Y 101 X -4 Y 101 X 58 Y 101 X 84 Y 100 X 15 Y 101 X 2 Y 101 X -142 Y 101 X 31 Y 101 X 72 Y 100 X 163 Y 101 X -70 Y 101 X s black 3 lw 227 142 m 1814 X s 277 176 m -34 Y s 328 159 m -17 Y s 378 159 m -17 Y s 428 159 m -17 Y s 479 159
 m -17 Y s 529 176 m -34 Y s 580 159 m -17 Y s 630 159 m -17 Y s 680 159 m -17 Y s 731 159 m -17 Y s 781 176 m -34 Y s 831 159 m -17 Y s 882 159 m -17 Y s 932 159 m -17 Y s 983 159 m -17 Y s 1033 176 m -34 Y s 1083 159 m -17 Y s 1134 159 m -17 Y s
 1184 159 m -17 Y s 1235 159 m -17 Y s 1285 176 m -34 Y s 1335 159 m -17 Y s 1386 159 m -17 Y s 1436 159 m -17 Y s 1487 159 m -17 Y s 1537 176 m -34 Y s 1587 159 m -17 Y s 1638 159 m -17 Y s 1688 159 m -17 Y s 1739 159 m -17 Y s 1789 176 m -34 Y s
 1839 159 m -17 Y s 1890 159 m -17 Y s 1940 159 m -17 Y s 1991 159 m -17 Y s 2041 176 m -34 Y s 277 176 m -34 Y s 227 159 m -17 Y s
 gsave  2268 1415 0 0 C 235.903 95.1223 t 0 r /Helvetica findfont 45.6587 sf 0 0 m (500) show NC gr 
 gsave  2268 1415 0 0 C 490.831 95.1223 t 0 r /Helvetica findfont 45.6587 sf 0 0 m (550) show NC gr 
 gsave  2268 1415 0 0 C 741.954 95.1223 t 0 r /Helvetica findfont 45.6587 sf 0 0 m (600) show NC gr 
 gsave  2268 1415 0 0 C 993.077 95.1223 t 0 r /Helvetica findfont 45.6587 sf 0 0 m (650) show NC gr 
 gsave  2268 1415 0 0 C 1244.2 95.1223 t 0 r /Helvetica findfont 45.6587 sf 0 0 m (700) show NC gr 
 gsave  2268 1415 0 0 C 1495.32 95.1223 t 0 r /Helvetica findfont 45.6587 sf 0 0 m (750) show NC gr 
 gsave  2268 1415 0 0 C 1750.25 95.1223 t 0 r /Helvetica findfont 45.6587 sf 0 0 m (800) show NC gr 
 gsave  2268 1415 0 0 C 2001.37 95.1223 t 0 r /Helvetica findfont 45.6587 sf 0 0 m (850) show NC gr 
 gsave  2268 1415 0 0 C 1940.5 45.6587 t 0 r /Helvetica findfont 45.6587 sf 0 0 m (mVH) show NC gr  227 142 m 1132 Y s 281 233 m -54 X s 254 282 m -27 X s 254 331 m -27 X s 254 379 m -27 X s 281 428 m -54 X s 254 477 m -27 X s 254 525 m -27 X s 254
 574 m -27 X s 281 623 m -54 X s 254 671 m -27 X s 254 720 m -27 X s 254 769 m -27 X s 281 817 m -54 X s 254 866 m -27 X s 254 915 m -27 X s 254 963 m -27 X s 281 1012 m -54 X s 254 1060 m -27 X s 254 1109 m -27 X s 254 1158 m -27 X s 281 1206 m -54
 X s 281 233 m -54 X s 254 185 m -27 X s 281 1206 m -54 X s 254 1255 m -27 X s
 gsave  2268 1415 0 0 C 125.561 216.879 t 0 r /Helvetica findfont 45.6587 sf 0 0 m (0.04) show NC gr 
 gsave  2268 1415 0 0 C 98.9272 216.879 t 0 r /Symbol findfont 45.6587 sf 0 0 m (-) show NC gr 
 gsave  2268 1415 0 0 C 125.561 410.928 t 0 r /Helvetica findfont 45.6587 sf 0 0 m (0.02) show NC gr 
 gsave  2268 1415 0 0 C 98.9272 410.928 t 0 r /Symbol findfont 45.6587 sf 0 0 m (-) show NC gr 
 gsave  2268 1415 0 0 C 186.44 604.978 t 0 r /Helvetica findfont 45.6587 sf 0 0 m (0) show NC gr 
 gsave  2268 1415 0 0 C 125.561 799.028 t 0 r /Helvetica findfont 45.6587 sf 0 0 m (0.02) show NC gr 
 gsave  2268 1415 0 0 C 125.561 993.077 t 0 r /Helvetica findfont 45.6587 sf 0 0 m (0.04) show NC gr 
 gsave  2268 1415 0 0 C 125.561 1190.93 t 0 r /Helvetica findfont 45.6587 sf 0 0 m (0.06) show NC gr 
 gsave  2268 1415 0 0 C 45.6587 1107.22 t 90 r /Helvetica findfont 45.6587 sf 0 0 m (Shift [%]) show NC gr  1 1 1 c black
 gsave  2268 1415 0 0 C 407.124 1350.74 t 0 r /Helvetica findfont 45.6587 sf 0 0 m (Region_BMin0_incJet1_Y2015_DCRcutbasedJvar_T2_L2_distmVH_J2) show NC gr  6 lw 0.8 0.8 0 c black 3 lw 0.8 0.8 0 c 1 lw << /PatternType 1 /PaintType 2 /TilingType 1
 /BBox [ 0 0 100 100 ] /XStep 100 /YStep 100 /PaintProc { begin gsave 0 0 m 100 100 l s gr end } >> [ 0.24 0 0 0.24 0 0 ] makepattern /P04 exch def /cs {[/Pattern /DeviceRGB] setcolorspace} def /FA {f [/DeviceRGB] setcolorspace} def cs 0.8 0.8 0 P04
 setcolor 227 142 m 101 X 1132 Y -101 X FA 6 lw 3 lw 0.8 0.8 0 c cs 0.8 0.8 0 P04 setcolor 328 142 m 100 X 1132 Y -100 X FA 6 lw 3 lw 0.8 0.8 0 c cs 0.8 0.8 0 P04 setcolor 428 142 m 101 X 1132 Y -101 X FA 6 lw 3 lw 0.8 0.8 0 c cs 0.8 0.8 0 P04
 setcolor 529 142 m 101 X 1132 Y -101 X FA 6 lw 3 lw 0.8 0.8 0 c cs 0.8 0.8 0 P04 setcolor 630 142 m 101 X 1132 Y -101 X FA 6 lw 3 lw 0.8 0.8 0 c cs 0.8 0.8 0 P04 setcolor 731 142 m 100 X 1132 Y -100 X FA 6 lw 3 lw 0.8 0.8 0 c cs 0.8 0.8 0 P04
 setcolor 831 142 m 101 X 1132 Y -101 X FA 6 lw 3 lw 0.8 0.8 0 c cs 0.8 0.8 0 P04 setcolor 932 142 m 101 X 1132 Y -101 X FA 6 lw 3 lw 0.8 0.8 0 c cs 0.8 0.8 0 P04 setcolor 1033 142 m 101 X 1132 Y -101 X FA 6 lw 3 lw 0.8 0.8 0 c cs 0.8 0.8 0 P04
 setcolor 1134 142 m 101 X 1132 Y -101 X FA 6 lw 3 lw 0.8 0.8 0 c cs 0.8 0.8 0 P04 setcolor 1235 142 m 100 X 1132 Y -100 X FA 6 lw 3 lw 0.8 0.8 0 c cs 0.8 0.8 0 P04 setcolor 1335 142 m 101 X 1132 Y -101 X FA 6 lw 3 lw 0.8 0.8 0 c cs 0.8 0.8 0 P04
 setcolor 1436 142 m 101 X 1132 Y -101 X FA 6 lw 3 lw 0.8 0.8 0 c cs 0.8 0.8 0 P04 setcolor 1537 142 m 101 X 1132 Y -101 X FA 6 lw 3 lw 0.8 0.8 0 c cs 0.8 0.8 0 P04 setcolor 1638 142 m 101 X 1132 Y -101 X FA 6 lw 3 lw 0.8 0.8 0 c cs 0.8 0.8 0 P04
 setcolor 1739 142 m 100 X 1132 Y -100 X FA 6 lw 3 lw 0.8 0.8 0 c cs 0.8 0.8 0 P04 setcolor 1839 142 m 101 X 1132 Y -101 X FA 6 lw 3 lw 0.8 0.8 0 c cs 0.8 0.8 0 P04 setcolor 1940 142 m 101 X 1132 Y -101 X FA 6 lw 0 0 1 c 1 1 1 c black 0 0 1 c 227 423
 m 101 X 213 Y 100 X -73 Y 101 X 89 Y 101 X -17 Y 101 X 135 Y 100 X -86 Y 101 X -16 Y 101 X -98 Y 101 X 255 Y 101 X -35 Y 100 X 45 Y 101 X -197 Y 101 X -8 Y 101 X 11 Y 101 X 33 Y 100 X -7 Y 101 X -30 Y 101 X s 1 0 0 c 1 1 1 c black 1 0 0 c 227 661 m
 101 X 29 Y 100 X -27 Y 101 X -47 Y 101 X 20 Y 101 X -51 Y 201 X -97 Y 101 X -4 Y 101 X 58 Y 101 X 84 Y 100 X 15 Y 101 X 2 Y 101 X -142 Y 101 X 31 Y 101 X 72 Y 100 X 163 Y 101 X -70 Y 101 X s[ 12 12] 0 sd 3 lw 1 1 1 c black 1 0 0 c 227 674 m 101 X 58
 Y 100 X -106 Y 101 X -93 Y 101 X 245 Y 101 X -304 Y 100 X 62 Y 101 X -49 Y 101 X -23 Y 101 X 231 Y 101 X 32 Y 100 X -200 Y 101 X 169 Y 101 X -381 Y 101 X 286 Y 101 X 326 Y 100 X -119 Y 101 X -572 Y 101 X s 0 0 1 c 1 1 1 c black 0 0 1 c 227 395 m 101
 X 431 Y 100 X -435 Y 101 X 283 Y 101 X 80 Y 101 X 49 Y 100 X -380 Y 101 X 283 Y 101 X -198 Y 101 X 672 Y 101 X -554 Y 100 X 22 Y 101 X -75 Y 101 X 12 Y 101 X 121 Y 101 X 7 Y 100 X -191 Y 101 X 109 Y 101 X s 1 0 0 c[  ] 0 sd 6 lw 1 1 1 c black 1 0 0
 c 227 661 m 101 X 29 Y 100 X -27 Y 101 X -47 Y 101 X 20 Y 101 X -51 Y 201 X -97 Y 101 X -4 Y 101 X 58 Y 101 X 84 Y 100 X 15 Y 101 X 2 Y 101 X -142 Y 101 X 31 Y 101 X 72 Y 100 X 163 Y 101 X -70 Y 101 X s 0 0 1 c 1 1 1 c black 0 0 1 c 227 423 m 101 X
 213 Y 100 X -73 Y 101 X 89 Y 101 X -17 Y 101 X 135 Y 100 X -86 Y 101 X -16 Y 101 X -98 Y 101 X 255 Y 101 X -35 Y 100 X 45 Y 101 X -197 Y 101 X -8 Y 101 X 11 Y 101 X 33 Y 100 X -7 Y 101 X -30 Y 101 X s 0.4 0.4 0.4 c[ 12 12] 0 sd 227 623 m 1814 X s 0
 0 0.6 c[  ] 0 sd 3 lw 1 1 1 c black 0 0 0.6 c 277 1080 m 5 Y s 277 1085 m 5 Y s 227 1085 m 50 X s 277 1085 m 51 X s 270 1080 m 15 X s 270 1090 m 15 X s 227 1078 m 15 Y s 328 1078 m 15 Y s black /w 2 def /w2 {w 2 div} def /w3 {w 3 div} def 277 1085
 m20 0 0 0.6 c 378 936 m 5 Y s 378 941 m 4 Y s 328 941 m 50 X s 378 941 m 50 X s 370 936 m 16 X s 370 945 m 16 X s 328 933 m 15 Y s 428 933 m 15 Y s black 378 941 m20 0 0 0.6 c 479 831 m 4 Y s 479 835 m 4 Y s 428 835 m 51 X s 479 835 m 50 X s 471 831
 m 15 X s 471 839 m 15 X s 428 827 m 15 Y s 529 827 m 15 Y s black 479 835 m20 0 0 0.6 c 580 723 m 4 Y s 580 727 m 3 Y s 529 727 m 51 X s 580 727 m 50 X s 572 723 m 15 X s 572 730 m 15 X s 529 719 m 15 Y s 630 719 m 15 Y s black 580 727 m20 0 0 0.6 c
 680 629 m 3 Y s 680 632 m 2 Y s 630 632 m 50 X s 680 632 m 51 X s 673 629 m 15 X s 673 634 m 15 X s 630 624 m 15 Y s 731 624 m 15 Y s black 680 632 m20 0 0 0.6 c 781 557 m 3 Y s 781 560 m 2 Y s 731 560 m 50 X s 781 560 m 50 X s 773 557 m 16 X s 773
 562 m 16 X s 731 552 m 15 Y s 831 552 m 15 Y s black 781 560 m20 0 0 0.6 c 882 487 m 2 Y s 882 489 m 2 Y s 831 489 m 51 X s 882 489 m 50 X s 874 487 m 15 X s 874 491 m 15 X s 831 482 m 15 Y s 932 482 m 15 Y s black 882 489 m20 0 0 0.6 c 983 430 m 2
 Y s 983 432 m 2 Y s 932 432 m 51 X s 983 432 m 50 X s 975 430 m 15 X s 975 434 m 15 X s 932 425 m 15 Y s 1033 425 m 15 Y s black 983 432 m20 0 0 0.6 c 1083 383 m 2 Y s 1083 385 m 1 Y s 1033 385 m 50 X s 1083 385 m 51 X s 1076 383 m 15 X s 1076 386 m
 15 X s 1033 377 m 15 Y s 1134 377 m 15 Y s black 1083 385 m20 0 0 0.6 c 1184 345 m 1 Y s 1184 346 m 2 Y s 1134 346 m 50 X s 1184 346 m 51 X s 1177 345 m 15 X s 1177 348 m 15 X s 1134 339 m 15 Y s 1235 339 m 15 Y s black 1184 346 m20 0 0 0.6 c 1285
 310 m 1 Y s 1285 311 m 2 Y s 1235 311 m 50 X s 1285 311 m 50 X s 1277 310 m 16 X s 1277 313 m 16 X s 1235 304 m 15 Y s 1335 304 m 15 Y s black 1285 311 m20 0 0 0.6 c 1386 283 m 2 Y s 1386 285 m 1 Y s 1335 285 m 51 X s 1386 285 m 50 X s 1378 283 m 15
 X s 1378 286 m 15 X s 1335 277 m 15 Y s 1436 277 m 15 Y s black 1386 285 m20 0 0 0.6 c 1487 262 m 1 Y s 1487 263 m 1 Y s 1436 263 m 51 X s 1487 263 m 50 X s 1479 262 m 15 X s 1479 264 m 15 X s 1436 256 m 15 Y s 1537 256 m 15 Y s black 1487 263 m20 0
 0 0.6 c 1587 242 m 1 Y s 1587 243 m 1 Y s 1537 243 m 50 X s 1587 243 m 51 X s 1580 242 m 15 X s 1580 244 m 15 X s 1537 236 m 15 Y s 1638 236 m 15 Y s black 1587 243 m20 0 0 0.6 c 1688 230 m 1 Y s 1688 231 m s 1638 231 m 50 X s 1688 231 m 51 X s 1681
 230 m 15 X s 1681 231 m 15 X s 1638 223 m 15 Y s 1739 223 m 15 Y s black 1688 231 m20 0 0 0.6 c 1789 218 m s 1789 218 m 1 Y s 1739 218 m 50 X s 1789 218 m 50 X s 1781 218 m 16 X s 1781 219 m 16 X s 1739 211 m 15 Y s 1839 211 m 15 Y s black 1789 218
 m20 0 0 0.6 c 1890 206 m 1 Y s 1890 207 m s 1839 207 m 51 X s 1890 207 m 50 X s 1882 206 m 15 X s 1882 207 m 15 X s 1839 199 m 15 Y s 1940 199 m 15 Y s black 1890 207 m20 0 0 0.6 c 1991 197 m s 1991 197 m 1 Y s 1940 197 m 51 X s 1991 197 m 50 X s
 1983 197 m 15 X s 1983 198 m 15 X s 1940 190 m 15 Y s 2041 190 m 15 Y s black 1991 197 m20
 gsave  2268 1415 0 0 C 680.315 1203.11 t 0 r /Helvetica-Bold findfont 64.6832 sf 0 0 m (SysMUON_ID) show NC gr 
 gsave  2268 1415 0 0 C 680.315 1089.87 t 0 r /Helvetica-Bold findfont 64.6832 sf 0 0 m (Z) show NC gr 
 gsave  2268 1415 0 0 C 680.315 976.64 t 0 r /Helvetica-Bold findfont 64.6832 sf 0 0 m (NormEff = \2550  %) show NC gr 
 gsave  2268 1415 0 0 C 292.977 171.22 t 0 r /Helvetica-Bold findfont 45.6587 sf 0 0 m (/NDF: Up=0.000337 Do=0.000493) show NC gr 
 gsave  2268 1415 0 0 C 273.952 190.245 t 0 r /Helvetica-Bold findfont 30.4391 sf 0 0 m (2) show NC gr 
 gsave  2268 1415 0 0 C 247.318 171.22 t 0 r /Symbol findfont 45.6587 sf 0 0 m (c) show NC gr  2041 142 m 1132 Y s 1987 142 m 54 X s 2014 182 m 27 X s 2014 222 m 27 X s 2014 263 m 27 X s 1987 303 m 54 X s 2014 344 m 27 X s 2014 384 m 27 X s 2014 424
 m 27 X s 1987 465 m 54 X s 2014 505 m 27 X s 2014 546 m 27 X s 2014 586 m 27 X s 1987 626 m 54 X s 2014 667 m 27 X s 2014 707 m 27 X s 2014 748 m 27 X s 1987 788 m 54 X s 2014 828 m 27 X s 2014 869 m 27 X s 2014 909 m 27 X s 1987 950 m 54 X s 2014
 990 m 27 X s 2014 1031 m 27 X s 2014 1071 m 27 X s 1987 1111 m 54 X s 2014 1152 m 27 X s 2014 1192 m 27 X s 2014 1233 m 27 X s 1987 1273 m 54 X s 1987 1273 m 54 X s
 gsave  2268 1415 0 0 C 2050.84 117.952 t 0 r /Helvetica findfont 64.6832 sf 0 0 m (0) show NC gr 
 gsave  2268 1415 0 0 C 2050.84 277.757 t 0 r /Helvetica findfont 64.6832 sf 0 0 m (2000) show NC gr 
 gsave  2268 1415 0 0 C 2050.84 441.368 t 0 r /Helvetica findfont 64.6832 sf 0 0 m (4000) show NC gr 
 gsave  2268 1415 0 0 C 2050.84 601.173 t 0 r /Helvetica findfont 64.6832 sf 0 0 m (6000) show NC gr 
 gsave  2268 1415 0 0 C 2050.84 764.784 t 0 r /Helvetica findfont 64.6832 sf 0 0 m (8000) show NC gr 
 gsave  2268 1415 0 0 C 2050.84 924.589 t 0 r /Helvetica findfont 64.6832 sf 0 0 m (10000) show NC gr 
 gsave  2268 1415 0 0 C 2050.84 1088.2 t 0 r /Helvetica findfont 64.6832 sf 0 0 m (12000) show NC gr 
 gsave  2268 1415 0 0 C 2050.84 1248.01 t 0 r /Helvetica findfont 64.6832 sf 0 0 m (14000) show NC gr 
 gsave  2268 1415 0 0 C 2336.2 1076.78 t 90 r /Helvetica findfont 64.6832 sf 0 0 m (Events) show NC gr 
 gsave  2268 1415 0 0 C 1643.71 1225.18 t 0 r /Helvetica findfont 53.2685 sf 0 0 m (Up) show NC gr  1 0 0 c 6 lw 1596 1238 m 40 X s black
 gsave  2268 1415 0 0 C 1643.71 1152.88 t 0 r /Helvetica findfont 53.2685 sf 0 0 m (Down) show NC gr  0 0 1 c 1596 1168 m 40 X s black
 gsave  2268 1415 0 0 C 1643.71 1084.39 t 0 r /Helvetica findfont 53.2685 sf 0 0 m (Unsmoothed) show NC gr  1 0 0 c[ 12 12] 0 sd 3 lw 1596 1097 m 40 X s 1 1 1 c black
 gsave  2268 1415 0 0 C 407.124 1350.74 t 0 r /Helvetica findfont 45.6587 sf 0 0 m (Region_BMin0_incJet1_Y2015_DCRcutbasedJvar_T2_L2_distmVH_J2) show NC gr 
 gr  gr showpage
end
%%EOF
