%!PS-Adobe-2.0 EPSF-2.0
%%BoundingBox:  0 0 567 354
%%Title: : canvas
%%Creator: ROOT Version 6.14/04
%%CreationDate: Wed Apr 22 09:55:59 2020
%%DocumentNeededResources: ProcSet (FontSetInit)
%%EndComments
%%BeginProlog
80 dict begin
/s {stroke} def /l {lineto} def /m {moveto} def /t {translate} def
/r {rotate} def /rl {roll}  def /R {repeat} def
/d {rlineto} def /rm {rmoveto} def /gr {grestore} def /f {eofill} def
/c {setrgbcolor} def /black {0 setgray} def /sd {setdash} def
/cl {closepath} def /sf {scalefont setfont} def /lw {setlinewidth} def
/box {m dup 0 exch d exch 0 d 0 exch neg d cl} def
/NC{systemdict begin initclip end}def/C{NC box clip newpath}def
/bl {box s} def /bf {gsave box gsave f grestore 1 lw [] 0 sd s grestore} def /Y { 0 exch d} def /X { 0 d} def 
/K {{pop pop 0 moveto} exch kshow} bind def
/ita {/ang 15 def gsave [1 0 ang dup sin exch cos div 1 0 0] concat} def 
/mp {newpath /y exch def /x exch def} def
/side {[w .77 mul w .23 mul] .385 w mul sd w 0 l currentpoint t -144 r} def
/mr {mp x y w2 0 360 arc} def /m24 {mr s} def /m20 {mr f} def
/mb {mp x y w2 add m w2 neg 0 d 0 w neg d w 0 d 0 w d cl} def
/mt {mp x y w2 add m w2 neg w neg d w 0 d cl} def
/w4 {w 4 div} def
/w6 {w 6 div} def
/w8 {w 8 div} def
/m21 {mb f} def /m25 {mb s} def /m22 {mt f} def /m26{mt s} def
/m23 {mp x y w2 sub m w2 w d w neg 0 d cl f} def
/m27 {mp x y w2 add m w3 neg w2 neg d w3 w2 neg d w3 w2 d cl s} def
/m28 {mp x w2 sub y w2 sub w3 add m w3 0 d  0 w3 neg d w3 0 d 0 w3 d w3 0 d  0 w3 d w3 neg 0 d 0 w3 d w3 neg 0 d 0 w3 neg d w3 neg 0 d cl s } def
/m29 {mp gsave x w2 sub y w2 add w3 sub m currentpoint t 4 {side} repeat cl fill gr} def
/m30 {mp gsave x w2 sub y w2 add w3 sub m currentpoint t 4 {side} repeat cl s gr} def
/m31 {mp x y w2 sub m 0 w d x w2 sub y m w 0 d x w2 sub y w2 add m w w neg d x w2 sub y w2 sub m w w d s} def
/m32 {mp x y w2 sub m w2 w d w neg 0 d cl s} def
/m33 {mp x y w2 add m w3 neg w2 neg d w3 w2 neg d w3 w2 d cl f} def
/m34 {mp x w2 sub y w2 sub w3 add m w3 0 d  0 w3 neg d w3 0 d 0 w3 d w3 0 d  0 w3 d w3 neg 0 d 0 w3 d w3 neg 0 d 0 w3 neg d w3 neg 0 d cl f } def
/m35 {mp x y w2 add m w2 neg w2 neg d w2 w2 neg d w2 w2 d w2 neg w2 d x y w2 sub m 0 w d x w2 sub y m w 0 d s} def
/m36 {mb x w2 sub y w2 add m w w neg d x w2 sub y w2 sub m w w d s} def
/m37 {mp x y m w4 neg w2 d w4 neg w2 neg d w2 0 d  w4 neg w2 neg d w2 0 d w4 neg w2 d w2 0 d w4 neg w2 d w4 neg w2 neg d cl s} def
/m38 {mp x w4 sub y w2 add m w4 neg w4 neg d 0 w2 neg d w4 w4 neg d w2 0 d w4 w4 d 0 w2 d w4 neg w4 d w2 neg 0 d x y w2 sub m 0 w d x w2 sub y m w 0 d cl s} def
/m39 {mp x y m w4 neg w2 d w4 neg w2 neg d w2 0 d  w4 neg w2 neg d w2 0 d w4 neg w2 d w2 0 d w4 neg w2 d w4 neg w2 neg d cl f} def
/m40 {mp x y m w4 w2 d w4 w4 neg d w2 neg w4 neg d w2 w4 neg d w4 neg w4 neg d w4 neg w2 d w4 neg w2 neg d w4 neg w4 d w2 w4 d w2 neg w4 d w4 w4 d w4 w2 neg d cl s} def
/m41 {mp x y m w4 w2 d w4 w4 neg d w2 neg w4 neg d w2 w4 neg d w4 neg w4 neg d w4 neg w2 d w4 neg w2 neg d w4 neg w4 d w2 w4 d w2 neg w4 d w4 w4 d w4 w2 neg d cl f} def
/m42 {mp x y w2 add m w8 neg w2 -3 4 div mul d w2 -3 4 div mul w8 neg d w2 3 4 div mul w8 neg d w8 w2 -3 4 div mul d w8 w2 3 4 div mul d w2 3 4 div mul w8 d w2 -3 4 div mul w8 d w8 neg w2 3 4 div mul d cl s} def
/m43 {mp x y w2 add m w8 neg w2 -3 4 div mul d w2 -3 4 div mul w8 neg d w2 3 4 div mul w8 neg d w8 w2 -3 4 div mul d w8 w2 3 4 div mul d w2 3 4 div mul w8 d w2 -3 4 div mul w8 d w8 neg w2 3 4 div mul d cl f} def
/m44 {mp x y m w6 neg w2 d w2 2 3 div mul 0 d w6 neg w2 neg d w2 w6 d 0 w2 -2 3 div mul d w2 neg w6 d w6 w2 neg d w2 -2 3 div mul 0 d w6 w2 d w2 neg w6 neg d 0 w2 2 3 div mul d w2 w6 neg d cl s} def
/m45 {mp x y m w6 neg w2 d w2 2 3 div mul 0 d w6 neg w2 neg d w2 w6 d 0 w2 -2 3 div mul d w2 neg w6 d w6 w2 neg d w2 -2 3 div mul 0 d w6 w2 d w2 neg w6 neg d 0 w2 2 3 div mul d w2 w6 neg d cl f} def
/m46 {mp x y w4 add m w4 neg w4 d w4 neg w4 neg d  w4 w4 neg d w4 neg w4 neg d w4 w4 neg d w4 w4 d w4 w4 neg d w4 w4 d w4 neg w4 d w4 w4 d w4 neg w4 d w4 neg w4 neg d cl s} def
/m47 {mp x y w4 add m w4 neg w4 d w4 neg w4 neg d w4 w4 neg d w4 neg w4 neg d  w4 w4 neg d w4 w4 d w4 w4 neg d w4 w4 d w4 neg w4 d w4 w4 d w4 neg w4 d w4 neg w4 neg d cl f} def
/m48 {mp x y w4 add m w4 neg w4 d w4 neg w4 neg d w4 w4 neg d  w4 neg w4 neg d w4 w4 neg d w4 w4 d w4 w4 neg d w4 w4 d w4 neg w4 d w4 w4 d w4 neg w4 d w4 neg w4 neg d  w4 w4 neg d w4 neg w4 neg d w4 neg w4 d w4 w4 d cl f} def
/m49 {mp x w2 sub w3 add y w2 sub w3 add m  0 w3 neg d w3 0 d 0 w3 d w3 0 d 0 w3 d w3 neg 0 d 0 w3 d w3 neg 0 d 0 w3 neg d w3 neg 0 d 0 w3 neg d w3 0 d 0 w3 d w3 0 d 0 w3 neg d w3 neg 0 d cl f } def
/m2 {mp x y w2 sub m 0 w d x w2 sub y m w 0 d s} def
/m5 {mp x w2 sub y w2 sub m w w d x w2 sub y w2 add m w w neg d s} def
%%IncludeResource: ProcSet (FontSetInit)
%%IncludeResource: font Times-Roman
%%IncludeResource: font Times-Italic
%%IncludeResource: font Times-Bold
%%IncludeResource: font Times-BoldItalic
%%IncludeResource: font Helvetica
%%IncludeResource: font Helvetica-Oblique
%%IncludeResource: font Helvetica-Bold
%%IncludeResource: font Helvetica-BoldOblique
%%IncludeResource: font Courier
%%IncludeResource: font Courier-Oblique
%%IncludeResource: font Courier-Bold
%%IncludeResource: font Courier-BoldOblique
%%IncludeResource: font Symbol
%%IncludeResource: font ZapfDingbats
/reEncode {exch findfont dup length dict begin {1 index /FID eq  {pop pop} {def} ifelse } forall /Encoding exch def currentdict end dup /FontName get exch definefont pop } def [/Times-Bold /Times-Italic /Times-BoldItalic /Helvetica /Helvetica-Oblique
 /Helvetica-Bold /Helvetica-BoldOblique /Courier /Courier-Oblique /Courier-Bold /Courier-BoldOblique /Times-Roman /AvantGarde-Book /AvantGarde-BookOblique /AvantGarde-Demi /AvantGarde-DemiOblique /Bookman-Demi /Bookman-DemiItalic /Bookman-Light
 /Bookman-LightItalic /Helvetica-Narrow /Helvetica-Narrow-Bold /Helvetica-Narrow-BoldOblique /Helvetica-Narrow-Oblique /NewCenturySchlbk-Roman /NewCenturySchlbk-Bold /NewCenturySchlbk-BoldItalic /NewCenturySchlbk-Italic /Palatino-Bold
 /Palatino-BoldItalic /Palatino-Italic /Palatino-Roman ] {ISOLatin1Encoding reEncode } forall
%%EndProlog
%%BeginSetup
%%EndSetup
newpath  gsave  .25 .25 scale  gsave  0 0 t black[  ] 0 sd 3 lw 1 1 1 c 2268 1415 0 0 bf black 1 1 1 c 1814 1132 227 142 bf black 1814 1132 227 142 bl 1 0 0 c 6 lw 1 1 1 c black 1 0 0 c 227 743 m 65 X -6 Y 64 X -10 Y 65 X 126 Y 65 X 1 Y 65 X -3 Y 65
 X -3 Y 64 X 3 Y 130 X -23 Y 65 X -16 Y 64 X -20 Y 65 X -2 Y 65 X 9 Y 65 X -1 Y 65 X -10 Y 64 X 5 Y 65 X -26 Y 65 X 12 Y 65 X 6 Y 65 X 17 Y 64 X -177 Y 65 X 18 Y 65 X 7 Y 65 X 4 Y 65 X -1 Y 64 X -5 Y 65 X -11 Y 65 X s black 3 lw 227 142 m 1814 X s
 259 176 m -34 Y s 324 159 m -17 Y s 389 159 m -17 Y s 454 159 m -17 Y s 518 159 m -17 Y s 583 176 m -34 Y s 648 159 m -17 Y s 713 159 m -17 Y s 778 159 m -17 Y s 842 159 m -17 Y s 907 176 m -34 Y s 972 159 m -17 Y s 1037 159 m -17 Y s 1101 159 m -17
 Y s 1166 159 m -17 Y s 1231 176 m -34 Y s 1296 159 m -17 Y s 1361 159 m -17 Y s 1425 159 m -17 Y s 1490 159 m -17 Y s 1555 176 m -34 Y s 1620 159 m -17 Y s 1685 159 m -17 Y s 1749 159 m -17 Y s 1814 159 m -17 Y s 1879 176 m -34 Y s 259 176 m -34 Y s
 1879 176 m -34 Y s 1944 159 m -17 Y s 2009 159 m -17 Y s
 gsave  2268 1415 0 0 C 220.684 95.1223 t 0 r /Helvetica findfont 45.6587 sf 0 0 m (300) show NC gr 
 gsave  2268 1415 0 0 C 544.1 95.1223 t 0 r /Helvetica findfont 45.6587 sf 0 0 m (400) show NC gr 
 gsave  2268 1415 0 0 C 867.516 95.1223 t 0 r /Helvetica findfont 45.6587 sf 0 0 m (500) show NC gr 
 gsave  2268 1415 0 0 C 1190.93 95.1223 t 0 r /Helvetica findfont 45.6587 sf 0 0 m (600) show NC gr 
 gsave  2268 1415 0 0 C 1514.35 95.1223 t 0 r /Helvetica findfont 45.6587 sf 0 0 m (700) show NC gr 
 gsave  2268 1415 0 0 C 1837.76 95.1223 t 0 r /Helvetica findfont 45.6587 sf 0 0 m (800) show NC gr 
 gsave  2268 1415 0 0 C 1940.5 45.6587 t 0 r /Helvetica findfont 45.6587 sf 0 0 m (mVH) show NC gr  227 142 m 1132 Y s 281 158 m -54 X s 254 191 m -27 X s 254 223 m -27 X s 254 255 m -27 X s 254 287 m -27 X s 281 319 m -54 X s 254 352 m -27 X s 254
 384 m -27 X s 254 416 m -27 X s 254 448 m -27 X s 281 481 m -54 X s 254 513 m -27 X s 254 545 m -27 X s 254 577 m -27 X s 254 609 m -27 X s 281 642 m -54 X s 254 674 m -27 X s 254 706 m -27 X s 254 738 m -27 X s 254 770 m -27 X s 281 803 m -54 X s
 254 835 m -27 X s 254 867 m -27 X s 254 899 m -27 X s 254 932 m -27 X s 281 964 m -54 X s 254 996 m -27 X s 254 1028 m -27 X s 254 1060 m -27 X s 254 1093 m -27 X s 281 1125 m -54 X s 281 158 m -54 X s 281 1125 m -54 X s 254 1157 m -27 X s 254 1189
 m -27 X s 254 1222 m -27 X s 254 1254 m -27 X s
 gsave  2268 1415 0 0 C 148.391 140.781 t 0 r /Helvetica findfont 45.6587 sf 0 0 m (0.4) show NC gr 
 gsave  2268 1415 0 0 C 121.757 140.781 t 0 r /Symbol findfont 45.6587 sf 0 0 m (-) show NC gr 
 gsave  2268 1415 0 0 C 148.391 300.587 t 0 r /Helvetica findfont 45.6587 sf 0 0 m (0.3) show NC gr 
 gsave  2268 1415 0 0 C 121.757 300.587 t 0 r /Symbol findfont 45.6587 sf 0 0 m (-) show NC gr 
 gsave  2268 1415 0 0 C 148.391 464.197 t 0 r /Helvetica findfont 45.6587 sf 0 0 m (0.2) show NC gr 
 gsave  2268 1415 0 0 C 121.757 464.197 t 0 r /Symbol findfont 45.6587 sf 0 0 m (-) show NC gr 
 gsave  2268 1415 0 0 C 156.001 624.003 t 0 r /Helvetica findfont 45.6587 sf 0 0 m (0.1) show NC gr 
 gsave  2268 1415 0 0 C 129.366 624.003 t 0 r /Symbol findfont 45.6587 sf 0 0 m (-) show NC gr 
 gsave  2268 1415 0 0 C 186.44 783.808 t 0 r /Helvetica findfont 45.6587 sf 0 0 m (0) show NC gr 
 gsave  2268 1415 0 0 C 156.001 947.418 t 0 r /Helvetica findfont 45.6587 sf 0 0 m (0.1) show NC gr 
 gsave  2268 1415 0 0 C 148.391 1107.22 t 0 r /Helvetica findfont 45.6587 sf 0 0 m (0.2) show NC gr 
 gsave  2268 1415 0 0 C 68.4881 1107.22 t 90 r /Helvetica findfont 45.6587 sf 0 0 m (Shift [%]) show NC gr  1 1 1 c black
 gsave  2268 1415 0 0 C 407.124 1350.74 t 0 r /Helvetica findfont 45.6587 sf 0 0 m (Region_BMin0_incJet1_Y2015_DCRcutbasedJvar_T2_L2_distmVH_J2) show NC gr  0 0 1 c 6 lw 1 1 1 c black 0 0 1 c 227 863 m 65 X 7 Y 64 X 9 Y 65 X -127 Y 65 X -1 Y 65 X 4 Y
 65 X 2 Y 64 X -3 Y 130 X 23 Y 65 X 16 Y 64 X 20 Y 65 X 2 Y 65 X -9 Y 65 X 1 Y 65 X 10 Y 64 X -4 Y 65 X 25 Y 65 X -12 Y 65 X -5 Y 65 X -17 Y 64 X 179 Y 65 X -18 Y 65 X -8 Y 65 X -3 Y 65 X 1 Y 64 X 5 Y 65 X 11 Y 65 X s 1 0 0 c 1 1 1 c black 1 0 0 c
 227 743 m 65 X -6 Y 64 X -10 Y 65 X 126 Y 65 X 1 Y 65 X -3 Y 65 X -3 Y 64 X 3 Y 130 X -23 Y 65 X -16 Y 64 X -20 Y 65 X -2 Y 65 X 9 Y 65 X -1 Y 65 X -10 Y 64 X 5 Y 65 X -26 Y 65 X 12 Y 65 X 6 Y 65 X 17 Y 64 X -177 Y 65 X 18 Y 65 X 7 Y 65 X 4 Y 65 X
 -1 Y 64 X -5 Y 65 X -11 Y 65 X s[ 12 12] 0 sd 3 lw 1 1 1 c black 1 0 0 c 227 502 m 65 X 640 Y 64 X -595 Y 65 X 620 Y 65 X -301 Y 65 X -269 Y 65 X 241 Y 64 X -121 Y 65 X 161 Y 65 X -115 Y 65 X -235 Y 64 X 537 Y 65 X -456 Y 65 X 334 Y 65 X 95 Y 65 X
 -329 Y 64 X 342 Y 65 X -319 Y 65 X -140 Y 65 X 297 Y 65 X -4 Y 64 X -649 Y 65 X 296 Y 65 X 381 Y 65 X 243 Y 65 X -390 Y 64 X -470 Y 65 X 409 Y 65 X s 0 0 1 c 1 1 1 c black 0 0 1 c 227 463 m 65 X 662 Y 64 X -589 Y 65 X 644 Y 65 X -310 Y 65 X -264 Y
 65 X 246 Y 64 X -128 Y 65 X 161 Y 65 X -105 Y 65 X -252 Y 64 X 548 Y 65 X -454 Y 65 X 317 Y 65 X 102 Y 65 X -333 Y 64 X 339 Y 65 X -318 Y 65 X -141 Y 65 X 296 Y 65 X -12 Y 64 X -626 Y 65 X 275 Y 65 X 386 Y 65 X 235 Y 65 X -398 Y 64 X -467 Y 65 X 417
 Y 65 X s 1 0 0 c[  ] 0 sd 6 lw 1 1 1 c black 1 0 0 c 227 743 m 65 X -6 Y 64 X -10 Y 65 X 126 Y 65 X 1 Y 65 X -3 Y 65 X -3 Y 64 X 3 Y 130 X -23 Y 65 X -16 Y 64 X -20 Y 65 X -2 Y 65 X 9 Y 65 X -1 Y 65 X -10 Y 64 X 5 Y 65 X -26 Y 65 X 12 Y 65 X 6 Y 65
 X 17 Y 64 X -177 Y 65 X 18 Y 65 X 7 Y 65 X 4 Y 65 X -1 Y 64 X -5 Y 65 X -11 Y 65 X s 0 0 1 c 1 1 1 c black 0 0 1 c 227 863 m 65 X 7 Y 64 X 9 Y 65 X -127 Y 65 X -1 Y 65 X 4 Y 65 X 2 Y 64 X -3 Y 130 X 23 Y 65 X 16 Y 64 X 20 Y 65 X 2 Y 65 X -9 Y 65 X 1
 Y 65 X 10 Y 64 X -4 Y 65 X 25 Y 65 X -12 Y 65 X -5 Y 65 X -17 Y 64 X 179 Y 65 X -18 Y 65 X -8 Y 65 X -3 Y 65 X 1 Y 64 X 5 Y 65 X 11 Y 65 X s 0.4 0.4 0.4 c[ 12 12] 0 sd 227 803 m 1814 X s 0 0 0.6 c[  ] 0 sd 3 lw 1 1 1 c black 0 0 0.6 c 259 854 m 12 Y
 s 259 866 m 11 Y s 227 866 m 32 X s 259 866 m 33 X s 252 854 m 15 X s 252 877 m 15 X s 227 858 m 15 Y s 292 858 m 15 Y s black /w 2 def /w2 {w 2 div} def /w3 {w 3 div} def 259 866 m20 0 0 0.6 c 324 987 m 9 Y s 324 996 m 10 Y s 292 996 m 32 X s 324
 996 m 32 X s 316 987 m 16 X s 316 1006 m 16 X s 292 989 m 15 Y s 356 989 m 15 Y s black 324 996 m20 0 0 0.6 c 389 1076 m 9 Y s 389 1085 m 9 Y s 356 1085 m 33 X s 389 1085 m 32 X s 381 1076 m 15 X s 381 1094 m 15 X s 356 1078 m 15 Y s 421 1078 m 15 Y
 s black 389 1085 m20 0 0 0.6 c 454 1049 m 7 Y s 454 1056 m 7 Y s 421 1056 m 33 X s 454 1056 m 32 X s 446 1049 m 15 X s 446 1063 m 15 X s 421 1048 m 15 Y s 486 1048 m 15 Y s black 454 1056 m20 0 0 0.6 c 518 1024 m 6 Y s 518 1030 m 7 Y s 486 1030 m 32
 X s 518 1030 m 33 X s 511 1024 m 15 X s 511 1037 m 15 X s 486 1023 m 15 Y s 551 1023 m 15 Y s black 518 1030 m20 0 0 0.6 c 583 969 m 5 Y s 583 974 m 5 Y s 551 974 m 32 X s 583 974 m 33 X s 576 969 m 15 X s 576 979 m 15 X s 551 966 m 16 Y s 616 966 m
 16 Y s black 583 974 m20 0 0 0.6 c 648 899 m 5 Y s 648 904 m 4 Y s 616 904 m 32 X s 648 904 m 32 X s 640 899 m 16 X s 640 908 m 16 X s 616 896 m 15 Y s 680 896 m 15 Y s black 648 904 m20 0 0 0.6 c 713 815 m 4 Y s 713 819 m 4 Y s 680 819 m 33 X s 713
 819 m 32 X s 705 815 m 15 X s 705 823 m 15 X s 680 812 m 15 Y s 745 812 m 15 Y s black 713 819 m20 0 0 0.6 c 778 742 m 4 Y s 778 746 m 3 Y s 745 746 m 33 X s 778 746 m 32 X s 770 742 m 15 X s 770 749 m 15 X s 745 738 m 15 Y s 810 738 m 15 Y s black
 778 746 m20 0 0 0.6 c 842 661 m 3 Y s 842 664 m 2 Y s 810 664 m 32 X s 842 664 m 33 X s 835 661 m 15 X s 835 666 m 15 X s 810 656 m 15 Y s 875 656 m 15 Y s black 842 664 m20 0 0 0.6 c 907 591 m 3 Y s 907 594 m 2 Y s 875 594 m 32 X s 907 594 m 32 X s
 899 591 m 16 X s 899 596 m 16 X s 875 586 m 15 Y s 939 586 m 15 Y s black 907 594 m20 0 0 0.6 c 972 523 m 2 Y s 972 525 m 2 Y s 939 525 m 33 X s 972 525 m 32 X s 964 523 m 15 X s 964 527 m 15 X s 939 517 m 16 Y s 1004 517 m 16 Y s black 972 525 m20
 0 0 0.6 c 1037 471 m 2 Y s 1037 473 m 1 Y s 1004 473 m 33 X s 1037 473 m 32 X s 1029 471 m 15 X s 1029 474 m 15 X s 1004 465 m 15 Y s 1069 465 m 15 Y s black 1037 473 m20 0 0 0.6 c 1101 419 m 2 Y s 1101 421 m 1 Y s 1069 421 m 32 X s 1101 421 m 33 X
 s 1094 419 m 15 X s 1094 422 m 15 X s 1069 413 m 15 Y s 1134 413 m 15 Y s black 1101 421 m20 0 0 0.6 c 1166 374 m 1 Y s 1166 375 m 2 Y s 1134 375 m 32 X s 1166 375 m 33 X s 1159 374 m 15 X s 1159 377 m 15 X s 1134 368 m 15 Y s 1199 368 m 15 Y s
 black 1166 375 m20 0 0 0.6 c 1231 339 m 2 Y s 1231 341 m 1 Y s 1199 341 m 32 X s 1231 341 m 32 X s 1223 339 m 16 X s 1223 342 m 16 X s 1199 333 m 15 Y s 1263 333 m 15 Y s black 1231 341 m20 0 0 0.6 c 1296 305 m 2 Y s 1296 307 m 1 Y s 1263 307 m 33 X
 s 1296 307 m 32 X s 1288 305 m 15 X s 1288 308 m 15 X s 1263 299 m 15 Y s 1328 299 m 15 Y s black 1296 307 m20 0 0 0.6 c 1361 278 m 1 Y s 1361 279 m 1 Y s 1328 279 m 33 X s 1361 279 m 32 X s 1353 278 m 15 X s 1353 280 m 15 X s 1328 272 m 15 Y s 1393
 272 m 15 Y s black 1361 279 m20 0 0 0.6 c 1425 256 m 1 Y s 1425 257 m s 1393 257 m 32 X s 1425 257 m 33 X s 1418 256 m 15 X s 1418 257 m 15 X s 1393 249 m 15 Y s 1458 249 m 15 Y s black 1425 257 m20 0 0 0.6 c 1490 238 m 1 Y s 1490 239 m s 1458 239 m
 32 X s 1490 239 m 33 X s 1483 238 m 15 X s 1483 239 m 15 X s 1458 231 m 15 Y s 1523 231 m 15 Y s black 1490 239 m20 0 0 0.6 c 1555 221 m 1 Y s 1555 222 m 1 Y s 1523 222 m 32 X s 1555 222 m 32 X s 1547 221 m 16 X s 1547 223 m 16 X s 1523 214 m 16 Y s
 1587 214 m 16 Y s black 1555 222 m20 0 0 0.6 c 1620 208 m 1 Y s 1620 209 m s 1587 209 m 33 X s 1620 209 m 32 X s 1612 208 m 15 X s 1612 209 m 15 X s 1587 201 m 16 Y s 1652 201 m 16 Y s black 1620 209 m20 0 0 0.6 c 1685 199 m 1 Y s 1685 200 m s 1652
 200 m 33 X s 1685 200 m 32 X s 1677 199 m 15 X s 1677 200 m 15 X s 1652 192 m 15 Y s 1717 192 m 15 Y s black 1685 200 m20 0 0 0.6 c 1749 189 m 1 Y s 1749 190 m s 1717 190 m 32 X s 1749 190 m 33 X s 1742 189 m 15 X s 1742 190 m 15 X s 1717 182 m 15 Y
 s 1782 182 m 15 Y s black 1749 190 m20 0 0 0.6 c 1814 183 m 1 Y s 1814 184 m s 1782 184 m 32 X s 1814 184 m 33 X s 1807 183 m 15 X s 1807 184 m 15 X s 1782 176 m 15 Y s 1847 176 m 15 Y s black 1814 184 m20 0 0 0.6 c 1879 177 m 1 Y s 1879 178 m s
 1847 178 m 32 X s 1879 178 m 32 X s 1871 177 m 16 X s 1871 178 m 16 X s 1847 170 m 15 Y s 1911 170 m 15 Y s black 1879 178 m20 0 0 0.6 c 1944 172 m s 1944 172 m 1 Y s 1911 172 m 33 X s 1944 172 m 32 X s 1936 172 m 15 X s 1936 173 m 15 X s 1911 165 m
 15 Y s 1976 165 m 15 Y s black 1944 172 m20 0 0 0.6 c 2009 167 m 1 Y s 2009 168 m s 1976 168 m 33 X s 2009 168 m 32 X s 2001 167 m 15 X s 2001 168 m 15 X s 1976 160 m 15 Y s 2041 160 m 15 Y s black 2009 168 m20
 gsave  2268 1415 0 0 C 680.315 1203.11 t 0 r /Helvetica-Bold findfont 64.6832 sf 0 0 m (SysJET_CR_JET_JER_DataVsMC) show NC gr 
 gsave  2268 1415 0 0 C 680.315 1089.87 t 0 r /Helvetica-Bold findfont 64.6832 sf 0 0 m (Z) show NC gr 
 gsave  2268 1415 0 0 C 680.315 976.64 t 0 r /Helvetica-Bold findfont 64.6832 sf 0 0 m (NormEff = 0.64%) show NC gr 
 gsave  2268 1415 0 0 C 292.977 171.22 t 0 r /Helvetica-Bold findfont 45.6587 sf 0 0 m (/NDF: Up=0.0365 Do=0.0518) show NC gr 
 gsave  2268 1415 0 0 C 273.952 190.245 t 0 r /Helvetica-Bold findfont 30.4391 sf 0 0 m (2) show NC gr 
 gsave  2268 1415 0 0 C 247.318 171.22 t 0 r /Symbol findfont 45.6587 sf 0 0 m (c) show NC gr  2041 142 m 1132 Y s 1987 142 m 54 X s 2014 179 m 27 X s 2014 216 m 27 X s 2014 253 m 27 X s 2014 290 m 27 X s 1987 327 m 54 X s 2014 364 m 27 X s 2014 402
 m 27 X s 2014 439 m 27 X s 2014 476 m 27 X s 1987 513 m 54 X s 2014 550 m 27 X s 2014 587 m 27 X s 2014 624 m 27 X s 2014 662 m 27 X s 1987 699 m 54 X s 2014 736 m 27 X s 2014 773 m 27 X s 2014 810 m 27 X s 2014 847 m 27 X s 1987 884 m 54 X s 2014
 922 m 27 X s 2014 959 m 27 X s 2014 996 m 27 X s 2014 1033 m 27 X s 1987 1070 m 54 X s 2014 1107 m 27 X s 2014 1145 m 27 X s 2014 1182 m 27 X s 2014 1219 m 27 X s 1987 1256 m 54 X s 1987 1256 m 54 X s
 gsave  2268 1415 0 0 C 2050.84 117.952 t 0 r /Helvetica findfont 64.6832 sf 0 0 m (0) show NC gr 
 gsave  2268 1415 0 0 C 2050.84 304.391 t 0 r /Helvetica findfont 64.6832 sf 0 0 m (5000) show NC gr 
 gsave  2268 1415 0 0 C 2050.84 487.026 t 0 r /Helvetica findfont 64.6832 sf 0 0 m (10000) show NC gr 
 gsave  2268 1415 0 0 C 2050.84 673.466 t 0 r /Helvetica findfont 64.6832 sf 0 0 m (15000) show NC gr 
 gsave  2268 1415 0 0 C 2050.84 859.906 t 0 r /Helvetica findfont 64.6832 sf 0 0 m (20000) show NC gr 
 gsave  2268 1415 0 0 C 2050.84 1046.35 t 0 r /Helvetica findfont 64.6832 sf 0 0 m (25000) show NC gr 
 gsave  2268 1415 0 0 C 2050.84 1232.79 t 0 r /Helvetica findfont 64.6832 sf 0 0 m (30000) show NC gr 
 gsave  2268 1415 0 0 C 2336.2 1076.78 t 90 r /Helvetica findfont 64.6832 sf 0 0 m (Events) show NC gr 
 gsave  2268 1415 0 0 C 1643.71 1225.18 t 0 r /Helvetica findfont 53.2685 sf 0 0 m (Up) show NC gr  1 0 0 c 6 lw 1596 1238 m 40 X s black
 gsave  2268 1415 0 0 C 1643.71 1152.88 t 0 r /Helvetica findfont 53.2685 sf 0 0 m (Down) show NC gr  0 0 1 c 1596 1168 m 40 X s black
 gsave  2268 1415 0 0 C 1643.71 1084.39 t 0 r /Helvetica findfont 53.2685 sf 0 0 m (Unsmoothed) show NC gr  1 0 0 c[ 12 12] 0 sd 3 lw 1596 1097 m 40 X s 1 1 1 c black
 gsave  2268 1415 0 0 C 407.124 1350.74 t 0 r /Helvetica findfont 45.6587 sf 0 0 m (Region_BMin0_incJet1_Y2015_DCRcutbasedJvar_T2_L2_distmVH_J2) show NC gr 
 gr  gr showpage
end
%%EOF
