%!PS-Adobe-2.0 EPSF-2.0
%%BoundingBox:  0 0 567 354
%%Title: : canvas
%%Creator: ROOT Version 6.14/04
%%CreationDate: Fri May 15 17:07:37 2020
%%DocumentNeededResources: ProcSet (FontSetInit)
%%EndComments
%%BeginProlog
80 dict begin
/s {stroke} def /l {lineto} def /m {moveto} def /t {translate} def
/r {rotate} def /rl {roll}  def /R {repeat} def
/d {rlineto} def /rm {rmoveto} def /gr {grestore} def /f {eofill} def
/c {setrgbcolor} def /black {0 setgray} def /sd {setdash} def
/cl {closepath} def /sf {scalefont setfont} def /lw {setlinewidth} def
/box {m dup 0 exch d exch 0 d 0 exch neg d cl} def
/NC{systemdict begin initclip end}def/C{NC box clip newpath}def
/bl {box s} def /bf {gsave box gsave f grestore 1 lw [] 0 sd s grestore} def /Y { 0 exch d} def /X { 0 d} def 
/K {{pop pop 0 moveto} exch kshow} bind def
/ita {/ang 15 def gsave [1 0 ang dup sin exch cos div 1 0 0] concat} def 
/mp {newpath /y exch def /x exch def} def
/side {[w .77 mul w .23 mul] .385 w mul sd w 0 l currentpoint t -144 r} def
/mr {mp x y w2 0 360 arc} def /m24 {mr s} def /m20 {mr f} def
/mb {mp x y w2 add m w2 neg 0 d 0 w neg d w 0 d 0 w d cl} def
/mt {mp x y w2 add m w2 neg w neg d w 0 d cl} def
/w4 {w 4 div} def
/w6 {w 6 div} def
/w8 {w 8 div} def
/m21 {mb f} def /m25 {mb s} def /m22 {mt f} def /m26{mt s} def
/m23 {mp x y w2 sub m w2 w d w neg 0 d cl f} def
/m27 {mp x y w2 add m w3 neg w2 neg d w3 w2 neg d w3 w2 d cl s} def
/m28 {mp x w2 sub y w2 sub w3 add m w3 0 d  0 w3 neg d w3 0 d 0 w3 d w3 0 d  0 w3 d w3 neg 0 d 0 w3 d w3 neg 0 d 0 w3 neg d w3 neg 0 d cl s } def
/m29 {mp gsave x w2 sub y w2 add w3 sub m currentpoint t 4 {side} repeat cl fill gr} def
/m30 {mp gsave x w2 sub y w2 add w3 sub m currentpoint t 4 {side} repeat cl s gr} def
/m31 {mp x y w2 sub m 0 w d x w2 sub y m w 0 d x w2 sub y w2 add m w w neg d x w2 sub y w2 sub m w w d s} def
/m32 {mp x y w2 sub m w2 w d w neg 0 d cl s} def
/m33 {mp x y w2 add m w3 neg w2 neg d w3 w2 neg d w3 w2 d cl f} def
/m34 {mp x w2 sub y w2 sub w3 add m w3 0 d  0 w3 neg d w3 0 d 0 w3 d w3 0 d  0 w3 d w3 neg 0 d 0 w3 d w3 neg 0 d 0 w3 neg d w3 neg 0 d cl f } def
/m35 {mp x y w2 add m w2 neg w2 neg d w2 w2 neg d w2 w2 d w2 neg w2 d x y w2 sub m 0 w d x w2 sub y m w 0 d s} def
/m36 {mb x w2 sub y w2 add m w w neg d x w2 sub y w2 sub m w w d s} def
/m37 {mp x y m w4 neg w2 d w4 neg w2 neg d w2 0 d  w4 neg w2 neg d w2 0 d w4 neg w2 d w2 0 d w4 neg w2 d w4 neg w2 neg d cl s} def
/m38 {mp x w4 sub y w2 add m w4 neg w4 neg d 0 w2 neg d w4 w4 neg d w2 0 d w4 w4 d 0 w2 d w4 neg w4 d w2 neg 0 d x y w2 sub m 0 w d x w2 sub y m w 0 d cl s} def
/m39 {mp x y m w4 neg w2 d w4 neg w2 neg d w2 0 d  w4 neg w2 neg d w2 0 d w4 neg w2 d w2 0 d w4 neg w2 d w4 neg w2 neg d cl f} def
/m40 {mp x y m w4 w2 d w4 w4 neg d w2 neg w4 neg d w2 w4 neg d w4 neg w4 neg d w4 neg w2 d w4 neg w2 neg d w4 neg w4 d w2 w4 d w2 neg w4 d w4 w4 d w4 w2 neg d cl s} def
/m41 {mp x y m w4 w2 d w4 w4 neg d w2 neg w4 neg d w2 w4 neg d w4 neg w4 neg d w4 neg w2 d w4 neg w2 neg d w4 neg w4 d w2 w4 d w2 neg w4 d w4 w4 d w4 w2 neg d cl f} def
/m42 {mp x y w2 add m w8 neg w2 -3 4 div mul d w2 -3 4 div mul w8 neg d w2 3 4 div mul w8 neg d w8 w2 -3 4 div mul d w8 w2 3 4 div mul d w2 3 4 div mul w8 d w2 -3 4 div mul w8 d w8 neg w2 3 4 div mul d cl s} def
/m43 {mp x y w2 add m w8 neg w2 -3 4 div mul d w2 -3 4 div mul w8 neg d w2 3 4 div mul w8 neg d w8 w2 -3 4 div mul d w8 w2 3 4 div mul d w2 3 4 div mul w8 d w2 -3 4 div mul w8 d w8 neg w2 3 4 div mul d cl f} def
/m44 {mp x y m w6 neg w2 d w2 2 3 div mul 0 d w6 neg w2 neg d w2 w6 d 0 w2 -2 3 div mul d w2 neg w6 d w6 w2 neg d w2 -2 3 div mul 0 d w6 w2 d w2 neg w6 neg d 0 w2 2 3 div mul d w2 w6 neg d cl s} def
/m45 {mp x y m w6 neg w2 d w2 2 3 div mul 0 d w6 neg w2 neg d w2 w6 d 0 w2 -2 3 div mul d w2 neg w6 d w6 w2 neg d w2 -2 3 div mul 0 d w6 w2 d w2 neg w6 neg d 0 w2 2 3 div mul d w2 w6 neg d cl f} def
/m46 {mp x y w4 add m w4 neg w4 d w4 neg w4 neg d  w4 w4 neg d w4 neg w4 neg d w4 w4 neg d w4 w4 d w4 w4 neg d w4 w4 d w4 neg w4 d w4 w4 d w4 neg w4 d w4 neg w4 neg d cl s} def
/m47 {mp x y w4 add m w4 neg w4 d w4 neg w4 neg d w4 w4 neg d w4 neg w4 neg d  w4 w4 neg d w4 w4 d w4 w4 neg d w4 w4 d w4 neg w4 d w4 w4 d w4 neg w4 d w4 neg w4 neg d cl f} def
/m48 {mp x y w4 add m w4 neg w4 d w4 neg w4 neg d w4 w4 neg d  w4 neg w4 neg d w4 w4 neg d w4 w4 d w4 w4 neg d w4 w4 d w4 neg w4 d w4 w4 d w4 neg w4 d w4 neg w4 neg d  w4 w4 neg d w4 neg w4 neg d w4 neg w4 d w4 w4 d cl f} def
/m49 {mp x w2 sub w3 add y w2 sub w3 add m  0 w3 neg d w3 0 d 0 w3 d w3 0 d 0 w3 d w3 neg 0 d 0 w3 d w3 neg 0 d 0 w3 neg d w3 neg 0 d 0 w3 neg d w3 0 d 0 w3 d w3 0 d 0 w3 neg d w3 neg 0 d cl f } def
/m2 {mp x y w2 sub m 0 w d x w2 sub y m w 0 d s} def
/m5 {mp x w2 sub y w2 sub m w w d x w2 sub y w2 add m w w neg d s} def
%%IncludeResource: ProcSet (FontSetInit)
%%IncludeResource: font Times-Roman
%%IncludeResource: font Times-Italic
%%IncludeResource: font Times-Bold
%%IncludeResource: font Times-BoldItalic
%%IncludeResource: font Helvetica
%%IncludeResource: font Helvetica-Oblique
%%IncludeResource: font Helvetica-Bold
%%IncludeResource: font Helvetica-BoldOblique
%%IncludeResource: font Courier
%%IncludeResource: font Courier-Oblique
%%IncludeResource: font Courier-Bold
%%IncludeResource: font Courier-BoldOblique
%%IncludeResource: font Symbol
%%IncludeResource: font ZapfDingbats
/reEncode {exch findfont dup length dict begin {1 index /FID eq  {pop pop} {def} ifelse } forall /Encoding exch def currentdict end dup /FontName get exch definefont pop } def [/Times-Bold /Times-Italic /Times-BoldItalic /Helvetica /Helvetica-Oblique
 /Helvetica-Bold /Helvetica-BoldOblique /Courier /Courier-Oblique /Courier-Bold /Courier-BoldOblique /Times-Roman /AvantGarde-Book /AvantGarde-BookOblique /AvantGarde-Demi /AvantGarde-DemiOblique /Bookman-Demi /Bookman-DemiItalic /Bookman-Light
 /Bookman-LightItalic /Helvetica-Narrow /Helvetica-Narrow-Bold /Helvetica-Narrow-BoldOblique /Helvetica-Narrow-Oblique /NewCenturySchlbk-Roman /NewCenturySchlbk-Bold /NewCenturySchlbk-BoldItalic /NewCenturySchlbk-Italic /Palatino-Bold
 /Palatino-BoldItalic /Palatino-Italic /Palatino-Roman ] {ISOLatin1Encoding reEncode } forall
%%EndProlog
%%BeginSetup
%%EndSetup
newpath  gsave  .25 .25 scale  gsave  0 0 t black[  ] 0 sd 3 lw 1 1 1 c 2268 1415 0 0 bf black 1 1 1 c 1814 1132 227 142 bf black 1814 1132 227 142 bl 1 0 0 c 6 lw 1 1 1 c black 1 0 0 c 227 957 m 72 X -74 Y 73 X -60 Y 72 X -116 Y 73 X -55 Y 73 X -54
 Y 72 X 16 Y 73 X -30 Y 72 X -7 Y 73 X -31 Y 72 X -35 Y 73 X -36 Y 73 X -75 Y 72 X -28 Y 73 X -13 Y 72 X 3 Y 73 X 25 Y 72 X 28 Y 73 X -3 Y 145 X -16 Y 73 X 7 Y 72 X -42 Y 145 X 79 Y 73 X s black 3 lw 227 142 m 1814 X s 263 176 m -34 Y s 299 159 m -17
 Y s 336 159 m -17 Y s 372 159 m -17 Y s 408 159 m -17 Y s 444 176 m -34 Y s 481 159 m -17 Y s 517 159 m -17 Y s 553 159 m -17 Y s 590 159 m -17 Y s 626 176 m -34 Y s 662 159 m -17 Y s 698 159 m -17 Y s 735 159 m -17 Y s 771 159 m -17 Y s 807 176 m
 -34 Y s 844 159 m -17 Y s 880 159 m -17 Y s 916 159 m -17 Y s 952 159 m -17 Y s 989 176 m -34 Y s 1025 159 m -17 Y s 1061 159 m -17 Y s 1098 159 m -17 Y s 1134 159 m -17 Y s 1170 176 m -34 Y s 1206 159 m -17 Y s 1243 159 m -17 Y s 1279 159 m -17 Y s
 1315 159 m -17 Y s 1352 176 m -34 Y s 1388 159 m -17 Y s 1424 159 m -17 Y s 1460 159 m -17 Y s 1497 159 m -17 Y s 1533 176 m -34 Y s 1569 159 m -17 Y s 1606 159 m -17 Y s 1642 159 m -17 Y s 1678 159 m -17 Y s 1714 176 m -34 Y s 1751 159 m -17 Y s
 1787 159 m -17 Y s 1823 159 m -17 Y s 1860 159 m -17 Y s 1896 176 m -34 Y s 263 176 m -34 Y s 227 159 m -17 Y s 1896 176 m -34 Y s 1932 159 m -17 Y s 1968 159 m -17 Y s 2005 159 m -17 Y s 2041 159 m -17 Y s
 gsave  2268 1415 0 0 C 224.489 95.1223 t 0 r /Helvetica findfont 45.6587 sf 0 0 m (350) show NC gr 
 gsave  2268 1415 0 0 C 403.319 95.1223 t 0 r /Helvetica findfont 45.6587 sf 0 0 m (400) show NC gr 
 gsave  2268 1415 0 0 C 585.954 95.1223 t 0 r /Helvetica findfont 45.6587 sf 0 0 m (450) show NC gr 
 gsave  2268 1415 0 0 C 768.589 95.1223 t 0 r /Helvetica findfont 45.6587 sf 0 0 m (500) show NC gr 
 gsave  2268 1415 0 0 C 947.418 95.1223 t 0 r /Helvetica findfont 45.6587 sf 0 0 m (550) show NC gr 
 gsave  2268 1415 0 0 C 1130.05 95.1223 t 0 r /Helvetica findfont 45.6587 sf 0 0 m (600) show NC gr 
 gsave  2268 1415 0 0 C 1312.69 95.1223 t 0 r /Helvetica findfont 45.6587 sf 0 0 m (650) show NC gr 
 gsave  2268 1415 0 0 C 1491.52 95.1223 t 0 r /Helvetica findfont 45.6587 sf 0 0 m (700) show NC gr 
 gsave  2268 1415 0 0 C 1674.15 95.1223 t 0 r /Helvetica findfont 45.6587 sf 0 0 m (750) show NC gr 
 gsave  2268 1415 0 0 C 1856.79 95.1223 t 0 r /Helvetica findfont 45.6587 sf 0 0 m (800) show NC gr 
 gsave  2268 1415 0 0 C 1940.5 45.6587 t 0 r /Helvetica findfont 45.6587 sf 0 0 m (mVH) show NC gr  227 142 m 1132 Y s 281 312 m -54 X s 254 347 m -27 X s 254 382 m -27 X s 254 418 m -27 X s 254 453 m -27 X s 281 488 m -54 X s 254 523 m -27 X s 254
 559 m -27 X s 254 594 m -27 X s 254 629 m -27 X s 281 664 m -54 X s 254 700 m -27 X s 254 735 m -27 X s 254 770 m -27 X s 254 805 m -27 X s 281 840 m -54 X s 254 876 m -27 X s 254 911 m -27 X s 254 946 m -27 X s 254 981 m -27 X s 281 1017 m -54 X s
 254 1052 m -27 X s 254 1087 m -27 X s 254 1122 m -27 X s 254 1157 m -27 X s 281 1193 m -54 X s 281 312 m -54 X s 254 277 m -27 X s 254 242 m -27 X s 254 206 m -27 X s 254 171 m -27 X s 281 1193 m -54 X s 254 1228 m -27 X s 254 1263 m -27 X s
 gsave  2268 1415 0 0 C 186.44 296.782 t 0 r /Helvetica findfont 45.6587 sf 0 0 m (2) show NC gr 
 gsave  2268 1415 0 0 C 159.806 296.782 t 0 r /Symbol findfont 45.6587 sf 0 0 m (-) show NC gr 
 gsave  2268 1415 0 0 C 194.05 471.807 t 0 r /Helvetica findfont 45.6587 sf 0 0 m (1) show NC gr 
 gsave  2268 1415 0 0 C 167.415 471.807 t 0 r /Symbol findfont 45.6587 sf 0 0 m (-) show NC gr 
 gsave  2268 1415 0 0 C 186.44 646.832 t 0 r /Helvetica findfont 45.6587 sf 0 0 m (0) show NC gr 
 gsave  2268 1415 0 0 C 194.05 821.857 t 0 r /Helvetica findfont 45.6587 sf 0 0 m (1) show NC gr 
 gsave  2268 1415 0 0 C 186.44 1000.69 t 0 r /Helvetica findfont 45.6587 sf 0 0 m (2) show NC gr 
 gsave  2268 1415 0 0 C 186.44 1175.71 t 0 r /Helvetica findfont 45.6587 sf 0 0 m (3) show NC gr 
 gsave  2268 1415 0 0 C 106.537 1107.22 t 90 r /Helvetica findfont 45.6587 sf 0 0 m (Shift [%]) show NC gr  1 1 1 c black
 gsave  2268 1415 0 0 C 407.124 1350.74 t 0 r /Helvetica findfont 45.6587 sf 0 0 m (Region_BMin0_incJet1_Y2015_DCRcutbasedJvar_T2_L2_distmVH_J2) show NC gr  6 lw 0.8 0.8 0 c black 3 lw 0.8 0.8 0 c 1 lw << /PatternType 1 /PaintType 2 /TilingType 1
 /BBox [ 0 0 100 100 ] /XStep 100 /YStep 100 /PaintProc { begin gsave 0 0 m 100 100 l s gr end } >> [ 0.24 0 0 0.24 0 0 ] makepattern /P04 exch def /cs {[/Pattern /DeviceRGB] setcolorspace} def /FA {f [/DeviceRGB] setcolorspace} def cs 0.8 0.8 0 P04
 setcolor 227 507 m 72 X 315 Y -72 X FA 6 lw 3 lw 0.8 0.8 0 c cs 0.8 0.8 0 P04 setcolor 299 531 m 73 X 267 Y -73 X FA 6 lw 3 lw 0.8 0.8 0 c cs 0.8 0.8 0 P04 setcolor 372 543 m 72 X 243 Y -72 X FA 6 lw 3 lw 0.8 0.8 0 c cs 0.8 0.8 0 P04 setcolor 444
 557 m 73 X 214 Y -73 X FA 6 lw 3 lw 0.8 0.8 0 c cs 0.8 0.8 0 P04 setcolor 517 564 m 73 X 201 Y -73 X FA 6 lw 3 lw 0.8 0.8 0 c cs 0.8 0.8 0 P04 setcolor 590 568 m 72 X 192 Y -72 X FA 6 lw 3 lw 0.8 0.8 0 c cs 0.8 0.8 0 P04 setcolor 662 570 m 73 X 189
 Y -73 X FA 6 lw 3 lw 0.8 0.8 0 c cs 0.8 0.8 0 P04 setcolor 735 568 m 72 X 193 Y -72 X FA 6 lw 3 lw 0.8 0.8 0 c cs 0.8 0.8 0 P04 setcolor 807 571 m 73 X 187 Y -73 X FA 6 lw 3 lw 0.8 0.8 0 c cs 0.8 0.8 0 P04 setcolor 880 566 m 72 X 197 Y -72 X FA 6 lw
 3 lw 0.8 0.8 0 c cs 0.8 0.8 0 P04 setcolor 952 562 m 73 X 205 Y -73 X FA 6 lw 3 lw 0.8 0.8 0 c cs 0.8 0.8 0 P04 setcolor 1025 561 m 73 X 206 Y -73 X FA 6 lw 3 lw 0.8 0.8 0 c cs 0.8 0.8 0 P04 setcolor 1098 560 m 72 X 208 Y -72 X FA 6 lw 3 lw 0.8 0.8
 0 c cs 0.8 0.8 0 P04 setcolor 1170 556 m 73 X 216 Y -73 X FA 6 lw 3 lw 0.8 0.8 0 c cs 0.8 0.8 0 P04 setcolor 1243 551 m 72 X 227 Y -72 X FA 6 lw 3 lw 0.8 0.8 0 c cs 0.8 0.8 0 P04 setcolor 1315 544 m 73 X 240 Y -73 X FA 6 lw 3 lw 0.8 0.8 0 c cs 0.8
 0.8 0 P04 setcolor 1388 533 m 72 X 263 Y -72 X FA 6 lw 3 lw 0.8 0.8 0 c cs 0.8 0.8 0 P04 setcolor 1460 532 m 73 X 265 Y -73 X FA 6 lw 3 lw 0.8 0.8 0 c cs 0.8 0.8 0 P04 setcolor 1533 524 m 73 X 281 Y -73 X FA 6 lw 3 lw 0.8 0.8 0 c cs 0.8 0.8 0 P04
 setcolor 1606 515 m 72 X 298 Y -72 X FA 6 lw 3 lw 0.8 0.8 0 c cs 0.8 0.8 0 P04 setcolor 1678 509 m 73 X 311 Y -73 X FA 6 lw 3 lw 0.8 0.8 0 c cs 0.8 0.8 0 P04 setcolor 1751 500 m 72 X 328 Y -72 X FA 6 lw 3 lw 0.8 0.8 0 c cs 0.8 0.8 0 P04 setcolor
 1823 493 m 73 X 342 Y -73 X FA 6 lw 3 lw 0.8 0.8 0 c cs 0.8 0.8 0 P04 setcolor 1896 482 m 72 X 364 Y -72 X FA 6 lw 3 lw 0.8 0.8 0 c cs 0.8 0.8 0 P04 setcolor 1968 476 m 73 X 377 Y -73 X FA 6 lw 0 0 1 c 1 1 1 c black 0 0 1 c 227 279 m 72 X 228 Y 73 X
 46 Y 72 X 117 Y 73 X -36 Y 73 X 68 Y 72 X 20 Y 73 X 35 Y 72 X -22 Y 73 X 62 Y 72 X 21 Y 73 X 45 Y 73 X 1 Y 72 X 65 Y 73 X -35 Y 145 X 41 Y 72 X -7 Y 73 X 43 Y 73 X -4 Y 72 X -8 Y 73 X 61 Y 72 X 42 Y 73 X 69 Y 72 X -95 Y 73 X s 1 0 0 c 1 1 1 c black
 1 0 0 c 227 957 m 72 X -74 Y 73 X -60 Y 72 X -116 Y 73 X -55 Y 73 X -54 Y 72 X 16 Y 73 X -30 Y 72 X -7 Y 73 X -31 Y 72 X -35 Y 73 X -36 Y 73 X -75 Y 72 X -28 Y 73 X -13 Y 72 X 3 Y 73 X 25 Y 72 X 28 Y 73 X -3 Y 145 X -16 Y 73 X 7 Y 72 X -42 Y 145 X
 79 Y 73 X s[ 12 12] 0 sd 3 lw 1 1 1 c black 1 0 0 c 227 997 m 72 X -148 Y 73 X -107 Y 72 X -91 Y 73 X 32 Y 73 X -104 Y 72 X 122 Y 73 X -108 Y 72 X -36 Y 73 X 51 Y 72 X -121 Y 73 X -39 Y 73 X -62 Y 72 X 15 Y 73 X 8 Y 72 X -14 Y 73 X 81 Y 72 X 17 Y 73
 X -106 Y 73 X 90 Y 72 X -34 Y 73 X -31 Y 72 X -65 Y 73 X 95 Y 72 X 203 Y 73 X s 0 0 1 c 1 1 1 c black 0 0 1 c 227 236 m 72 X 454 Y 73 X -89 Y 72 X -16 Y 73 X -3 Y 73 X 224 Y 72 X -163 Y 73 X 43 Y 72 X 56 Y 73 X 87 Y 72 X -81 Y 73 X 129 Y 73 X -46 Y
 72 X 110 Y 73 X -170 Y 72 X 63 Y 73 X 230 Y 72 X -318 Y 73 X 219 Y 73 X 88 Y 72 X -331 Y 73 X 423 Y 72 X 35 Y 73 X -252 Y 72 X -66 Y 73 X s 1 0 0 c[  ] 0 sd 6 lw 1 1 1 c black 1 0 0 c 227 957 m 72 X -74 Y 73 X -60 Y 72 X -116 Y 73 X -55 Y 73 X -54 Y
 72 X 16 Y 73 X -30 Y 72 X -7 Y 73 X -31 Y 72 X -35 Y 73 X -36 Y 73 X -75 Y 72 X -28 Y 73 X -13 Y 72 X 3 Y 73 X 25 Y 72 X 28 Y 73 X -3 Y 145 X -16 Y 73 X 7 Y 72 X -42 Y 145 X 79 Y 73 X s 0 0 1 c 1 1 1 c black 0 0 1 c 227 279 m 72 X 228 Y 73 X 46 Y 72
 X 117 Y 73 X -36 Y 73 X 68 Y 72 X 20 Y 73 X 35 Y 72 X -22 Y 73 X 62 Y 72 X 21 Y 73 X 45 Y 73 X 1 Y 72 X 65 Y 73 X -35 Y 145 X 41 Y 72 X -7 Y 73 X 43 Y 73 X -4 Y 72 X -8 Y 73 X 61 Y 72 X 42 Y 73 X 69 Y 72 X -95 Y 73 X s 0.4 0.4 0.4 c[ 12 12] 0 sd 227
 664 m 1814 X s 0 0 0.6 c[  ] 0 sd 3 lw 1 1 1 c black 0 0 0.6 c 263 1077 m 8 Y s 263 1085 m 9 Y s 227 1085 m 36 X s 263 1085 m 36 X s 255 1077 m 16 X s 255 1094 m 16 X s 227 1078 m 15 Y s 299 1078 m 15 Y s black /w 2 def /w2 {w 2 div} def /w3 {w 3
 div} def 263 1085 m20 0 0 0.6 c 336 1061 m 7 Y s 336 1068 m 7 Y s 299 1068 m 37 X s 336 1068 m 36 X s 328 1061 m 15 X s 328 1075 m 15 X s 299 1061 m 15 Y s 372 1061 m 15 Y s black 336 1068 m20 0 0 0.6 c 408 1020 m 7 Y s 408 1027 m 6 Y s 372 1027 m
 36 X s 408 1027 m 36 X s 401 1020 m 15 X s 401 1033 m 15 X s 372 1019 m 15 Y s 444 1019 m 15 Y s black 408 1027 m20 0 0 0.6 c 481 959 m 5 Y s 481 964 m 5 Y s 444 964 m 37 X s 481 964 m 36 X s 473 959 m 15 X s 473 969 m 15 X s 444 956 m 16 Y s 517
 956 m 16 Y s black 481 964 m20 0 0 0.6 c 553 881 m 5 Y s 553 886 m 4 Y s 517 886 m 36 X s 553 886 m 37 X s 546 881 m 15 X s 546 890 m 15 X s 517 878 m 15 Y s 590 878 m 15 Y s black 553 886 m20 0 0 0.6 c 626 798 m 4 Y s 626 802 m 4 Y s 590 802 m 36 X
 s 626 802 m 36 X s 618 798 m 15 X s 618 806 m 15 X s 590 794 m 16 Y s 662 794 m 16 Y s black 626 802 m20 0 0 0.6 c 698 720 m 4 Y s 698 724 m 3 Y s 662 724 m 36 X s 698 724 m 37 X s 691 720 m 15 X s 691 727 m 15 X s 662 716 m 15 Y s 735 716 m 15 Y s
 black 698 724 m20 0 0 0.6 c 771 643 m 2 Y s 771 645 m 3 Y s 735 645 m 36 X s 771 645 m 36 X s 763 643 m 16 X s 763 648 m 16 X s 735 638 m 15 Y s 807 638 m 15 Y s black 771 645 m20 0 0 0.6 c 844 572 m 2 Y s 844 574 m 2 Y s 807 574 m 37 X s 844 574 m
 36 X s 836 572 m 15 X s 836 576 m 15 X s 807 567 m 15 Y s 880 567 m 15 Y s black 844 574 m20 0 0 0.6 c 916 509 m 3 Y s 916 512 m 2 Y s 880 512 m 36 X s 916 512 m 36 X s 909 509 m 15 X s 909 514 m 15 X s 880 504 m 15 Y s 952 504 m 15 Y s black 916
 512 m20 0 0 0.6 c 989 457 m 2 Y s 989 459 m 2 Y s 952 459 m 37 X s 989 459 m 36 X s 981 457 m 15 X s 981 461 m 15 X s 952 452 m 15 Y s 1025 452 m 15 Y s black 989 459 m20 0 0 0.6 c 1061 408 m 2 Y s 1061 410 m 1 Y s 1025 410 m 36 X s 1061 410 m 37 X
 s 1054 408 m 15 X s 1054 411 m 15 X s 1025 402 m 15 Y s 1098 402 m 15 Y s black 1061 410 m20 0 0 0.6 c 1134 366 m 1 Y s 1134 367 m 1 Y s 1098 367 m 36 X s 1134 367 m 36 X s 1126 366 m 15 X s 1126 368 m 15 X s 1098 359 m 16 Y s 1170 359 m 16 Y s
 black 1134 367 m20 0 0 0.6 c 1206 331 m 1 Y s 1206 332 m 1 Y s 1170 332 m 36 X s 1206 332 m 37 X s 1199 331 m 15 X s 1199 333 m 15 X s 1170 324 m 16 Y s 1243 324 m 16 Y s black 1206 332 m20 0 0 0.6 c 1279 299 m 1 Y s 1279 300 m 1 Y s 1243 300 m 36 X
 s 1279 300 m 36 X s 1271 299 m 16 X s 1271 301 m 16 X s 1243 293 m 15 Y s 1315 293 m 15 Y s black 1279 300 m20 0 0 0.6 c 1352 274 m 1 Y s 1352 275 m s 1315 275 m 37 X s 1352 275 m 36 X s 1344 274 m 15 X s 1344 275 m 15 X s 1315 267 m 15 Y s 1388 267
 m 15 Y s black 1352 275 m20 0 0 0.6 c 1424 251 m 1 Y s 1424 252 m 1 Y s 1388 252 m 36 X s 1424 252 m 36 X s 1417 251 m 15 X s 1417 253 m 15 X s 1388 244 m 15 Y s 1460 244 m 15 Y s black 1424 252 m20 0 0 0.6 c 1497 234 m 1 Y s 1497 235 m s 1460 235 m
 37 X s 1497 235 m 36 X s 1489 234 m 15 X s 1489 235 m 15 X s 1460 227 m 15 Y s 1533 227 m 15 Y s black 1497 235 m20 0 0 0.6 c 1569 219 m s 1569 219 m 1 Y s 1533 219 m 36 X s 1569 219 m 37 X s 1562 219 m 15 X s 1562 220 m 15 X s 1533 212 m 15 Y s
 1606 212 m 15 Y s black 1569 219 m20 0 0 0.6 c 1642 207 m s 1642 207 m 1 Y s 1606 207 m 36 X s 1642 207 m 36 X s 1634 207 m 15 X s 1634 208 m 15 X s 1606 200 m 15 Y s 1678 200 m 15 Y s black 1642 207 m20 0 0 0.6 c 1714 197 m s 1714 197 m 1 Y s 1678
 197 m 36 X s 1714 197 m 37 X s 1707 197 m 15 X s 1707 198 m 15 X s 1678 190 m 15 Y s 1751 190 m 15 Y s black 1714 197 m20 0 0 0.6 c 1787 188 m 1 Y s 1787 189 m s 1751 189 m 36 X s 1787 189 m 36 X s 1779 188 m 16 X s 1779 189 m 16 X s 1751 181 m 16 Y
 s 1823 181 m 16 Y s black 1787 189 m20 0 0 0.6 c 1860 182 m s 1860 182 m 1 Y s 1823 182 m 37 X s 1860 182 m 36 X s 1852 182 m 15 X s 1852 183 m 15 X s 1823 175 m 15 Y s 1896 175 m 15 Y s black 1860 182 m20 0 0 0.6 c 1932 176 m 1 Y s 1932 177 m s
 1896 177 m 36 X s 1932 177 m 36 X s 1924 176 m 16 X s 1924 177 m 16 X s 1896 169 m 15 Y s 1968 169 m 15 Y s black 1932 177 m20 0 0 0.6 c 2005 171 m 1 Y s 2005 172 m s 1968 172 m 37 X s 2005 172 m 36 X s 1997 171 m 15 X s 1997 172 m 15 X s 1968 164 m
 15 Y s 2041 164 m 15 Y s black 2005 172 m20
 gsave  2268 1415 0 0 C 680.315 1203.11 t 0 r /Helvetica-Bold findfont 64.6832 sf 0 0 m (SysJET_CR_JET_EffectiveNP_Modelling1) show NC gr 
 gsave  2268 1415 0 0 C 680.315 1089.87 t 0 r /Helvetica-Bold findfont 64.6832 sf 0 0 m (Z) show NC gr 
 gsave  2268 1415 0 0 C 680.315 976.64 t 0 r /Helvetica-Bold findfont 64.6832 sf 0 0 m (NormEff = 5.35%) show NC gr 
 gsave  2268 1415 0 0 C 292.977 171.22 t 0 r /Helvetica-Bold findfont 45.6587 sf 0 0 m (/NDF: Up=0.226 Do=0.645) show NC gr 
 gsave  2268 1415 0 0 C 273.952 190.245 t 0 r /Helvetica-Bold findfont 30.4391 sf 0 0 m (2) show NC gr 
 gsave  2268 1415 0 0 C 247.318 171.22 t 0 r /Symbol findfont 45.6587 sf 0 0 m (c) show NC gr  2041 142 m 1132 Y s 1987 142 m 54 X s 2014 182 m 27 X s 2014 222 m 27 X s 2014 262 m 27 X s 2014 303 m 27 X s 1987 343 m 54 X s 2014 383 m 27 X s 2014 424
 m 27 X s 2014 464 m 27 X s 2014 504 m 27 X s 1987 544 m 54 X s 2014 585 m 27 X s 2014 625 m 27 X s 2014 665 m 27 X s 2014 706 m 27 X s 1987 746 m 54 X s 2014 786 m 27 X s 2014 826 m 27 X s 2014 867 m 27 X s 2014 907 m 27 X s 1987 947 m 54 X s 2014
 988 m 27 X s 2014 1028 m 27 X s 2014 1068 m 27 X s 2014 1109 m 27 X s 1987 1149 m 54 X s 1987 1149 m 54 X s 2014 1189 m 27 X s 2014 1229 m 27 X s 2014 1270 m 27 X s
 gsave  2268 1415 0 0 C 2050.84 117.952 t 0 r /Helvetica findfont 64.6832 sf 0 0 m (0) show NC gr 
 gsave  2268 1415 0 0 C 2050.84 319.611 t 0 r /Helvetica findfont 64.6832 sf 0 0 m (5000) show NC gr 
 gsave  2268 1415 0 0 C 2050.84 521.27 t 0 r /Helvetica findfont 64.6832 sf 0 0 m (10000) show NC gr 
 gsave  2268 1415 0 0 C 2050.84 722.93 t 0 r /Helvetica findfont 64.6832 sf 0 0 m (15000) show NC gr 
 gsave  2268 1415 0 0 C 2050.84 920.784 t 0 r /Helvetica findfont 64.6832 sf 0 0 m (20000) show NC gr 
 gsave  2268 1415 0 0 C 2050.84 1122.44 t 0 r /Helvetica findfont 64.6832 sf 0 0 m (25000) show NC gr 
 gsave  2268 1415 0 0 C 2336.2 1076.78 t 90 r /Helvetica findfont 64.6832 sf 0 0 m (Events) show NC gr 
 gsave  2268 1415 0 0 C 1643.71 1225.18 t 0 r /Helvetica findfont 53.2685 sf 0 0 m (Up) show NC gr  1 0 0 c 6 lw 1596 1238 m 40 X s black
 gsave  2268 1415 0 0 C 1643.71 1152.88 t 0 r /Helvetica findfont 53.2685 sf 0 0 m (Down) show NC gr  0 0 1 c 1596 1168 m 40 X s black
 gsave  2268 1415 0 0 C 1643.71 1084.39 t 0 r /Helvetica findfont 53.2685 sf 0 0 m (Unsmoothed) show NC gr  1 0 0 c[ 12 12] 0 sd 3 lw 1596 1097 m 40 X s 1 1 1 c black
 gsave  2268 1415 0 0 C 407.124 1350.74 t 0 r /Helvetica findfont 45.6587 sf 0 0 m (Region_BMin0_incJet1_Y2015_DCRcutbasedJvar_T2_L2_distmVH_J2) show NC gr 
 gr  gr showpage
end
%%EOF
