%!PS-Adobe-2.0 EPSF-2.0
%%BoundingBox:  0 0 567 354
%%Title: : canvas
%%Creator: ROOT Version 6.14/04
%%CreationDate: Fri May 15 16:28:24 2020
%%DocumentNeededResources: ProcSet (FontSetInit)
%%EndComments
%%BeginProlog
80 dict begin
/s {stroke} def /l {lineto} def /m {moveto} def /t {translate} def
/r {rotate} def /rl {roll}  def /R {repeat} def
/d {rlineto} def /rm {rmoveto} def /gr {grestore} def /f {eofill} def
/c {setrgbcolor} def /black {0 setgray} def /sd {setdash} def
/cl {closepath} def /sf {scalefont setfont} def /lw {setlinewidth} def
/box {m dup 0 exch d exch 0 d 0 exch neg d cl} def
/NC{systemdict begin initclip end}def/C{NC box clip newpath}def
/bl {box s} def /bf {gsave box gsave f grestore 1 lw [] 0 sd s grestore} def /Y { 0 exch d} def /X { 0 d} def 
/K {{pop pop 0 moveto} exch kshow} bind def
/ita {/ang 15 def gsave [1 0 ang dup sin exch cos div 1 0 0] concat} def 
/mp {newpath /y exch def /x exch def} def
/side {[w .77 mul w .23 mul] .385 w mul sd w 0 l currentpoint t -144 r} def
/mr {mp x y w2 0 360 arc} def /m24 {mr s} def /m20 {mr f} def
/mb {mp x y w2 add m w2 neg 0 d 0 w neg d w 0 d 0 w d cl} def
/mt {mp x y w2 add m w2 neg w neg d w 0 d cl} def
/w4 {w 4 div} def
/w6 {w 6 div} def
/w8 {w 8 div} def
/m21 {mb f} def /m25 {mb s} def /m22 {mt f} def /m26{mt s} def
/m23 {mp x y w2 sub m w2 w d w neg 0 d cl f} def
/m27 {mp x y w2 add m w3 neg w2 neg d w3 w2 neg d w3 w2 d cl s} def
/m28 {mp x w2 sub y w2 sub w3 add m w3 0 d  0 w3 neg d w3 0 d 0 w3 d w3 0 d  0 w3 d w3 neg 0 d 0 w3 d w3 neg 0 d 0 w3 neg d w3 neg 0 d cl s } def
/m29 {mp gsave x w2 sub y w2 add w3 sub m currentpoint t 4 {side} repeat cl fill gr} def
/m30 {mp gsave x w2 sub y w2 add w3 sub m currentpoint t 4 {side} repeat cl s gr} def
/m31 {mp x y w2 sub m 0 w d x w2 sub y m w 0 d x w2 sub y w2 add m w w neg d x w2 sub y w2 sub m w w d s} def
/m32 {mp x y w2 sub m w2 w d w neg 0 d cl s} def
/m33 {mp x y w2 add m w3 neg w2 neg d w3 w2 neg d w3 w2 d cl f} def
/m34 {mp x w2 sub y w2 sub w3 add m w3 0 d  0 w3 neg d w3 0 d 0 w3 d w3 0 d  0 w3 d w3 neg 0 d 0 w3 d w3 neg 0 d 0 w3 neg d w3 neg 0 d cl f } def
/m35 {mp x y w2 add m w2 neg w2 neg d w2 w2 neg d w2 w2 d w2 neg w2 d x y w2 sub m 0 w d x w2 sub y m w 0 d s} def
/m36 {mb x w2 sub y w2 add m w w neg d x w2 sub y w2 sub m w w d s} def
/m37 {mp x y m w4 neg w2 d w4 neg w2 neg d w2 0 d  w4 neg w2 neg d w2 0 d w4 neg w2 d w2 0 d w4 neg w2 d w4 neg w2 neg d cl s} def
/m38 {mp x w4 sub y w2 add m w4 neg w4 neg d 0 w2 neg d w4 w4 neg d w2 0 d w4 w4 d 0 w2 d w4 neg w4 d w2 neg 0 d x y w2 sub m 0 w d x w2 sub y m w 0 d cl s} def
/m39 {mp x y m w4 neg w2 d w4 neg w2 neg d w2 0 d  w4 neg w2 neg d w2 0 d w4 neg w2 d w2 0 d w4 neg w2 d w4 neg w2 neg d cl f} def
/m40 {mp x y m w4 w2 d w4 w4 neg d w2 neg w4 neg d w2 w4 neg d w4 neg w4 neg d w4 neg w2 d w4 neg w2 neg d w4 neg w4 d w2 w4 d w2 neg w4 d w4 w4 d w4 w2 neg d cl s} def
/m41 {mp x y m w4 w2 d w4 w4 neg d w2 neg w4 neg d w2 w4 neg d w4 neg w4 neg d w4 neg w2 d w4 neg w2 neg d w4 neg w4 d w2 w4 d w2 neg w4 d w4 w4 d w4 w2 neg d cl f} def
/m42 {mp x y w2 add m w8 neg w2 -3 4 div mul d w2 -3 4 div mul w8 neg d w2 3 4 div mul w8 neg d w8 w2 -3 4 div mul d w8 w2 3 4 div mul d w2 3 4 div mul w8 d w2 -3 4 div mul w8 d w8 neg w2 3 4 div mul d cl s} def
/m43 {mp x y w2 add m w8 neg w2 -3 4 div mul d w2 -3 4 div mul w8 neg d w2 3 4 div mul w8 neg d w8 w2 -3 4 div mul d w8 w2 3 4 div mul d w2 3 4 div mul w8 d w2 -3 4 div mul w8 d w8 neg w2 3 4 div mul d cl f} def
/m44 {mp x y m w6 neg w2 d w2 2 3 div mul 0 d w6 neg w2 neg d w2 w6 d 0 w2 -2 3 div mul d w2 neg w6 d w6 w2 neg d w2 -2 3 div mul 0 d w6 w2 d w2 neg w6 neg d 0 w2 2 3 div mul d w2 w6 neg d cl s} def
/m45 {mp x y m w6 neg w2 d w2 2 3 div mul 0 d w6 neg w2 neg d w2 w6 d 0 w2 -2 3 div mul d w2 neg w6 d w6 w2 neg d w2 -2 3 div mul 0 d w6 w2 d w2 neg w6 neg d 0 w2 2 3 div mul d w2 w6 neg d cl f} def
/m46 {mp x y w4 add m w4 neg w4 d w4 neg w4 neg d  w4 w4 neg d w4 neg w4 neg d w4 w4 neg d w4 w4 d w4 w4 neg d w4 w4 d w4 neg w4 d w4 w4 d w4 neg w4 d w4 neg w4 neg d cl s} def
/m47 {mp x y w4 add m w4 neg w4 d w4 neg w4 neg d w4 w4 neg d w4 neg w4 neg d  w4 w4 neg d w4 w4 d w4 w4 neg d w4 w4 d w4 neg w4 d w4 w4 d w4 neg w4 d w4 neg w4 neg d cl f} def
/m48 {mp x y w4 add m w4 neg w4 d w4 neg w4 neg d w4 w4 neg d  w4 neg w4 neg d w4 w4 neg d w4 w4 d w4 w4 neg d w4 w4 d w4 neg w4 d w4 w4 d w4 neg w4 d w4 neg w4 neg d  w4 w4 neg d w4 neg w4 neg d w4 neg w4 d w4 w4 d cl f} def
/m49 {mp x w2 sub w3 add y w2 sub w3 add m  0 w3 neg d w3 0 d 0 w3 d w3 0 d 0 w3 d w3 neg 0 d 0 w3 d w3 neg 0 d 0 w3 neg d w3 neg 0 d 0 w3 neg d w3 0 d 0 w3 d w3 0 d 0 w3 neg d w3 neg 0 d cl f } def
/m2 {mp x y w2 sub m 0 w d x w2 sub y m w 0 d s} def
/m5 {mp x w2 sub y w2 sub m w w d x w2 sub y w2 add m w w neg d s} def
%%IncludeResource: ProcSet (FontSetInit)
%%IncludeResource: font Times-Roman
%%IncludeResource: font Times-Italic
%%IncludeResource: font Times-Bold
%%IncludeResource: font Times-BoldItalic
%%IncludeResource: font Helvetica
%%IncludeResource: font Helvetica-Oblique
%%IncludeResource: font Helvetica-Bold
%%IncludeResource: font Helvetica-BoldOblique
%%IncludeResource: font Courier
%%IncludeResource: font Courier-Oblique
%%IncludeResource: font Courier-Bold
%%IncludeResource: font Courier-BoldOblique
%%IncludeResource: font Symbol
%%IncludeResource: font ZapfDingbats
/reEncode {exch findfont dup length dict begin {1 index /FID eq  {pop pop} {def} ifelse } forall /Encoding exch def currentdict end dup /FontName get exch definefont pop } def [/Times-Bold /Times-Italic /Times-BoldItalic /Helvetica /Helvetica-Oblique
 /Helvetica-Bold /Helvetica-BoldOblique /Courier /Courier-Oblique /Courier-Bold /Courier-BoldOblique /Times-Roman /AvantGarde-Book /AvantGarde-BookOblique /AvantGarde-Demi /AvantGarde-DemiOblique /Bookman-Demi /Bookman-DemiItalic /Bookman-Light
 /Bookman-LightItalic /Helvetica-Narrow /Helvetica-Narrow-Bold /Helvetica-Narrow-BoldOblique /Helvetica-Narrow-Oblique /NewCenturySchlbk-Roman /NewCenturySchlbk-Bold /NewCenturySchlbk-BoldItalic /NewCenturySchlbk-Italic /Palatino-Bold
 /Palatino-BoldItalic /Palatino-Italic /Palatino-Roman ] {ISOLatin1Encoding reEncode } forall
%%EndProlog
%%BeginSetup
%%EndSetup
newpath  gsave  .25 .25 scale  gsave  0 0 t black[  ] 0 sd 3 lw 1 1 1 c 2268 1415 0 0 bf black 1 1 1 c 1814 1132 227 142 bf black 1814 1132 227 142 bl 1 0 0 c 6 lw 1 1 1 c black 1 0 0 c 227 618 m 65 X -1 Y 64 X 17 Y 195 X 1 Y 65 X 77 Y 194 X 1 Y 65 X
 1 Y 64 X 24 Y 65 X 23 Y 259 X 1 Y 65 X 66 Y 65 X 1 Y 130 X 2 Y 64 X 56 Y 65 X 51 Y 65 X -1 Y 65 X 2 Y 129 X 117 Y 65 X -3 Y 65 X s black 3 lw 227 142 m 1814 X s 259 176 m -34 Y s 324 159 m -17 Y s 389 159 m -17 Y s 454 159 m -17 Y s 518 159 m -17 Y
 s 583 176 m -34 Y s 648 159 m -17 Y s 713 159 m -17 Y s 778 159 m -17 Y s 842 159 m -17 Y s 907 176 m -34 Y s 972 159 m -17 Y s 1037 159 m -17 Y s 1101 159 m -17 Y s 1166 159 m -17 Y s 1231 176 m -34 Y s 1296 159 m -17 Y s 1361 159 m -17 Y s 1425
 159 m -17 Y s 1490 159 m -17 Y s 1555 176 m -34 Y s 1620 159 m -17 Y s 1685 159 m -17 Y s 1749 159 m -17 Y s 1814 159 m -17 Y s 1879 176 m -34 Y s 259 176 m -34 Y s 1879 176 m -34 Y s 1944 159 m -17 Y s 2009 159 m -17 Y s
 gsave  2268 1415 0 0 C 220.684 95.1223 t 0 r /Helvetica findfont 45.6587 sf 0 0 m (300) show NC gr 
 gsave  2268 1415 0 0 C 544.1 95.1223 t 0 r /Helvetica findfont 45.6587 sf 0 0 m (400) show NC gr 
 gsave  2268 1415 0 0 C 867.516 95.1223 t 0 r /Helvetica findfont 45.6587 sf 0 0 m (500) show NC gr 
 gsave  2268 1415 0 0 C 1190.93 95.1223 t 0 r /Helvetica findfont 45.6587 sf 0 0 m (600) show NC gr 
 gsave  2268 1415 0 0 C 1514.35 95.1223 t 0 r /Helvetica findfont 45.6587 sf 0 0 m (700) show NC gr 
 gsave  2268 1415 0 0 C 1837.76 95.1223 t 0 r /Helvetica findfont 45.6587 sf 0 0 m (800) show NC gr 
 gsave  2268 1415 0 0 C 1940.5 45.6587 t 0 r /Helvetica findfont 45.6587 sf 0 0 m (mVH) show NC gr  227 142 m 1132 Y s 281 273 m -54 X s 254 308 m -27 X s 254 343 m -27 X s 254 377 m -27 X s 281 412 m -54 X s 254 447 m -27 X s 254 482 m -27 X s 254
 517 m -27 X s 281 551 m -54 X s 254 586 m -27 X s 254 621 m -27 X s 254 656 m -27 X s 281 691 m -54 X s 254 725 m -27 X s 254 760 m -27 X s 254 795 m -27 X s 281 830 m -54 X s 254 864 m -27 X s 254 899 m -27 X s 254 934 m -27 X s 281 969 m -54 X s
 254 1004 m -27 X s 254 1038 m -27 X s 254 1073 m -27 X s 281 1108 m -54 X s 254 1143 m -27 X s 254 1178 m -27 X s 254 1212 m -27 X s 281 1247 m -54 X s 281 273 m -54 X s 254 238 m -27 X s 254 204 m -27 X s 254 169 m -27 X s 281 1247 m -54 X s
 gsave  2268 1415 0 0 C 148.391 254.928 t 0 r /Helvetica findfont 45.6587 sf 0 0 m (0.6) show NC gr 
 gsave  2268 1415 0 0 C 121.757 254.928 t 0 r /Symbol findfont 45.6587 sf 0 0 m (-) show NC gr 
 gsave  2268 1415 0 0 C 148.391 395.709 t 0 r /Helvetica findfont 45.6587 sf 0 0 m (0.4) show NC gr 
 gsave  2268 1415 0 0 C 121.757 395.709 t 0 r /Symbol findfont 45.6587 sf 0 0 m (-) show NC gr 
 gsave  2268 1415 0 0 C 148.391 532.685 t 0 r /Helvetica findfont 45.6587 sf 0 0 m (0.2) show NC gr 
 gsave  2268 1415 0 0 C 121.757 532.685 t 0 r /Symbol findfont 45.6587 sf 0 0 m (-) show NC gr 
 gsave  2268 1415 0 0 C 186.44 673.466 t 0 r /Helvetica findfont 45.6587 sf 0 0 m (0) show NC gr 
 gsave  2268 1415 0 0 C 148.391 814.247 t 0 r /Helvetica findfont 45.6587 sf 0 0 m (0.2) show NC gr 
 gsave  2268 1415 0 0 C 148.391 951.223 t 0 r /Helvetica findfont 45.6587 sf 0 0 m (0.4) show NC gr 
 gsave  2268 1415 0 0 C 148.391 1092 t 0 r /Helvetica findfont 45.6587 sf 0 0 m (0.6) show NC gr 
 gsave  2268 1415 0 0 C 148.391 1228.98 t 0 r /Helvetica findfont 45.6587 sf 0 0 m (0.8) show NC gr 
 gsave  2268 1415 0 0 C 68.4881 1107.22 t 90 r /Helvetica findfont 45.6587 sf 0 0 m (Shift [%]) show NC gr  1 1 1 c black
 gsave  2268 1415 0 0 C 407.124 1350.74 t 0 r /Helvetica findfont 45.6587 sf 0 0 m (Region_BMin0_incJet1_Y2015_DCRcutbasedJvar_T2_L2_distmVH_J2) show NC gr  6 lw 0.8 0.8 0 c black 3 lw 0.8 0.8 0 c 1 lw << /PatternType 1 /PaintType 2 /TilingType 1
 /BBox [ 0 0 100 100 ] /XStep 100 /YStep 100 /PaintProc { begin gsave 0 0 m 100 100 l s gr end } >> [ 0.24 0 0 0.24 0 0 ] makepattern /P04 exch def /cs {[/Pattern /DeviceRGB] setcolorspace} def /FA {f [/DeviceRGB] setcolorspace} def cs 0.8 0.8 0 P04
 setcolor 227 142 m 65 X 1132 Y -65 X FA 6 lw 3 lw 0.8 0.8 0 c cs 0.8 0.8 0 P04 setcolor 292 142 m 64 X 1132 Y -64 X FA 6 lw 3 lw 0.8 0.8 0 c cs 0.8 0.8 0 P04 setcolor 356 142 m 65 X 1132 Y -65 X FA 6 lw 3 lw 0.8 0.8 0 c cs 0.8 0.8 0 P04 setcolor 421
 142 m 65 X 1114 Y -65 X FA 6 lw 3 lw 0.8 0.8 0 c cs 0.8 0.8 0 P04 setcolor 486 191 m 65 X 999 Y -65 X FA 6 lw 3 lw 0.8 0.8 0 c cs 0.8 0.8 0 P04 setcolor 551 245 m 65 X 891 Y -65 X FA 6 lw 3 lw 0.8 0.8 0 c cs 0.8 0.8 0 P04 setcolor 616 274 m 64 X 833
 Y -64 X FA 6 lw 3 lw 0.8 0.8 0 c cs 0.8 0.8 0 P04 setcolor 680 297 m 65 X 787 Y -65 X FA 6 lw 3 lw 0.8 0.8 0 c cs 0.8 0.8 0 P04 setcolor 745 329 m 65 X 723 Y -65 X FA 6 lw 3 lw 0.8 0.8 0 c cs 0.8 0.8 0 P04 setcolor 810 303 m 65 X 775 Y -65 X FA 6 lw
 3 lw 0.8 0.8 0 c cs 0.8 0.8 0 P04 setcolor 875 313 m 64 X 755 Y -64 X FA 6 lw 3 lw 0.8 0.8 0 c cs 0.8 0.8 0 P04 setcolor 939 319 m 65 X 743 Y -65 X FA 6 lw 3 lw 0.8 0.8 0 c cs 0.8 0.8 0 P04 setcolor 1004 292 m 65 X 797 Y -65 X FA 6 lw 3 lw 0.8 0.8 0
 c cs 0.8 0.8 0 P04 setcolor 1069 275 m 65 X 832 Y -65 X FA 6 lw 3 lw 0.8 0.8 0 c cs 0.8 0.8 0 P04 setcolor 1134 284 m 65 X 813 Y -65 X FA 6 lw 3 lw 0.8 0.8 0 c cs 0.8 0.8 0 P04 setcolor 1199 276 m 64 X 830 Y -64 X FA 6 lw 3 lw 0.8 0.8 0 c cs 0.8 0.8
 0 P04 setcolor 1263 253 m 65 X 875 Y -65 X FA 6 lw 3 lw 0.8 0.8 0 c cs 0.8 0.8 0 P04 setcolor 1328 226 m 65 X 929 Y -65 X FA 6 lw 3 lw 0.8 0.8 0 c cs 0.8 0.8 0 P04 setcolor 1393 204 m 65 X 973 Y -65 X FA 6 lw 3 lw 0.8 0.8 0 c cs 0.8 0.8 0 P04
 setcolor 1458 158 m 65 X 1065 Y -65 X FA 6 lw 3 lw 0.8 0.8 0 c cs 0.8 0.8 0 P04 setcolor 1523 148 m 64 X 1085 Y -64 X FA 6 lw 3 lw 0.8 0.8 0 c cs 0.8 0.8 0 P04 setcolor 1587 142 m 65 X 1122 Y -65 X FA 6 lw 3 lw 0.8 0.8 0 c cs 0.8 0.8 0 P04 setcolor
 1652 142 m 65 X 1132 Y -65 X FA 6 lw 3 lw 0.8 0.8 0 c cs 0.8 0.8 0 P04 setcolor 1717 142 m 65 X 1132 Y -65 X FA 6 lw 3 lw 0.8 0.8 0 c cs 0.8 0.8 0 P04 setcolor 1782 142 m 65 X 1132 Y -65 X FA 6 lw 3 lw 0.8 0.8 0 c cs 0.8 0.8 0 P04 setcolor 1847 142
 m 64 X 1132 Y -64 X FA 6 lw 3 lw 0.8 0.8 0 c cs 0.8 0.8 0 P04 setcolor 1911 142 m 65 X 1132 Y -65 X FA 6 lw 3 lw 0.8 0.8 0 c cs 0.8 0.8 0 P04 setcolor 1976 142 m 65 X 1132 Y -65 X FA 6 lw 0 0 1 c 1 1 1 c black 0 0 1 c 227 999 m 65 X -166 Y 64 X -19
 Y 130 X -47 Y 65 X -132 Y 65 X -1 Y 259 X -46 Y 64 X -20 Y 65 X -2 Y 65 X -2 Y 65 X -3 Y 65 X -23 Y 64 X -53 Y 65 X -59 Y 65 X 53 Y 130 X -2 Y 64 X 1 Y 130 X 6 Y 65 X -248 Y 65 X 301 Y 129 X 76 Y 65 X s 1 0 0 c 1 1 1 c black 1 0 0 c 227 618 m 65 X
 -1 Y 64 X 17 Y 195 X 1 Y 65 X 77 Y 194 X 1 Y 65 X 1 Y 64 X 24 Y 65 X 23 Y 259 X 1 Y 65 X 66 Y 65 X 1 Y 130 X 2 Y 64 X 56 Y 65 X 51 Y 65 X -1 Y 65 X 2 Y 129 X 117 Y 65 X -3 Y 65 X s[ 12 12] 0 sd 3 lw 1 1 1 c black 1 0 0 c 227 553 m 65 X 280 Y 64 X
 -252 Y 65 X -15 Y 65 X 50 Y 65 X 6 Y 65 X 120 Y 64 X -40 Y 65 X 69 Y 65 X -133 Y 65 X 74 Y 64 X 10 Y 65 X 57 Y 65 X -13 Y 65 X 55 Y 65 X -116 Y 64 X 26 Y 65 X 167 Y 65 X -139 Y 65 X 94 Y 65 X -150 Y 64 X 136 Y 65 X 145 Y 65 X 59 Y 65 X -6 Y 65 X
 -423 Y 64 X 566 Y 65 X -276 Y 65 X s 0 0 1 c 1 1 1 c black 0 0 1 c 227 1006 m 65 X -198 Y 64 X -12 Y 65 X 54 Y 65 X -83 Y 65 X -195 Y 65 X 79 Y 64 X 25 Y 65 X -71 Y 65 X 80 Y 65 X -103 Y 64 X -70 Y 65 X 113 Y 65 X -48 Y 65 X -28 Y 65 X 4 Y 64 X -76
 Y 65 X -108 Y 65 X 76 Y 65 X 98 Y 65 X -30 Y 64 X -25 Y 65 X -29 Y 65 X 164 Y 65 X -348 Y 65 X 283 Y 64 X -4 Y 65 X -52 Y 65 X s 1 0 0 c[  ] 0 sd 6 lw 1 1 1 c black 1 0 0 c 227 618 m 65 X -1 Y 64 X 17 Y 195 X 1 Y 65 X 77 Y 194 X 1 Y 65 X 1 Y 64 X 24
 Y 65 X 23 Y 259 X 1 Y 65 X 66 Y 65 X 1 Y 130 X 2 Y 64 X 56 Y 65 X 51 Y 65 X -1 Y 65 X 2 Y 129 X 117 Y 65 X -3 Y 65 X s 0 0 1 c 1 1 1 c black 0 0 1 c 227 999 m 65 X -166 Y 64 X -19 Y 130 X -47 Y 65 X -132 Y 65 X -1 Y 259 X -46 Y 64 X -20 Y 65 X -2 Y
 65 X -2 Y 65 X -3 Y 65 X -23 Y 64 X -53 Y 65 X -59 Y 65 X 53 Y 130 X -2 Y 64 X 1 Y 130 X 6 Y 65 X -248 Y 65 X 301 Y 129 X 76 Y 65 X s 0.4 0.4 0.4 c[ 12 12] 0 sd 227 691 m 1814 X s 0 0 0.6 c[  ] 0 sd 3 lw 1 1 1 c black 0 0 0.6 c 259 841 m 11 Y s 259
 852 m 11 Y s 227 852 m 32 X s 259 852 m 33 X s 252 841 m 15 X s 252 863 m 15 X s 227 844 m 15 Y s 292 844 m 15 Y s black /w 2 def /w2 {w 2 div} def /w3 {w 3 div} def 259 852 m20 0 0 0.6 c 324 992 m 11 Y s 324 1003 m 10 Y s 292 1003 m 32 X s 324 1003
 m 32 X s 316 992 m 16 X s 316 1013 m 16 X s 292 995 m 15 Y s 356 995 m 15 Y s black 324 1003 m20 0 0 0.6 c 389 1076 m 9 Y s 389 1085 m 9 Y s 356 1085 m 33 X s 389 1085 m 32 X s 381 1076 m 15 X s 381 1094 m 15 X s 356 1078 m 15 Y s 421 1078 m 15 Y s
 black 389 1085 m20 0 0 0.6 c 454 1049 m 7 Y s 454 1056 m 8 Y s 421 1056 m 33 X s 454 1056 m 32 X s 446 1049 m 15 X s 446 1064 m 15 X s 421 1049 m 15 Y s 486 1049 m 15 Y s black 454 1056 m20 0 0 0.6 c 518 1031 m 6 Y s 518 1037 m 6 Y s 486 1037 m 32 X
 s 518 1037 m 33 X s 511 1031 m 15 X s 511 1043 m 15 X s 486 1029 m 16 Y s 551 1029 m 16 Y s black 518 1037 m20 0 0 0.6 c 583 977 m 5 Y s 583 982 m 5 Y s 551 982 m 32 X s 583 982 m 33 X s 576 977 m 15 X s 576 987 m 15 X s 551 974 m 16 Y s 616 974 m
 16 Y s black 583 982 m20 0 0 0.6 c 648 910 m 5 Y s 648 915 m 4 Y s 616 915 m 32 X s 648 915 m 32 X s 640 910 m 16 X s 640 919 m 16 X s 616 907 m 15 Y s 680 907 m 15 Y s black 648 915 m20 0 0 0.6 c 713 826 m 4 Y s 713 830 m 4 Y s 680 830 m 33 X s 713
 830 m 32 X s 705 826 m 15 X s 705 834 m 15 X s 680 822 m 15 Y s 745 822 m 15 Y s black 713 830 m20 0 0 0.6 c 778 752 m 4 Y s 778 756 m 3 Y s 745 756 m 33 X s 778 756 m 32 X s 770 752 m 15 X s 770 759 m 15 X s 745 748 m 15 Y s 810 748 m 15 Y s black
 778 756 m20 0 0 0.6 c 842 671 m 3 Y s 842 674 m 3 Y s 810 674 m 32 X s 842 674 m 33 X s 835 671 m 15 X s 835 677 m 15 X s 810 666 m 16 Y s 875 666 m 16 Y s black 842 674 m20 0 0 0.6 c 907 602 m 3 Y s 907 605 m 2 Y s 875 605 m 32 X s 907 605 m 32 X s
 899 602 m 16 X s 899 607 m 16 X s 875 597 m 15 Y s 939 597 m 15 Y s black 907 605 m20 0 0 0.6 c 972 532 m 2 Y s 972 534 m 2 Y s 939 534 m 33 X s 972 534 m 32 X s 964 532 m 15 X s 964 536 m 15 X s 939 526 m 15 Y s 1004 526 m 15 Y s black 972 534 m20
 0 0 0.6 c 1037 480 m 2 Y s 1037 482 m 2 Y s 1004 482 m 33 X s 1037 482 m 32 X s 1029 480 m 15 X s 1029 484 m 15 X s 1004 474 m 15 Y s 1069 474 m 15 Y s black 1037 482 m20 0 0 0.6 c 1101 427 m 2 Y s 1101 429 m 2 Y s 1069 429 m 32 X s 1101 429 m 33 X
 s 1094 427 m 15 X s 1094 431 m 15 X s 1069 421 m 15 Y s 1134 421 m 15 Y s black 1101 429 m20 0 0 0.6 c 1166 381 m 1 Y s 1166 382 m 1 Y s 1134 382 m 32 X s 1166 382 m 33 X s 1159 381 m 15 X s 1159 383 m 15 X s 1134 374 m 16 Y s 1199 374 m 16 Y s
 black 1166 382 m20 0 0 0.6 c 1231 346 m 1 Y s 1231 347 m 1 Y s 1199 347 m 32 X s 1231 347 m 32 X s 1223 346 m 16 X s 1223 348 m 16 X s 1199 339 m 15 Y s 1263 339 m 15 Y s black 1231 347 m20 0 0 0.6 c 1296 311 m 1 Y s 1296 312 m 1 Y s 1263 312 m 33 X
 s 1296 312 m 32 X s 1288 311 m 15 X s 1288 313 m 15 X s 1263 305 m 15 Y s 1328 305 m 15 Y s black 1296 312 m20 0 0 0.6 c 1361 283 m 1 Y s 1361 284 m 1 Y s 1328 284 m 33 X s 1361 284 m 32 X s 1353 283 m 15 X s 1353 285 m 15 X s 1328 277 m 15 Y s 1393
 277 m 15 Y s black 1361 284 m20 0 0 0.6 c 1425 260 m 1 Y s 1425 261 m 1 Y s 1393 261 m 32 X s 1425 261 m 33 X s 1418 260 m 15 X s 1418 262 m 15 X s 1393 253 m 15 Y s 1458 253 m 15 Y s black 1425 261 m20 0 0 0.6 c 1490 241 m 1 Y s 1490 242 m 1 Y s
 1458 242 m 32 X s 1490 242 m 33 X s 1483 241 m 15 X s 1483 243 m 15 X s 1458 234 m 16 Y s 1523 234 m 16 Y s black 1490 242 m20 0 0 0.6 c 1555 224 m 1 Y s 1555 225 m 1 Y s 1523 225 m 32 X s 1555 225 m 32 X s 1547 224 m 16 X s 1547 226 m 16 X s 1523
 217 m 15 Y s 1587 217 m 15 Y s black 1555 225 m20 0 0 0.6 c 1620 211 m 1 Y s 1620 212 m s 1587 212 m 33 X s 1620 212 m 32 X s 1612 211 m 15 X s 1612 212 m 15 X s 1587 204 m 15 Y s 1652 204 m 15 Y s black 1620 212 m20 0 0 0.6 c 1685 201 m s 1685 201
 m 1 Y s 1652 201 m 33 X s 1685 201 m 32 X s 1677 201 m 15 X s 1677 202 m 15 X s 1652 194 m 15 Y s 1717 194 m 15 Y s black 1685 201 m20 0 0 0.6 c 1749 191 m s 1749 191 m 1 Y s 1717 191 m 32 X s 1749 191 m 33 X s 1742 191 m 15 X s 1742 192 m 15 X s
 1717 184 m 15 Y s 1782 184 m 15 Y s black 1749 191 m20 0 0 0.6 c 1814 185 m s 1814 185 m 1 Y s 1782 185 m 32 X s 1814 185 m 33 X s 1807 185 m 15 X s 1807 186 m 15 X s 1782 178 m 15 Y s 1847 178 m 15 Y s black 1814 185 m20 0 0 0.6 c 1879 179 m s 1879
 179 m 1 Y s 1847 179 m 32 X s 1879 179 m 32 X s 1871 179 m 16 X s 1871 180 m 16 X s 1847 172 m 15 Y s 1911 172 m 15 Y s black 1879 179 m20 0 0 0.6 c 1944 173 m s 1944 173 m 1 Y s 1911 173 m 33 X s 1944 173 m 32 X s 1936 173 m 15 X s 1936 174 m 15 X
 s 1911 166 m 15 Y s 1976 166 m 15 Y s black 1944 173 m20 0 0 0.6 c 2009 169 m s 2009 169 m s 1976 169 m 33 X s 2009 169 m 32 X s 2001 169 m 15 X s 2001 169 m 15 X s 1976 161 m 15 Y s 2041 161 m 15 Y s black 2009 169 m20
 gsave  2268 1415 0 0 C 680.315 1203.11 t 0 r /Helvetica-Bold findfont 64.6832 sf 0 0 m (SysJET_CR_JET_EffectiveNP_Modelling2) show NC gr 
 gsave  2268 1415 0 0 C 680.315 1089.87 t 0 r /Helvetica-Bold findfont 64.6832 sf 0 0 m (Z) show NC gr 
 gsave  2268 1415 0 0 C 680.315 976.64 t 0 r /Helvetica-Bold findfont 64.6832 sf 0 0 m (NormEff = \2550.0%) show NC gr 
 gsave  2268 1415 0 0 C 292.977 171.22 t 0 r /Helvetica-Bold findfont 45.6587 sf 0 0 m (/NDF: Up=0.0244 Do=0.00841) show NC gr 
 gsave  2268 1415 0 0 C 273.952 190.245 t 0 r /Helvetica-Bold findfont 30.4391 sf 0 0 m (2) show NC gr 
 gsave  2268 1415 0 0 C 247.318 171.22 t 0 r /Symbol findfont 45.6587 sf 0 0 m (c) show NC gr  2041 142 m 1132 Y s 1987 142 m 54 X s 2014 181 m 27 X s 2014 221 m 27 X s 2014 261 m 27 X s 2014 300 m 27 X s 1987 340 m 54 X s 2014 380 m 27 X s 2014 419
 m 27 X s 2014 459 m 27 X s 2014 499 m 27 X s 1987 538 m 54 X s 2014 578 m 27 X s 2014 618 m 27 X s 2014 657 m 27 X s 2014 697 m 27 X s 1987 737 m 54 X s 2014 776 m 27 X s 2014 816 m 27 X s 2014 856 m 27 X s 2014 895 m 27 X s 1987 935 m 54 X s 2014
 975 m 27 X s 2014 1014 m 27 X s 2014 1054 m 27 X s 2014 1094 m 27 X s 1987 1133 m 54 X s 1987 1133 m 54 X s 2014 1173 m 27 X s 2014 1213 m 27 X s 2014 1252 m 27 X s
 gsave  2268 1415 0 0 C 2050.84 117.952 t 0 r /Helvetica findfont 64.6832 sf 0 0 m (0) show NC gr 
 gsave  2268 1415 0 0 C 2050.84 315.806 t 0 r /Helvetica findfont 64.6832 sf 0 0 m (5000) show NC gr 
 gsave  2268 1415 0 0 C 2050.84 513.661 t 0 r /Helvetica findfont 64.6832 sf 0 0 m (10000) show NC gr 
 gsave  2268 1415 0 0 C 2050.84 711.515 t 0 r /Helvetica findfont 64.6832 sf 0 0 m (15000) show NC gr 
 gsave  2268 1415 0 0 C 2050.84 909.37 t 0 r /Helvetica findfont 64.6832 sf 0 0 m (20000) show NC gr 
 gsave  2268 1415 0 0 C 2050.84 1107.22 t 0 r /Helvetica findfont 64.6832 sf 0 0 m (25000) show NC gr 
 gsave  2268 1415 0 0 C 2336.2 1076.78 t 90 r /Helvetica findfont 64.6832 sf 0 0 m (Events) show NC gr 
 gsave  2268 1415 0 0 C 1643.71 1225.18 t 0 r /Helvetica findfont 53.2685 sf 0 0 m (Up) show NC gr  1 0 0 c 6 lw 1596 1238 m 40 X s black
 gsave  2268 1415 0 0 C 1643.71 1152.88 t 0 r /Helvetica findfont 53.2685 sf 0 0 m (Down) show NC gr  0 0 1 c 1596 1168 m 40 X s black
 gsave  2268 1415 0 0 C 1643.71 1084.39 t 0 r /Helvetica findfont 53.2685 sf 0 0 m (Unsmoothed) show NC gr  1 0 0 c[ 12 12] 0 sd 3 lw 1596 1097 m 40 X s 1 1 1 c black
 gsave  2268 1415 0 0 C 407.124 1350.74 t 0 r /Helvetica findfont 45.6587 sf 0 0 m (Region_BMin0_incJet1_Y2015_DCRcutbasedJvar_T2_L2_distmVH_J2) show NC gr 
 gr  gr showpage
end
%%EOF
