%!PS-Adobe-2.0 EPSF-2.0
%%BoundingBox:  0 0 567 354
%%Title: : canvas
%%Creator: ROOT Version 6.14/04
%%CreationDate: Fri May 15 17:08:49 2020
%%DocumentNeededResources: ProcSet (FontSetInit)
%%EndComments
%%BeginProlog
80 dict begin
/s {stroke} def /l {lineto} def /m {moveto} def /t {translate} def
/r {rotate} def /rl {roll}  def /R {repeat} def
/d {rlineto} def /rm {rmoveto} def /gr {grestore} def /f {eofill} def
/c {setrgbcolor} def /black {0 setgray} def /sd {setdash} def
/cl {closepath} def /sf {scalefont setfont} def /lw {setlinewidth} def
/box {m dup 0 exch d exch 0 d 0 exch neg d cl} def
/NC{systemdict begin initclip end}def/C{NC box clip newpath}def
/bl {box s} def /bf {gsave box gsave f grestore 1 lw [] 0 sd s grestore} def /Y { 0 exch d} def /X { 0 d} def 
/K {{pop pop 0 moveto} exch kshow} bind def
/ita {/ang 15 def gsave [1 0 ang dup sin exch cos div 1 0 0] concat} def 
/mp {newpath /y exch def /x exch def} def
/side {[w .77 mul w .23 mul] .385 w mul sd w 0 l currentpoint t -144 r} def
/mr {mp x y w2 0 360 arc} def /m24 {mr s} def /m20 {mr f} def
/mb {mp x y w2 add m w2 neg 0 d 0 w neg d w 0 d 0 w d cl} def
/mt {mp x y w2 add m w2 neg w neg d w 0 d cl} def
/w4 {w 4 div} def
/w6 {w 6 div} def
/w8 {w 8 div} def
/m21 {mb f} def /m25 {mb s} def /m22 {mt f} def /m26{mt s} def
/m23 {mp x y w2 sub m w2 w d w neg 0 d cl f} def
/m27 {mp x y w2 add m w3 neg w2 neg d w3 w2 neg d w3 w2 d cl s} def
/m28 {mp x w2 sub y w2 sub w3 add m w3 0 d  0 w3 neg d w3 0 d 0 w3 d w3 0 d  0 w3 d w3 neg 0 d 0 w3 d w3 neg 0 d 0 w3 neg d w3 neg 0 d cl s } def
/m29 {mp gsave x w2 sub y w2 add w3 sub m currentpoint t 4 {side} repeat cl fill gr} def
/m30 {mp gsave x w2 sub y w2 add w3 sub m currentpoint t 4 {side} repeat cl s gr} def
/m31 {mp x y w2 sub m 0 w d x w2 sub y m w 0 d x w2 sub y w2 add m w w neg d x w2 sub y w2 sub m w w d s} def
/m32 {mp x y w2 sub m w2 w d w neg 0 d cl s} def
/m33 {mp x y w2 add m w3 neg w2 neg d w3 w2 neg d w3 w2 d cl f} def
/m34 {mp x w2 sub y w2 sub w3 add m w3 0 d  0 w3 neg d w3 0 d 0 w3 d w3 0 d  0 w3 d w3 neg 0 d 0 w3 d w3 neg 0 d 0 w3 neg d w3 neg 0 d cl f } def
/m35 {mp x y w2 add m w2 neg w2 neg d w2 w2 neg d w2 w2 d w2 neg w2 d x y w2 sub m 0 w d x w2 sub y m w 0 d s} def
/m36 {mb x w2 sub y w2 add m w w neg d x w2 sub y w2 sub m w w d s} def
/m37 {mp x y m w4 neg w2 d w4 neg w2 neg d w2 0 d  w4 neg w2 neg d w2 0 d w4 neg w2 d w2 0 d w4 neg w2 d w4 neg w2 neg d cl s} def
/m38 {mp x w4 sub y w2 add m w4 neg w4 neg d 0 w2 neg d w4 w4 neg d w2 0 d w4 w4 d 0 w2 d w4 neg w4 d w2 neg 0 d x y w2 sub m 0 w d x w2 sub y m w 0 d cl s} def
/m39 {mp x y m w4 neg w2 d w4 neg w2 neg d w2 0 d  w4 neg w2 neg d w2 0 d w4 neg w2 d w2 0 d w4 neg w2 d w4 neg w2 neg d cl f} def
/m40 {mp x y m w4 w2 d w4 w4 neg d w2 neg w4 neg d w2 w4 neg d w4 neg w4 neg d w4 neg w2 d w4 neg w2 neg d w4 neg w4 d w2 w4 d w2 neg w4 d w4 w4 d w4 w2 neg d cl s} def
/m41 {mp x y m w4 w2 d w4 w4 neg d w2 neg w4 neg d w2 w4 neg d w4 neg w4 neg d w4 neg w2 d w4 neg w2 neg d w4 neg w4 d w2 w4 d w2 neg w4 d w4 w4 d w4 w2 neg d cl f} def
/m42 {mp x y w2 add m w8 neg w2 -3 4 div mul d w2 -3 4 div mul w8 neg d w2 3 4 div mul w8 neg d w8 w2 -3 4 div mul d w8 w2 3 4 div mul d w2 3 4 div mul w8 d w2 -3 4 div mul w8 d w8 neg w2 3 4 div mul d cl s} def
/m43 {mp x y w2 add m w8 neg w2 -3 4 div mul d w2 -3 4 div mul w8 neg d w2 3 4 div mul w8 neg d w8 w2 -3 4 div mul d w8 w2 3 4 div mul d w2 3 4 div mul w8 d w2 -3 4 div mul w8 d w8 neg w2 3 4 div mul d cl f} def
/m44 {mp x y m w6 neg w2 d w2 2 3 div mul 0 d w6 neg w2 neg d w2 w6 d 0 w2 -2 3 div mul d w2 neg w6 d w6 w2 neg d w2 -2 3 div mul 0 d w6 w2 d w2 neg w6 neg d 0 w2 2 3 div mul d w2 w6 neg d cl s} def
/m45 {mp x y m w6 neg w2 d w2 2 3 div mul 0 d w6 neg w2 neg d w2 w6 d 0 w2 -2 3 div mul d w2 neg w6 d w6 w2 neg d w2 -2 3 div mul 0 d w6 w2 d w2 neg w6 neg d 0 w2 2 3 div mul d w2 w6 neg d cl f} def
/m46 {mp x y w4 add m w4 neg w4 d w4 neg w4 neg d  w4 w4 neg d w4 neg w4 neg d w4 w4 neg d w4 w4 d w4 w4 neg d w4 w4 d w4 neg w4 d w4 w4 d w4 neg w4 d w4 neg w4 neg d cl s} def
/m47 {mp x y w4 add m w4 neg w4 d w4 neg w4 neg d w4 w4 neg d w4 neg w4 neg d  w4 w4 neg d w4 w4 d w4 w4 neg d w4 w4 d w4 neg w4 d w4 w4 d w4 neg w4 d w4 neg w4 neg d cl f} def
/m48 {mp x y w4 add m w4 neg w4 d w4 neg w4 neg d w4 w4 neg d  w4 neg w4 neg d w4 w4 neg d w4 w4 d w4 w4 neg d w4 w4 d w4 neg w4 d w4 w4 d w4 neg w4 d w4 neg w4 neg d  w4 w4 neg d w4 neg w4 neg d w4 neg w4 d w4 w4 d cl f} def
/m49 {mp x w2 sub w3 add y w2 sub w3 add m  0 w3 neg d w3 0 d 0 w3 d w3 0 d 0 w3 d w3 neg 0 d 0 w3 d w3 neg 0 d 0 w3 neg d w3 neg 0 d 0 w3 neg d w3 0 d 0 w3 d w3 0 d 0 w3 neg d w3 neg 0 d cl f } def
/m2 {mp x y w2 sub m 0 w d x w2 sub y m w 0 d s} def
/m5 {mp x w2 sub y w2 sub m w w d x w2 sub y w2 add m w w neg d s} def
%%IncludeResource: ProcSet (FontSetInit)
%%IncludeResource: font Times-Roman
%%IncludeResource: font Times-Italic
%%IncludeResource: font Times-Bold
%%IncludeResource: font Times-BoldItalic
%%IncludeResource: font Helvetica
%%IncludeResource: font Helvetica-Oblique
%%IncludeResource: font Helvetica-Bold
%%IncludeResource: font Helvetica-BoldOblique
%%IncludeResource: font Courier
%%IncludeResource: font Courier-Oblique
%%IncludeResource: font Courier-Bold
%%IncludeResource: font Courier-BoldOblique
%%IncludeResource: font Symbol
%%IncludeResource: font ZapfDingbats
/reEncode {exch findfont dup length dict begin {1 index /FID eq  {pop pop} {def} ifelse } forall /Encoding exch def currentdict end dup /FontName get exch definefont pop } def [/Times-Bold /Times-Italic /Times-BoldItalic /Helvetica /Helvetica-Oblique
 /Helvetica-Bold /Helvetica-BoldOblique /Courier /Courier-Oblique /Courier-Bold /Courier-BoldOblique /Times-Roman /AvantGarde-Book /AvantGarde-BookOblique /AvantGarde-Demi /AvantGarde-DemiOblique /Bookman-Demi /Bookman-DemiItalic /Bookman-Light
 /Bookman-LightItalic /Helvetica-Narrow /Helvetica-Narrow-Bold /Helvetica-Narrow-BoldOblique /Helvetica-Narrow-Oblique /NewCenturySchlbk-Roman /NewCenturySchlbk-Bold /NewCenturySchlbk-BoldItalic /NewCenturySchlbk-Italic /Palatino-Bold
 /Palatino-BoldItalic /Palatino-Italic /Palatino-Roman ] {ISOLatin1Encoding reEncode } forall
%%EndProlog
%%BeginSetup
%%EndSetup
newpath  gsave  .25 .25 scale  gsave  0 0 t black[  ] 0 sd 3 lw 1 1 1 c 2268 1415 0 0 bf black 1 1 1 c 1814 1132 227 142 bf black 1814 1132 227 142 bl 1 0 0 c 6 lw 1 1 1 c black 1 0 0 c 227 775 m 139 X 13 Y 140 X -12 Y 139 X -22 Y 140 X -34 Y 140 X
 47 Y 139 X -167 Y 140 X 34 Y 139 X 37 Y 140 X 306 Y 139 X -21 Y 140 X -139 Y 139 X -146 Y 140 X s black 3 lw 227 142 m 1814 X s 297 176 m -34 Y s 366 159 m -17 Y s 436 159 m -17 Y s 506 159 m -17 Y s 576 159 m -17 Y s 645 176 m -34 Y s 715 159 m -17
 Y s 785 159 m -17 Y s 855 159 m -17 Y s 925 159 m -17 Y s 994 176 m -34 Y s 1064 159 m -17 Y s 1134 159 m -17 Y s 1204 159 m -17 Y s 1273 159 m -17 Y s 1343 176 m -34 Y s 1413 159 m -17 Y s 1483 159 m -17 Y s 1553 159 m -17 Y s 1622 159 m -17 Y s
 1692 176 m -34 Y s 1762 159 m -17 Y s 1832 159 m -17 Y s 1901 159 m -17 Y s 1971 159 m -17 Y s 2041 176 m -34 Y s 297 176 m -34 Y s 227 159 m -17 Y s
 gsave  2268 1415 0 0 C 254.928 95.1223 t 0 r /Helvetica findfont 45.6587 sf 0 0 m (600) show NC gr 
 gsave  2268 1415 0 0 C 604.978 95.1223 t 0 r /Helvetica findfont 45.6587 sf 0 0 m (650) show NC gr 
 gsave  2268 1415 0 0 C 955.028 95.1223 t 0 r /Helvetica findfont 45.6587 sf 0 0 m (700) show NC gr 
 gsave  2268 1415 0 0 C 1305.08 95.1223 t 0 r /Helvetica findfont 45.6587 sf 0 0 m (750) show NC gr 
 gsave  2268 1415 0 0 C 1651.32 95.1223 t 0 r /Helvetica findfont 45.6587 sf 0 0 m (800) show NC gr 
 gsave  2268 1415 0 0 C 2001.37 95.1223 t 0 r /Helvetica findfont 45.6587 sf 0 0 m (850) show NC gr 
 gsave  2268 1415 0 0 C 1940.5 45.6587 t 0 r /Helvetica findfont 45.6587 sf 0 0 m (mVH) show NC gr  227 142 m 1132 Y s 281 293 m -54 X s 254 332 m -27 X s 254 371 m -27 X s 254 410 m -27 X s 281 449 m -54 X s 254 487 m -27 X s 254 526 m -27 X s 254
 565 m -27 X s 281 604 m -54 X s 254 643 m -27 X s 254 682 m -27 X s 254 720 m -27 X s 281 759 m -54 X s 254 798 m -27 X s 254 837 m -27 X s 254 876 m -27 X s 281 915 m -54 X s 254 953 m -27 X s 254 992 m -27 X s 254 1031 m -27 X s 281 1070 m -54 X s
 254 1109 m -27 X s 254 1148 m -27 X s 254 1186 m -27 X s 281 1225 m -54 X s 281 293 m -54 X s 254 254 m -27 X s 254 216 m -27 X s 254 177 m -27 X s 281 1225 m -54 X s 254 1264 m -27 X s
 gsave  2268 1415 0 0 C 148.391 277.757 t 0 r /Helvetica findfont 45.6587 sf 0 0 m (0.6) show NC gr 
 gsave  2268 1415 0 0 C 121.757 277.757 t 0 r /Symbol findfont 45.6587 sf 0 0 m (-) show NC gr 
 gsave  2268 1415 0 0 C 148.391 429.953 t 0 r /Helvetica findfont 45.6587 sf 0 0 m (0.4) show NC gr 
 gsave  2268 1415 0 0 C 121.757 429.953 t 0 r /Symbol findfont 45.6587 sf 0 0 m (-) show NC gr 
 gsave  2268 1415 0 0 C 148.391 585.954 t 0 r /Helvetica findfont 45.6587 sf 0 0 m (0.2) show NC gr 
 gsave  2268 1415 0 0 C 121.757 585.954 t 0 r /Symbol findfont 45.6587 sf 0 0 m (-) show NC gr 
 gsave  2268 1415 0 0 C 186.44 741.954 t 0 r /Helvetica findfont 45.6587 sf 0 0 m (0) show NC gr 
 gsave  2268 1415 0 0 C 148.391 897.955 t 0 r /Helvetica findfont 45.6587 sf 0 0 m (0.2) show NC gr 
 gsave  2268 1415 0 0 C 148.391 1053.96 t 0 r /Helvetica findfont 45.6587 sf 0 0 m (0.4) show NC gr 
 gsave  2268 1415 0 0 C 148.391 1209.96 t 0 r /Helvetica findfont 45.6587 sf 0 0 m (0.6) show NC gr 
 gsave  2268 1415 0 0 C 68.4881 1107.22 t 90 r /Helvetica findfont 45.6587 sf 0 0 m (Shift [%]) show NC gr  1 1 1 c black
 gsave  2268 1415 0 0 C 407.124 1350.74 t 0 r /Helvetica findfont 45.6587 sf 0 0 m (Region_BMin0_incJet1_Y2015_DCRcutbasedJvar_T2_L2_distmVH_J2) show NC gr  6 lw 0.8 0.8 0 c black 3 lw 0.8 0.8 0 c 1 lw << /PatternType 1 /PaintType 2 /TilingType 1
 /BBox [ 0 0 100 100 ] /XStep 100 /YStep 100 /PaintProc { begin gsave 0 0 m 100 100 l s gr end } >> [ 0.24 0 0 0.24 0 0 ] makepattern /P04 exch def /cs {[/Pattern /DeviceRGB] setcolorspace} def /FA {f [/DeviceRGB] setcolorspace} def cs 0.8 0.8 0 P04
 setcolor 227 296 m 139 X 927 Y -139 X FA 6 lw 3 lw 0.8 0.8 0 c cs 0.8 0.8 0 P04 setcolor 366 271 m 140 X 977 Y -140 X FA 6 lw 3 lw 0.8 0.8 0 c cs 0.8 0.8 0 P04 setcolor 506 241 m 139 X 1033 Y -139 X FA 6 lw 3 lw 0.8 0.8 0 c cs 0.8 0.8 0 P04 setcolor
 645 216 m 140 X 1058 Y -140 X FA 6 lw 3 lw 0.8 0.8 0 c cs 0.8 0.8 0 P04 setcolor 785 164 m 140 X 1110 Y -140 X FA 6 lw 3 lw 0.8 0.8 0 c cs 0.8 0.8 0 P04 setcolor 925 154 m 139 X 1120 Y -139 X FA 6 lw 3 lw 0.8 0.8 0 c cs 0.8 0.8 0 P04 setcolor 1064
 142 m 140 X 1132 Y -140 X FA 6 lw 3 lw 0.8 0.8 0 c cs 0.8 0.8 0 P04 setcolor 1204 142 m 139 X 1132 Y -139 X FA 6 lw 3 lw 0.8 0.8 0 c cs 0.8 0.8 0 P04 setcolor 1343 142 m 140 X 1132 Y -140 X FA 6 lw 3 lw 0.8 0.8 0 c cs 0.8 0.8 0 P04 setcolor 1483 142
 m 139 X 1132 Y -139 X FA 6 lw 3 lw 0.8 0.8 0 c cs 0.8 0.8 0 P04 setcolor 1622 142 m 140 X 1132 Y -140 X FA 6 lw 3 lw 0.8 0.8 0 c cs 0.8 0.8 0 P04 setcolor 1762 142 m 139 X 1132 Y -139 X FA 6 lw 3 lw 0.8 0.8 0 c cs 0.8 0.8 0 P04 setcolor 1901 142 m
 140 X 1132 Y -140 X FA 6 lw 0 0 1 c 1 1 1 c black 0 0 1 c 227 743 m 139 X -12 Y 140 X 11 Y 139 X 22 Y 140 X 34 Y 140 X -47 Y 139 X 169 Y 140 X -34 Y 139 X -38 Y 140 X -308 Y 139 X 20 Y 140 X 142 Y 139 X 147 Y 140 X s 1 0 0 c 1 1 1 c black 1 0 0 c
 227 775 m 139 X 13 Y 140 X -12 Y 139 X -22 Y 140 X -34 Y 140 X 47 Y 139 X -167 Y 140 X 34 Y 139 X 37 Y 140 X 306 Y 139 X -21 Y 140 X -139 Y 139 X -146 Y 140 X s[ 12 12] 0 sd 3 lw 1 1 1 c black 1 0 0 c 227 784 m 139 X 23 Y 140 X -42 Y 139 X -49 Y 140
 X -15 Y 140 X 186 Y 139 X -651 Y 140 X 542 Y 139 X 212 Y 140 X 190 Y 139 X -474 Y 140 X -122 Y 139 X 168 Y 140 X s 0 0 1 c 1 1 1 c black 0 0 1 c 227 786 m 139 X 19 Y 140 X -39 Y 139 X -48 Y 140 X -17 Y 140 X 183 Y 139 X -643 Y 140 X 534 Y 139 X 214
 Y 140 X 186 Y 139 X -474 Y 140 X -120 Y 139 X 176 Y 140 X s 1 0 0 c[  ] 0 sd 6 lw 1 1 1 c black 1 0 0 c 227 775 m 139 X 13 Y 140 X -12 Y 139 X -22 Y 140 X -34 Y 140 X 47 Y 139 X -167 Y 140 X 34 Y 139 X 37 Y 140 X 306 Y 139 X -21 Y 140 X -139 Y 139 X
 -146 Y 140 X s 0 0 1 c 1 1 1 c black 0 0 1 c 227 743 m 139 X -12 Y 140 X 11 Y 139 X 22 Y 140 X 34 Y 140 X -47 Y 139 X 169 Y 140 X -34 Y 139 X -38 Y 140 X -308 Y 139 X 20 Y 140 X 142 Y 139 X 147 Y 140 X s 0.4 0.4 0.4 c[ 12 12] 0 sd 227 759 m 1814 X s
 0 0 0.6 c[  ] 0 sd 3 lw 1 1 1 c black 0 0 0.6 c 297 1080 m 5 Y s 297 1085 m 6 Y s 227 1085 m 70 X s 297 1085 m 69 X s 289 1080 m 15 X s 289 1091 m 15 X s 227 1078 m 15 Y s 366 1078 m 15 Y s black /w 2 def /w2 {w 2 div} def /w3 {w 3 div} def 297 1085
 m20 0 0 0.6 c 436 921 m 5 Y s 436 926 m 5 Y s 366 926 m 70 X s 436 926 m 70 X s 428 921 m 16 X s 428 931 m 16 X s 366 919 m 15 Y s 506 919 m 15 Y s black 436 926 m20 0 0 0.6 c 576 793 m 4 Y s 576 797 m 5 Y s 506 797 m 70 X s 576 797 m 69 X s 568 793
 m 15 X s 568 802 m 15 X s 506 790 m 15 Y s 645 790 m 15 Y s black 576 797 m20 0 0 0.6 c 715 686 m 4 Y s 715 690 m 4 Y s 645 690 m 70 X s 715 690 m 70 X s 708 686 m 15 X s 708 694 m 15 X s 645 682 m 16 Y s 785 682 m 16 Y s black 715 690 m20 0 0 0.6 c
 855 600 m 4 Y s 855 604 m 3 Y s 785 604 m 70 X s 855 604 m 70 X s 847 600 m 15 X s 847 607 m 15 X s 785 596 m 15 Y s 925 596 m 15 Y s black 855 604 m20 0 0 0.6 c 994 522 m 3 Y s 994 525 m 3 Y s 925 525 m 69 X s 994 525 m 70 X s 987 522 m 15 X s 987
 528 m 15 X s 925 517 m 15 Y s 1064 517 m 15 Y s black 994 525 m20 0 0 0.6 c 1134 462 m 2 Y s 1134 464 m 3 Y s 1064 464 m 70 X s 1134 464 m 70 X s 1126 462 m 15 X s 1126 467 m 15 X s 1064 457 m 15 Y s 1204 457 m 15 Y s black 1134 464 m20 0 0 0.6 c
 1273 414 m 2 Y s 1273 416 m 2 Y s 1204 416 m 69 X s 1273 416 m 70 X s 1266 414 m 15 X s 1266 418 m 15 X s 1204 408 m 16 Y s 1343 408 m 16 Y s black 1273 416 m20 0 0 0.6 c 1413 369 m 2 Y s 1413 371 m 2 Y s 1343 371 m 70 X s 1413 371 m 70 X s 1405 369
 m 16 X s 1405 373 m 16 X s 1343 363 m 16 Y s 1483 363 m 16 Y s black 1413 371 m20 0 0 0.6 c 1553 340 m 2 Y s 1553 342 m 2 Y s 1483 342 m 70 X s 1553 342 m 69 X s 1545 340 m 15 X s 1545 344 m 15 X s 1483 335 m 15 Y s 1622 335 m 15 Y s black 1553 342
 m20 0 0 0.6 c 1692 313 m 2 Y s 1692 315 m 2 Y s 1622 315 m 70 X s 1692 315 m 70 X s 1684 313 m 16 X s 1684 317 m 16 X s 1622 307 m 16 Y s 1762 307 m 16 Y s black 1692 315 m20 0 0 0.6 c 1832 287 m 1 Y s 1832 288 m 2 Y s 1762 288 m 70 X s 1832 288 m
 69 X s 1824 287 m 15 X s 1824 290 m 15 X s 1762 281 m 15 Y s 1901 281 m 15 Y s black 1832 288 m20 0 0 0.6 c 1971 266 m 1 Y s 1971 267 m 1 Y s 1901 267 m 70 X s 1971 267 m 70 X s 1964 266 m 15 X s 1964 268 m 15 X s 1901 259 m 16 Y s 2041 259 m 16 Y s
 black 1971 267 m20
 gsave  2268 1415 0 0 C 680.315 1203.11 t 0 r /Helvetica-Bold findfont 64.6832 sf 0 0 m (SysJET_CR_JET_JER_EffectiveNP_7restTerm) show NC gr 
 gsave  2268 1415 0 0 C 680.315 1089.87 t 0 r /Helvetica-Bold findfont 64.6832 sf 0 0 m (Z) show NC gr 
 gsave  2268 1415 0 0 C 680.315 976.64 t 0 r /Helvetica-Bold findfont 64.6832 sf 0 0 m (NormEff = 0.82%) show NC gr 
 gsave  2268 1415 0 0 C 292.977 171.22 t 0 r /Helvetica-Bold findfont 45.6587 sf 0 0 m (/NDF: Up=0.0742 Do=0.175) show NC gr 
 gsave  2268 1415 0 0 C 273.952 190.245 t 0 r /Helvetica-Bold findfont 30.4391 sf 0 0 m (2) show NC gr 
 gsave  2268 1415 0 0 C 247.318 171.22 t 0 r /Symbol findfont 45.6587 sf 0 0 m (c) show NC gr  2041 142 m 1132 Y s 1987 142 m 54 X s 2014 178 m 27 X s 2014 214 m 27 X s 2014 251 m 27 X s 2014 287 m 27 X s 1987 324 m 54 X s 2014 360 m 27 X s 2014 397
 m 27 X s 2014 433 m 27 X s 2014 470 m 27 X s 1987 506 m 54 X s 2014 543 m 27 X s 2014 579 m 27 X s 2014 616 m 27 X s 2014 652 m 27 X s 1987 689 m 54 X s 2014 725 m 27 X s 2014 762 m 27 X s 2014 798 m 27 X s 2014 835 m 27 X s 1987 871 m 54 X s 2014
 907 m 27 X s 2014 944 m 27 X s 2014 980 m 27 X s 2014 1017 m 27 X s 1987 1053 m 54 X s 2014 1090 m 27 X s 2014 1126 m 27 X s 2014 1163 m 27 X s 2014 1199 m 27 X s 1987 1236 m 54 X s 1987 1236 m 54 X s 2014 1272 m 27 X s
 gsave  2268 1415 0 0 C 2050.84 117.952 t 0 r /Helvetica findfont 64.6832 sf 0 0 m (0) show NC gr 
 gsave  2268 1415 0 0 C 2050.84 300.587 t 0 r /Helvetica findfont 64.6832 sf 0 0 m (1000) show NC gr 
 gsave  2268 1415 0 0 C 2050.84 483.221 t 0 r /Helvetica findfont 64.6832 sf 0 0 m (2000) show NC gr 
 gsave  2268 1415 0 0 C 2050.84 662.051 t 0 r /Helvetica findfont 64.6832 sf 0 0 m (3000) show NC gr 
 gsave  2268 1415 0 0 C 2050.84 844.686 t 0 r /Helvetica findfont 64.6832 sf 0 0 m (4000) show NC gr 
 gsave  2268 1415 0 0 C 2050.84 1027.32 t 0 r /Helvetica findfont 64.6832 sf 0 0 m (5000) show NC gr 
 gsave  2268 1415 0 0 C 2050.84 1209.96 t 0 r /Helvetica findfont 64.6832 sf 0 0 m (6000) show NC gr 
 gsave  2268 1415 0 0 C 2336.2 1076.78 t 90 r /Helvetica findfont 64.6832 sf 0 0 m (Events) show NC gr 
 gsave  2268 1415 0 0 C 1643.71 1225.18 t 0 r /Helvetica findfont 53.2685 sf 0 0 m (Up) show NC gr  1 0 0 c 6 lw 1596 1238 m 40 X s black
 gsave  2268 1415 0 0 C 1643.71 1152.88 t 0 r /Helvetica findfont 53.2685 sf 0 0 m (Down) show NC gr  0 0 1 c 1596 1168 m 40 X s black
 gsave  2268 1415 0 0 C 1643.71 1084.39 t 0 r /Helvetica findfont 53.2685 sf 0 0 m (Unsmoothed) show NC gr  1 0 0 c[ 12 12] 0 sd 3 lw 1596 1097 m 40 X s 1 1 1 c black
 gsave  2268 1415 0 0 C 407.124 1350.74 t 0 r /Helvetica findfont 45.6587 sf 0 0 m (Region_BMin0_incJet1_Y2015_DCRcutbasedJvar_T2_L2_distmVH_J2) show NC gr 
 gr  gr showpage
end
%%EOF
