%!PS-Adobe-2.0 EPSF-2.0
%%BoundingBox:  0 0 567 354
%%Title: : canvas
%%Creator: ROOT Version 6.14/04
%%CreationDate: Fri May 15 17:07:33 2020
%%DocumentNeededResources: ProcSet (FontSetInit)
%%EndComments
%%BeginProlog
80 dict begin
/s {stroke} def /l {lineto} def /m {moveto} def /t {translate} def
/r {rotate} def /rl {roll}  def /R {repeat} def
/d {rlineto} def /rm {rmoveto} def /gr {grestore} def /f {eofill} def
/c {setrgbcolor} def /black {0 setgray} def /sd {setdash} def
/cl {closepath} def /sf {scalefont setfont} def /lw {setlinewidth} def
/box {m dup 0 exch d exch 0 d 0 exch neg d cl} def
/NC{systemdict begin initclip end}def/C{NC box clip newpath}def
/bl {box s} def /bf {gsave box gsave f grestore 1 lw [] 0 sd s grestore} def /Y { 0 exch d} def /X { 0 d} def 
/K {{pop pop 0 moveto} exch kshow} bind def
/ita {/ang 15 def gsave [1 0 ang dup sin exch cos div 1 0 0] concat} def 
/mp {newpath /y exch def /x exch def} def
/side {[w .77 mul w .23 mul] .385 w mul sd w 0 l currentpoint t -144 r} def
/mr {mp x y w2 0 360 arc} def /m24 {mr s} def /m20 {mr f} def
/mb {mp x y w2 add m w2 neg 0 d 0 w neg d w 0 d 0 w d cl} def
/mt {mp x y w2 add m w2 neg w neg d w 0 d cl} def
/w4 {w 4 div} def
/w6 {w 6 div} def
/w8 {w 8 div} def
/m21 {mb f} def /m25 {mb s} def /m22 {mt f} def /m26{mt s} def
/m23 {mp x y w2 sub m w2 w d w neg 0 d cl f} def
/m27 {mp x y w2 add m w3 neg w2 neg d w3 w2 neg d w3 w2 d cl s} def
/m28 {mp x w2 sub y w2 sub w3 add m w3 0 d  0 w3 neg d w3 0 d 0 w3 d w3 0 d  0 w3 d w3 neg 0 d 0 w3 d w3 neg 0 d 0 w3 neg d w3 neg 0 d cl s } def
/m29 {mp gsave x w2 sub y w2 add w3 sub m currentpoint t 4 {side} repeat cl fill gr} def
/m30 {mp gsave x w2 sub y w2 add w3 sub m currentpoint t 4 {side} repeat cl s gr} def
/m31 {mp x y w2 sub m 0 w d x w2 sub y m w 0 d x w2 sub y w2 add m w w neg d x w2 sub y w2 sub m w w d s} def
/m32 {mp x y w2 sub m w2 w d w neg 0 d cl s} def
/m33 {mp x y w2 add m w3 neg w2 neg d w3 w2 neg d w3 w2 d cl f} def
/m34 {mp x w2 sub y w2 sub w3 add m w3 0 d  0 w3 neg d w3 0 d 0 w3 d w3 0 d  0 w3 d w3 neg 0 d 0 w3 d w3 neg 0 d 0 w3 neg d w3 neg 0 d cl f } def
/m35 {mp x y w2 add m w2 neg w2 neg d w2 w2 neg d w2 w2 d w2 neg w2 d x y w2 sub m 0 w d x w2 sub y m w 0 d s} def
/m36 {mb x w2 sub y w2 add m w w neg d x w2 sub y w2 sub m w w d s} def
/m37 {mp x y m w4 neg w2 d w4 neg w2 neg d w2 0 d  w4 neg w2 neg d w2 0 d w4 neg w2 d w2 0 d w4 neg w2 d w4 neg w2 neg d cl s} def
/m38 {mp x w4 sub y w2 add m w4 neg w4 neg d 0 w2 neg d w4 w4 neg d w2 0 d w4 w4 d 0 w2 d w4 neg w4 d w2 neg 0 d x y w2 sub m 0 w d x w2 sub y m w 0 d cl s} def
/m39 {mp x y m w4 neg w2 d w4 neg w2 neg d w2 0 d  w4 neg w2 neg d w2 0 d w4 neg w2 d w2 0 d w4 neg w2 d w4 neg w2 neg d cl f} def
/m40 {mp x y m w4 w2 d w4 w4 neg d w2 neg w4 neg d w2 w4 neg d w4 neg w4 neg d w4 neg w2 d w4 neg w2 neg d w4 neg w4 d w2 w4 d w2 neg w4 d w4 w4 d w4 w2 neg d cl s} def
/m41 {mp x y m w4 w2 d w4 w4 neg d w2 neg w4 neg d w2 w4 neg d w4 neg w4 neg d w4 neg w2 d w4 neg w2 neg d w4 neg w4 d w2 w4 d w2 neg w4 d w4 w4 d w4 w2 neg d cl f} def
/m42 {mp x y w2 add m w8 neg w2 -3 4 div mul d w2 -3 4 div mul w8 neg d w2 3 4 div mul w8 neg d w8 w2 -3 4 div mul d w8 w2 3 4 div mul d w2 3 4 div mul w8 d w2 -3 4 div mul w8 d w8 neg w2 3 4 div mul d cl s} def
/m43 {mp x y w2 add m w8 neg w2 -3 4 div mul d w2 -3 4 div mul w8 neg d w2 3 4 div mul w8 neg d w8 w2 -3 4 div mul d w8 w2 3 4 div mul d w2 3 4 div mul w8 d w2 -3 4 div mul w8 d w8 neg w2 3 4 div mul d cl f} def
/m44 {mp x y m w6 neg w2 d w2 2 3 div mul 0 d w6 neg w2 neg d w2 w6 d 0 w2 -2 3 div mul d w2 neg w6 d w6 w2 neg d w2 -2 3 div mul 0 d w6 w2 d w2 neg w6 neg d 0 w2 2 3 div mul d w2 w6 neg d cl s} def
/m45 {mp x y m w6 neg w2 d w2 2 3 div mul 0 d w6 neg w2 neg d w2 w6 d 0 w2 -2 3 div mul d w2 neg w6 d w6 w2 neg d w2 -2 3 div mul 0 d w6 w2 d w2 neg w6 neg d 0 w2 2 3 div mul d w2 w6 neg d cl f} def
/m46 {mp x y w4 add m w4 neg w4 d w4 neg w4 neg d  w4 w4 neg d w4 neg w4 neg d w4 w4 neg d w4 w4 d w4 w4 neg d w4 w4 d w4 neg w4 d w4 w4 d w4 neg w4 d w4 neg w4 neg d cl s} def
/m47 {mp x y w4 add m w4 neg w4 d w4 neg w4 neg d w4 w4 neg d w4 neg w4 neg d  w4 w4 neg d w4 w4 d w4 w4 neg d w4 w4 d w4 neg w4 d w4 w4 d w4 neg w4 d w4 neg w4 neg d cl f} def
/m48 {mp x y w4 add m w4 neg w4 d w4 neg w4 neg d w4 w4 neg d  w4 neg w4 neg d w4 w4 neg d w4 w4 d w4 w4 neg d w4 w4 d w4 neg w4 d w4 w4 d w4 neg w4 d w4 neg w4 neg d  w4 w4 neg d w4 neg w4 neg d w4 neg w4 d w4 w4 d cl f} def
/m49 {mp x w2 sub w3 add y w2 sub w3 add m  0 w3 neg d w3 0 d 0 w3 d w3 0 d 0 w3 d w3 neg 0 d 0 w3 d w3 neg 0 d 0 w3 neg d w3 neg 0 d 0 w3 neg d w3 0 d 0 w3 d w3 0 d 0 w3 neg d w3 neg 0 d cl f } def
/m2 {mp x y w2 sub m 0 w d x w2 sub y m w 0 d s} def
/m5 {mp x w2 sub y w2 sub m w w d x w2 sub y w2 add m w w neg d s} def
%%IncludeResource: ProcSet (FontSetInit)
%%IncludeResource: font Times-Roman
%%IncludeResource: font Times-Italic
%%IncludeResource: font Times-Bold
%%IncludeResource: font Times-BoldItalic
%%IncludeResource: font Helvetica
%%IncludeResource: font Helvetica-Oblique
%%IncludeResource: font Helvetica-Bold
%%IncludeResource: font Helvetica-BoldOblique
%%IncludeResource: font Courier
%%IncludeResource: font Courier-Oblique
%%IncludeResource: font Courier-Bold
%%IncludeResource: font Courier-BoldOblique
%%IncludeResource: font Symbol
%%IncludeResource: font ZapfDingbats
/reEncode {exch findfont dup length dict begin {1 index /FID eq  {pop pop} {def} ifelse } forall /Encoding exch def currentdict end dup /FontName get exch definefont pop } def [/Times-Bold /Times-Italic /Times-BoldItalic /Helvetica /Helvetica-Oblique
 /Helvetica-Bold /Helvetica-BoldOblique /Courier /Courier-Oblique /Courier-Bold /Courier-BoldOblique /Times-Roman /AvantGarde-Book /AvantGarde-BookOblique /AvantGarde-Demi /AvantGarde-DemiOblique /Bookman-Demi /Bookman-DemiItalic /Bookman-Light
 /Bookman-LightItalic /Helvetica-Narrow /Helvetica-Narrow-Bold /Helvetica-Narrow-BoldOblique /Helvetica-Narrow-Oblique /NewCenturySchlbk-Roman /NewCenturySchlbk-Bold /NewCenturySchlbk-BoldItalic /NewCenturySchlbk-Italic /Palatino-Bold
 /Palatino-BoldItalic /Palatino-Italic /Palatino-Roman ] {ISOLatin1Encoding reEncode } forall
%%EndProlog
%%BeginSetup
%%EndSetup
newpath  gsave  .25 .25 scale  gsave  0 0 t black[  ] 0 sd 3 lw 1 1 1 c 2268 1415 0 0 bf black 1 1 1 c 1814 1132 227 142 bf black 1814 1132 227 142 bl 1 0 0 c 6 lw 1 1 1 c black 1 0 0 c 227 686 m 129 X -85 Y 130 X 21 Y 130 X -153 Y 129 X -7 Y 130 X
 70 Y 129 X 132 Y 130 X -79 Y 129 X -104 Y 130 X -54 Y 130 X 314 Y 129 X -116 Y 130 X 22 Y 129 X -215 Y 130 X s black 3 lw 227 142 m 1814 X s 421 176 m -34 Y s 486 159 m -17 Y s 551 159 m -17 Y s 616 159 m -17 Y s 680 159 m -17 Y s 745 176 m -34 Y s
 810 159 m -17 Y s 875 159 m -17 Y s 939 159 m -17 Y s 1004 159 m -17 Y s 1069 176 m -34 Y s 1134 159 m -17 Y s 1199 159 m -17 Y s 1263 159 m -17 Y s 1328 159 m -17 Y s 1393 176 m -34 Y s 1458 159 m -17 Y s 1523 159 m -17 Y s 1587 159 m -17 Y s 1652
 159 m -17 Y s 1717 176 m -34 Y s 1782 159 m -17 Y s 1847 159 m -17 Y s 1911 159 m -17 Y s 1976 159 m -17 Y s 2041 176 m -34 Y s 421 176 m -34 Y s 356 159 m -17 Y s 292 159 m -17 Y s 227 159 m -17 Y s
 gsave  2268 1415 0 0 C 380.489 95.1223 t 0 r /Helvetica findfont 45.6587 sf 0 0 m (600) show NC gr 
 gsave  2268 1415 0 0 C 703.905 95.1223 t 0 r /Helvetica findfont 45.6587 sf 0 0 m (650) show NC gr 
 gsave  2268 1415 0 0 C 1027.32 95.1223 t 0 r /Helvetica findfont 45.6587 sf 0 0 m (700) show NC gr 
 gsave  2268 1415 0 0 C 1354.54 95.1223 t 0 r /Helvetica findfont 45.6587 sf 0 0 m (750) show NC gr 
 gsave  2268 1415 0 0 C 1677.96 95.1223 t 0 r /Helvetica findfont 45.6587 sf 0 0 m (800) show NC gr 
 gsave  2268 1415 0 0 C 2001.37 95.1223 t 0 r /Helvetica findfont 45.6587 sf 0 0 m (850) show NC gr 
 gsave  2268 1415 0 0 C 1940.5 45.6587 t 0 r /Helvetica findfont 45.6587 sf 0 0 m (mVH) show NC gr  227 142 m 1132 Y s 281 272 m -54 X s 254 303 m -27 X s 254 334 m -27 X s 254 365 m -27 X s 254 396 m -27 X s 281 427 m -54 X s 254 458 m -27 X s 254
 489 m -27 X s 254 520 m -27 X s 254 551 m -27 X s 281 582 m -54 X s 254 613 m -27 X s 254 644 m -27 X s 254 675 m -27 X s 254 706 m -27 X s 281 737 m -54 X s 254 768 m -27 X s 254 799 m -27 X s 254 830 m -27 X s 254 861 m -27 X s 281 892 m -54 X s
 254 923 m -27 X s 254 954 m -27 X s 254 985 m -27 X s 254 1016 m -27 X s 281 1047 m -54 X s 254 1079 m -27 X s 254 1110 m -27 X s 254 1141 m -27 X s 254 1172 m -27 X s 281 1203 m -54 X s 281 272 m -54 X s 254 241 m -27 X s 254 210 m -27 X s 254 179
 m -27 X s 254 148 m -27 X s 281 1203 m -54 X s 254 1234 m -27 X s 254 1265 m -27 X s
 gsave  2268 1415 0 0 C 148.391 254.928 t 0 r /Helvetica findfont 45.6587 sf 0 0 m (0.2) show NC gr 
 gsave  2268 1415 0 0 C 121.757 254.928 t 0 r /Symbol findfont 45.6587 sf 0 0 m (-) show NC gr 
 gsave  2268 1415 0 0 C 156.001 410.928 t 0 r /Helvetica findfont 45.6587 sf 0 0 m (0.1) show NC gr 
 gsave  2268 1415 0 0 C 129.366 410.928 t 0 r /Symbol findfont 45.6587 sf 0 0 m (-) show NC gr 
 gsave  2268 1415 0 0 C 186.44 566.929 t 0 r /Helvetica findfont 45.6587 sf 0 0 m (0) show NC gr 
 gsave  2268 1415 0 0 C 156.001 719.125 t 0 r /Helvetica findfont 45.6587 sf 0 0 m (0.1) show NC gr 
 gsave  2268 1415 0 0 C 148.391 875.125 t 0 r /Helvetica findfont 45.6587 sf 0 0 m (0.2) show NC gr 
 gsave  2268 1415 0 0 C 148.391 1031.13 t 0 r /Helvetica findfont 45.6587 sf 0 0 m (0.3) show NC gr 
 gsave  2268 1415 0 0 C 148.391 1187.13 t 0 r /Helvetica findfont 45.6587 sf 0 0 m (0.4) show NC gr 
 gsave  2268 1415 0 0 C 68.4881 1107.22 t 90 r /Helvetica findfont 45.6587 sf 0 0 m (Shift [%]) show NC gr  1 1 1 c black
 gsave  2268 1415 0 0 C 407.124 1350.74 t 0 r /Helvetica findfont 45.6587 sf 0 0 m (Region_BMin0_incJet1_Y2015_DCRcutbasedJvar_T2_L2_distmVH_J2) show NC gr  6 lw 0.8 0.8 0 c black 3 lw 0.8 0.8 0 c 1 lw << /PatternType 1 /PaintType 2 /TilingType 1
 /BBox [ 0 0 100 100 ] /XStep 100 /YStep 100 /PaintProc { begin gsave 0 0 m 100 100 l s gr end } >> [ 0.24 0 0 0.24 0 0 ] makepattern /P04 exch def /cs {[/Pattern /DeviceRGB] setcolorspace} def /FA {f [/DeviceRGB] setcolorspace} def cs 0.8 0.8 0 P04
 setcolor 227 142 m 129 X 1132 Y -129 X FA 6 lw 3 lw 0.8 0.8 0 c cs 0.8 0.8 0 P04 setcolor 356 142 m 130 X 1132 Y -130 X FA 6 lw 3 lw 0.8 0.8 0 c cs 0.8 0.8 0 P04 setcolor 486 142 m 130 X 1132 Y -130 X FA 6 lw 3 lw 0.8 0.8 0 c cs 0.8 0.8 0 P04
 setcolor 616 142 m 129 X 1132 Y -129 X FA 6 lw 3 lw 0.8 0.8 0 c cs 0.8 0.8 0 P04 setcolor 745 142 m 130 X 1132 Y -130 X FA 6 lw 3 lw 0.8 0.8 0 c cs 0.8 0.8 0 P04 setcolor 875 142 m 129 X 1132 Y -129 X FA 6 lw 3 lw 0.8 0.8 0 c cs 0.8 0.8 0 P04
 setcolor 1004 142 m 130 X 1132 Y -130 X FA 6 lw 3 lw 0.8 0.8 0 c cs 0.8 0.8 0 P04 setcolor 1134 142 m 129 X 1132 Y -129 X FA 6 lw 3 lw 0.8 0.8 0 c cs 0.8 0.8 0 P04 setcolor 1263 142 m 130 X 1132 Y -130 X FA 6 lw 3 lw 0.8 0.8 0 c cs 0.8 0.8 0 P04
 setcolor 1393 142 m 130 X 1132 Y -130 X FA 6 lw 3 lw 0.8 0.8 0 c cs 0.8 0.8 0 P04 setcolor 1523 142 m 129 X 1132 Y -129 X FA 6 lw 3 lw 0.8 0.8 0 c cs 0.8 0.8 0 P04 setcolor 1652 142 m 130 X 1132 Y -130 X FA 6 lw 3 lw 0.8 0.8 0 c cs 0.8 0.8 0 P04
 setcolor 1782 142 m 129 X 1132 Y -129 X FA 6 lw 3 lw 0.8 0.8 0 c cs 0.8 0.8 0 P04 setcolor 1911 142 m 130 X 1132 Y -130 X FA 6 lw 0 0 1 c 1 1 1 c black 0 0 1 c 227 478 m 129 X 85 Y 130 X -21 Y 130 X 153 Y 129 X 8 Y 130 X -70 Y 129 X -133 Y 130 X 79
 Y 129 X 105 Y 130 X 54 Y 130 X -315 Y 129 X 117 Y 130 X -23 Y 129 X 216 Y 130 X s 1 0 0 c 1 1 1 c black 1 0 0 c 227 686 m 129 X -85 Y 130 X 21 Y 130 X -153 Y 129 X -7 Y 130 X 70 Y 129 X 132 Y 130 X -79 Y 129 X -104 Y 130 X -54 Y 130 X 314 Y 129 X
 -116 Y 130 X 22 Y 129 X -215 Y 130 X s[ 12 12] 0 sd 3 lw 1 1 1 c black 1 0 0 c 227 705 m 129 X -171 Y 130 X 151 Y 130 X -439 Y 129 X 267 Y 130 X 371 Y 129 X -234 Y 130 X -408 Y 129 X 343 Y 130 X -108 Y 130 X 703 Y 129 X -944 Y 130 X 338 Y 129 X -17
 Y 130 X s 0 0 1 c 1 1 1 c black 0 0 1 c 227 705 m 129 X -171 Y 130 X 151 Y 130 X -439 Y 129 X 266 Y 130 X 373 Y 129 X -235 Y 130 X -408 Y 129 X 343 Y 130 X -108 Y 130 X 703 Y 129 X -944 Y 130 X 338 Y 129 X -17 Y 130 X s 1 0 0 c[  ] 0 sd 6 lw 1 1 1 c
 black 1 0 0 c 227 686 m 129 X -85 Y 130 X 21 Y 130 X -153 Y 129 X -7 Y 130 X 70 Y 129 X 132 Y 130 X -79 Y 129 X -104 Y 130 X -54 Y 130 X 314 Y 129 X -116 Y 130 X 22 Y 129 X -215 Y 130 X s 0 0 1 c 1 1 1 c black 0 0 1 c 227 478 m 129 X 85 Y 130 X -21
 Y 130 X 153 Y 129 X 8 Y 130 X -70 Y 129 X -133 Y 130 X 79 Y 129 X 105 Y 130 X 54 Y 130 X -315 Y 129 X 117 Y 130 X -23 Y 129 X 216 Y 130 X s 0.4 0.4 0.4 c[ 12 12] 0 sd 227 582 m 1814 X s 0 0 0.6 c[  ] 0 sd 3 lw 1 1 1 c black 0 0 0.6 c 292 1080 m 5 Y
 s 292 1085 m 6 Y s 227 1085 m 65 X s 292 1085 m 64 X s 284 1080 m 15 X s 284 1091 m 15 X s 227 1078 m 15 Y s 356 1078 m 15 Y s black /w 2 def /w2 {w 2 div} def /w3 {w 3 div} def 292 1085 m20 0 0 0.6 c 421 942 m 5 Y s 421 947 m 5 Y s 356 947 m 65 X s
 421 947 m 65 X s 414 942 m 15 X s 414 952 m 15 X s 356 939 m 15 Y s 486 939 m 15 Y s black 421 947 m20 0 0 0.6 c 551 807 m 4 Y s 551 811 m 4 Y s 486 811 m 65 X s 551 811 m 65 X s 543 807 m 15 X s 543 815 m 15 X s 486 804 m 15 Y s 616 804 m 15 Y s
 black 551 811 m20 0 0 0.6 c 680 697 m 4 Y s 680 701 m 4 Y s 616 701 m 64 X s 680 701 m 65 X s 673 697 m 15 X s 673 705 m 15 X s 616 694 m 15 Y s 745 694 m 15 Y s black 680 701 m20 0 0 0.6 c 810 606 m 4 Y s 810 610 m 3 Y s 745 610 m 65 X s 810 610 m
 65 X s 802 606 m 16 X s 802 613 m 16 X s 745 602 m 15 Y s 875 602 m 15 Y s black 810 610 m20 0 0 0.6 c 939 533 m 3 Y s 939 536 m 3 Y s 875 536 m 64 X s 939 536 m 65 X s 932 533 m 15 X s 932 539 m 15 X s 875 528 m 15 Y s 1004 528 m 15 Y s black 939
 536 m20 0 0 0.6 c 1069 466 m 2 Y s 1069 468 m 3 Y s 1004 468 m 65 X s 1069 468 m 65 X s 1061 466 m 16 X s 1061 471 m 16 X s 1004 461 m 15 Y s 1134 461 m 15 Y s black 1069 468 m20 0 0 0.6 c 1199 415 m 2 Y s 1199 417 m 2 Y s 1134 417 m 65 X s 1199 417
 m 64 X s 1191 415 m 15 X s 1191 419 m 15 X s 1134 409 m 16 Y s 1263 409 m 16 Y s black 1199 417 m20 0 0 0.6 c 1328 374 m 2 Y s 1328 376 m 2 Y s 1263 376 m 65 X s 1328 376 m 65 X s 1321 374 m 15 X s 1321 378 m 15 X s 1263 368 m 15 Y s 1393 368 m 15 Y
 s black 1328 376 m20 0 0 0.6 c 1458 336 m 1 Y s 1458 337 m 2 Y s 1393 337 m 65 X s 1458 337 m 65 X s 1450 336 m 15 X s 1450 339 m 15 X s 1393 330 m 15 Y s 1523 330 m 15 Y s black 1458 337 m20 0 0 0.6 c 1587 311 m 2 Y s 1587 313 m 2 Y s 1523 313 m 64
 X s 1587 313 m 65 X s 1580 311 m 15 X s 1580 315 m 15 X s 1523 305 m 15 Y s 1652 305 m 15 Y s black 1587 313 m20 0 0 0.6 c 1717 288 m 2 Y s 1717 290 m 1 Y s 1652 290 m 65 X s 1717 290 m 65 X s 1709 288 m 16 X s 1709 291 m 16 X s 1652 282 m 15 Y s
 1782 282 m 15 Y s black 1717 290 m20 0 0 0.6 c 1847 265 m 2 Y s 1847 267 m 1 Y s 1782 267 m 65 X s 1847 267 m 64 X s 1839 265 m 15 X s 1839 268 m 15 X s 1782 259 m 15 Y s 1911 259 m 15 Y s black 1847 267 m20 0 0 0.6 c 1976 247 m 2 Y s 1976 249 m 1 Y
 s 1911 249 m 65 X s 1976 249 m 65 X s 1969 247 m 15 X s 1969 250 m 15 X s 1911 241 m 15 Y s 2041 241 m 15 Y s black 1976 249 m20
 gsave  2268 1415 0 0 C 680.315 1203.11 t 0 r /Helvetica-Bold findfont 64.6832 sf 0 0 m (SysJET_CR_JET_JER_DataVsMC_MC16) show NC gr 
 gsave  2268 1415 0 0 C 680.315 1089.87 t 0 r /Helvetica-Bold findfont 64.6832 sf 0 0 m (Z) show NC gr 
 gsave  2268 1415 0 0 C 680.315 976.64 t 0 r /Helvetica-Bold findfont 64.6832 sf 0 0 m (NormEff = \2550  %) show NC gr 
 gsave  2268 1415 0 0 C 292.977 171.22 t 0 r /Helvetica-Bold findfont 45.6587 sf 0 0 m (/NDF: Up=0.0295 Do=0.0601) show NC gr 
 gsave  2268 1415 0 0 C 273.952 190.245 t 0 r /Helvetica-Bold findfont 30.4391 sf 0 0 m (2) show NC gr 
 gsave  2268 1415 0 0 C 247.318 171.22 t 0 r /Symbol findfont 45.6587 sf 0 0 m (c) show NC gr  2041 142 m 1132 Y s 1987 142 m 54 X s 2014 173 m 27 X s 2014 204 m 27 X s 2014 235 m 27 X s 2014 266 m 27 X s 1987 297 m 54 X s 2014 328 m 27 X s 2014 359
 m 27 X s 2014 391 m 27 X s 2014 422 m 27 X s 1987 453 m 54 X s 2014 484 m 27 X s 2014 515 m 27 X s 2014 546 m 27 X s 2014 577 m 27 X s 1987 608 m 54 X s 2014 640 m 27 X s 2014 671 m 27 X s 2014 702 m 27 X s 2014 733 m 27 X s 1987 764 m 54 X s 2014
 795 m 27 X s 2014 826 m 27 X s 2014 857 m 27 X s 2014 889 m 27 X s 1987 920 m 54 X s 2014 951 m 27 X s 2014 982 m 27 X s 2014 1013 m 27 X s 2014 1044 m 27 X s 1987 1075 m 54 X s 2014 1106 m 27 X s 2014 1138 m 27 X s 2014 1169 m 27 X s 2014 1200 m 27
 X s 1987 1231 m 54 X s 1987 1231 m 54 X s 2014 1262 m 27 X s
 gsave  2268 1415 0 0 C 2050.84 117.952 t 0 r /Helvetica findfont 64.6832 sf 0 0 m (0) show NC gr 
 gsave  2268 1415 0 0 C 2050.84 273.952 t 0 r /Helvetica findfont 64.6832 sf 0 0 m (1000) show NC gr 
 gsave  2268 1415 0 0 C 2050.84 429.953 t 0 r /Helvetica findfont 64.6832 sf 0 0 m (2000) show NC gr 
 gsave  2268 1415 0 0 C 2050.84 582.149 t 0 r /Helvetica findfont 64.6832 sf 0 0 m (3000) show NC gr 
 gsave  2268 1415 0 0 C 2050.84 738.149 t 0 r /Helvetica findfont 64.6832 sf 0 0 m (4000) show NC gr 
 gsave  2268 1415 0 0 C 2050.84 894.15 t 0 r /Helvetica findfont 64.6832 sf 0 0 m (5000) show NC gr 
 gsave  2268 1415 0 0 C 2050.84 1050.15 t 0 r /Helvetica findfont 64.6832 sf 0 0 m (6000) show NC gr 
 gsave  2268 1415 0 0 C 2050.84 1206.15 t 0 r /Helvetica findfont 64.6832 sf 0 0 m (7000) show NC gr 
 gsave  2268 1415 0 0 C 2336.2 1076.78 t 90 r /Helvetica findfont 64.6832 sf 0 0 m (Events) show NC gr 
 gsave  2268 1415 0 0 C 1643.71 1225.18 t 0 r /Helvetica findfont 53.2685 sf 0 0 m (Up) show NC gr  1 0 0 c 6 lw 1596 1238 m 40 X s black
 gsave  2268 1415 0 0 C 1643.71 1152.88 t 0 r /Helvetica findfont 53.2685 sf 0 0 m (Down) show NC gr  0 0 1 c 1596 1168 m 40 X s black
 gsave  2268 1415 0 0 C 1643.71 1084.39 t 0 r /Helvetica findfont 53.2685 sf 0 0 m (Unsmoothed) show NC gr  1 0 0 c[ 12 12] 0 sd 3 lw 1596 1097 m 40 X s 1 1 1 c black
 gsave  2268 1415 0 0 C 407.124 1350.74 t 0 r /Helvetica findfont 45.6587 sf 0 0 m (Region_BMin0_incJet1_Y2015_DCRcutbasedJvar_T2_L2_distmVH_J2) show NC gr 
 gr  gr showpage
end
%%EOF
