%!PS-Adobe-2.0 EPSF-2.0
%%BoundingBox:  0 0 567 354
%%Title: : canvas
%%Creator: ROOT Version 6.14/04
%%CreationDate: Fri May 15 17:07:36 2020
%%DocumentNeededResources: ProcSet (FontSetInit)
%%EndComments
%%BeginProlog
80 dict begin
/s {stroke} def /l {lineto} def /m {moveto} def /t {translate} def
/r {rotate} def /rl {roll}  def /R {repeat} def
/d {rlineto} def /rm {rmoveto} def /gr {grestore} def /f {eofill} def
/c {setrgbcolor} def /black {0 setgray} def /sd {setdash} def
/cl {closepath} def /sf {scalefont setfont} def /lw {setlinewidth} def
/box {m dup 0 exch d exch 0 d 0 exch neg d cl} def
/NC{systemdict begin initclip end}def/C{NC box clip newpath}def
/bl {box s} def /bf {gsave box gsave f grestore 1 lw [] 0 sd s grestore} def /Y { 0 exch d} def /X { 0 d} def 
/K {{pop pop 0 moveto} exch kshow} bind def
/ita {/ang 15 def gsave [1 0 ang dup sin exch cos div 1 0 0] concat} def 
/mp {newpath /y exch def /x exch def} def
/side {[w .77 mul w .23 mul] .385 w mul sd w 0 l currentpoint t -144 r} def
/mr {mp x y w2 0 360 arc} def /m24 {mr s} def /m20 {mr f} def
/mb {mp x y w2 add m w2 neg 0 d 0 w neg d w 0 d 0 w d cl} def
/mt {mp x y w2 add m w2 neg w neg d w 0 d cl} def
/w4 {w 4 div} def
/w6 {w 6 div} def
/w8 {w 8 div} def
/m21 {mb f} def /m25 {mb s} def /m22 {mt f} def /m26{mt s} def
/m23 {mp x y w2 sub m w2 w d w neg 0 d cl f} def
/m27 {mp x y w2 add m w3 neg w2 neg d w3 w2 neg d w3 w2 d cl s} def
/m28 {mp x w2 sub y w2 sub w3 add m w3 0 d  0 w3 neg d w3 0 d 0 w3 d w3 0 d  0 w3 d w3 neg 0 d 0 w3 d w3 neg 0 d 0 w3 neg d w3 neg 0 d cl s } def
/m29 {mp gsave x w2 sub y w2 add w3 sub m currentpoint t 4 {side} repeat cl fill gr} def
/m30 {mp gsave x w2 sub y w2 add w3 sub m currentpoint t 4 {side} repeat cl s gr} def
/m31 {mp x y w2 sub m 0 w d x w2 sub y m w 0 d x w2 sub y w2 add m w w neg d x w2 sub y w2 sub m w w d s} def
/m32 {mp x y w2 sub m w2 w d w neg 0 d cl s} def
/m33 {mp x y w2 add m w3 neg w2 neg d w3 w2 neg d w3 w2 d cl f} def
/m34 {mp x w2 sub y w2 sub w3 add m w3 0 d  0 w3 neg d w3 0 d 0 w3 d w3 0 d  0 w3 d w3 neg 0 d 0 w3 d w3 neg 0 d 0 w3 neg d w3 neg 0 d cl f } def
/m35 {mp x y w2 add m w2 neg w2 neg d w2 w2 neg d w2 w2 d w2 neg w2 d x y w2 sub m 0 w d x w2 sub y m w 0 d s} def
/m36 {mb x w2 sub y w2 add m w w neg d x w2 sub y w2 sub m w w d s} def
/m37 {mp x y m w4 neg w2 d w4 neg w2 neg d w2 0 d  w4 neg w2 neg d w2 0 d w4 neg w2 d w2 0 d w4 neg w2 d w4 neg w2 neg d cl s} def
/m38 {mp x w4 sub y w2 add m w4 neg w4 neg d 0 w2 neg d w4 w4 neg d w2 0 d w4 w4 d 0 w2 d w4 neg w4 d w2 neg 0 d x y w2 sub m 0 w d x w2 sub y m w 0 d cl s} def
/m39 {mp x y m w4 neg w2 d w4 neg w2 neg d w2 0 d  w4 neg w2 neg d w2 0 d w4 neg w2 d w2 0 d w4 neg w2 d w4 neg w2 neg d cl f} def
/m40 {mp x y m w4 w2 d w4 w4 neg d w2 neg w4 neg d w2 w4 neg d w4 neg w4 neg d w4 neg w2 d w4 neg w2 neg d w4 neg w4 d w2 w4 d w2 neg w4 d w4 w4 d w4 w2 neg d cl s} def
/m41 {mp x y m w4 w2 d w4 w4 neg d w2 neg w4 neg d w2 w4 neg d w4 neg w4 neg d w4 neg w2 d w4 neg w2 neg d w4 neg w4 d w2 w4 d w2 neg w4 d w4 w4 d w4 w2 neg d cl f} def
/m42 {mp x y w2 add m w8 neg w2 -3 4 div mul d w2 -3 4 div mul w8 neg d w2 3 4 div mul w8 neg d w8 w2 -3 4 div mul d w8 w2 3 4 div mul d w2 3 4 div mul w8 d w2 -3 4 div mul w8 d w8 neg w2 3 4 div mul d cl s} def
/m43 {mp x y w2 add m w8 neg w2 -3 4 div mul d w2 -3 4 div mul w8 neg d w2 3 4 div mul w8 neg d w8 w2 -3 4 div mul d w8 w2 3 4 div mul d w2 3 4 div mul w8 d w2 -3 4 div mul w8 d w8 neg w2 3 4 div mul d cl f} def
/m44 {mp x y m w6 neg w2 d w2 2 3 div mul 0 d w6 neg w2 neg d w2 w6 d 0 w2 -2 3 div mul d w2 neg w6 d w6 w2 neg d w2 -2 3 div mul 0 d w6 w2 d w2 neg w6 neg d 0 w2 2 3 div mul d w2 w6 neg d cl s} def
/m45 {mp x y m w6 neg w2 d w2 2 3 div mul 0 d w6 neg w2 neg d w2 w6 d 0 w2 -2 3 div mul d w2 neg w6 d w6 w2 neg d w2 -2 3 div mul 0 d w6 w2 d w2 neg w6 neg d 0 w2 2 3 div mul d w2 w6 neg d cl f} def
/m46 {mp x y w4 add m w4 neg w4 d w4 neg w4 neg d  w4 w4 neg d w4 neg w4 neg d w4 w4 neg d w4 w4 d w4 w4 neg d w4 w4 d w4 neg w4 d w4 w4 d w4 neg w4 d w4 neg w4 neg d cl s} def
/m47 {mp x y w4 add m w4 neg w4 d w4 neg w4 neg d w4 w4 neg d w4 neg w4 neg d  w4 w4 neg d w4 w4 d w4 w4 neg d w4 w4 d w4 neg w4 d w4 w4 d w4 neg w4 d w4 neg w4 neg d cl f} def
/m48 {mp x y w4 add m w4 neg w4 d w4 neg w4 neg d w4 w4 neg d  w4 neg w4 neg d w4 w4 neg d w4 w4 d w4 w4 neg d w4 w4 d w4 neg w4 d w4 w4 d w4 neg w4 d w4 neg w4 neg d  w4 w4 neg d w4 neg w4 neg d w4 neg w4 d w4 w4 d cl f} def
/m49 {mp x w2 sub w3 add y w2 sub w3 add m  0 w3 neg d w3 0 d 0 w3 d w3 0 d 0 w3 d w3 neg 0 d 0 w3 d w3 neg 0 d 0 w3 neg d w3 neg 0 d 0 w3 neg d w3 0 d 0 w3 d w3 0 d 0 w3 neg d w3 neg 0 d cl f } def
/m2 {mp x y w2 sub m 0 w d x w2 sub y m w 0 d s} def
/m5 {mp x w2 sub y w2 sub m w w d x w2 sub y w2 add m w w neg d s} def
%%IncludeResource: ProcSet (FontSetInit)
%%IncludeResource: font Times-Roman
%%IncludeResource: font Times-Italic
%%IncludeResource: font Times-Bold
%%IncludeResource: font Times-BoldItalic
%%IncludeResource: font Helvetica
%%IncludeResource: font Helvetica-Oblique
%%IncludeResource: font Helvetica-Bold
%%IncludeResource: font Helvetica-BoldOblique
%%IncludeResource: font Courier
%%IncludeResource: font Courier-Oblique
%%IncludeResource: font Courier-Bold
%%IncludeResource: font Courier-BoldOblique
%%IncludeResource: font Symbol
%%IncludeResource: font ZapfDingbats
/reEncode {exch findfont dup length dict begin {1 index /FID eq  {pop pop} {def} ifelse } forall /Encoding exch def currentdict end dup /FontName get exch definefont pop } def [/Times-Bold /Times-Italic /Times-BoldItalic /Helvetica /Helvetica-Oblique
 /Helvetica-Bold /Helvetica-BoldOblique /Courier /Courier-Oblique /Courier-Bold /Courier-BoldOblique /Times-Roman /AvantGarde-Book /AvantGarde-BookOblique /AvantGarde-Demi /AvantGarde-DemiOblique /Bookman-Demi /Bookman-DemiItalic /Bookman-Light
 /Bookman-LightItalic /Helvetica-Narrow /Helvetica-Narrow-Bold /Helvetica-Narrow-BoldOblique /Helvetica-Narrow-Oblique /NewCenturySchlbk-Roman /NewCenturySchlbk-Bold /NewCenturySchlbk-BoldItalic /NewCenturySchlbk-Italic /Palatino-Bold
 /Palatino-BoldItalic /Palatino-Italic /Palatino-Roman ] {ISOLatin1Encoding reEncode } forall
%%EndProlog
%%BeginSetup
%%EndSetup
newpath  gsave  .25 .25 scale  gsave  0 0 t black[  ] 0 sd 3 lw 1 1 1 c 2268 1415 0 0 bf black 1 1 1 c 1814 1132 227 142 bf black 1814 1132 227 142 bl 1 0 0 c 6 lw 1 1 1 c black 1 0 0 c 227 828 m 90 X -68 Y 91 X 3 Y 91 X -30 Y 91 X 2 Y 90 X 23 Y 91 X
 -52 Y 91 X -6 Y 90 X -121 Y 91 X -1 Y 91 X -54 Y 91 X 15 Y 90 X 33 Y 91 X 1 Y 91 X 82 Y 90 X -20 Y 91 X 46 Y 91 X -57 Y 91 X -118 Y 90 X 87 Y 91 X s black 3 lw 227 142 m 1814 X s 272 176 m -34 Y s 317 159 m -17 Y s 363 159 m -17 Y s 408 159 m -17 Y
 s 454 159 m -17 Y s 499 176 m -34 Y s 544 159 m -17 Y s 590 159 m -17 Y s 635 159 m -17 Y s 680 159 m -17 Y s 726 176 m -34 Y s 771 159 m -17 Y s 816 159 m -17 Y s 862 159 m -17 Y s 907 159 m -17 Y s 952 176 m -34 Y s 998 159 m -17 Y s 1043 159 m
 -17 Y s 1089 159 m -17 Y s 1134 159 m -17 Y s 1179 176 m -34 Y s 1225 159 m -17 Y s 1270 159 m -17 Y s 1315 159 m -17 Y s 1361 159 m -17 Y s 1406 176 m -34 Y s 1451 159 m -17 Y s 1497 159 m -17 Y s 1542 159 m -17 Y s 1587 159 m -17 Y s 1633 176 m
 -34 Y s 1678 159 m -17 Y s 1723 159 m -17 Y s 1769 159 m -17 Y s 1814 159 m -17 Y s 1860 176 m -34 Y s 272 176 m -34 Y s 1860 176 m -34 Y s 1905 159 m -17 Y s 1950 159 m -17 Y s 1996 159 m -17 Y s
 gsave  2268 1415 0 0 C 232.099 95.1223 t 0 r /Helvetica findfont 45.6587 sf 0 0 m (450) show NC gr 
 gsave  2268 1415 0 0 C 460.392 95.1223 t 0 r /Helvetica findfont 45.6587 sf 0 0 m (500) show NC gr 
 gsave  2268 1415 0 0 C 684.881 95.1223 t 0 r /Helvetica findfont 45.6587 sf 0 0 m (550) show NC gr 
 gsave  2268 1415 0 0 C 913.174 95.1223 t 0 r /Helvetica findfont 45.6587 sf 0 0 m (600) show NC gr 
 gsave  2268 1415 0 0 C 1137.66 95.1223 t 0 r /Helvetica findfont 45.6587 sf 0 0 m (650) show NC gr 
 gsave  2268 1415 0 0 C 1365.96 95.1223 t 0 r /Helvetica findfont 45.6587 sf 0 0 m (700) show NC gr 
 gsave  2268 1415 0 0 C 1594.25 95.1223 t 0 r /Helvetica findfont 45.6587 sf 0 0 m (750) show NC gr 
 gsave  2268 1415 0 0 C 1818.74 95.1223 t 0 r /Helvetica findfont 45.6587 sf 0 0 m (800) show NC gr 
 gsave  2268 1415 0 0 C 1940.5 45.6587 t 0 r /Helvetica findfont 45.6587 sf 0 0 m (mVH) show NC gr  227 142 m 1132 Y s 281 238 m -54 X s 254 270 m -27 X s 254 302 m -27 X s 254 333 m -27 X s 254 365 m -27 X s 281 397 m -54 X s 254 429 m -27 X s 254
 461 m -27 X s 254 493 m -27 X s 254 525 m -27 X s 281 557 m -54 X s 254 589 m -27 X s 254 621 m -27 X s 254 653 m -27 X s 254 685 m -27 X s 281 716 m -54 X s 254 748 m -27 X s 254 780 m -27 X s 254 812 m -27 X s 254 844 m -27 X s 281 876 m -54 X s
 254 908 m -27 X s 254 940 m -27 X s 254 972 m -27 X s 254 1004 m -27 X s 281 1036 m -54 X s 254 1068 m -27 X s 254 1099 m -27 X s 254 1131 m -27 X s 254 1163 m -27 X s 281 1195 m -54 X s 281 238 m -54 X s 254 206 m -27 X s 254 174 m -27 X s 254 142
 m -27 X s 281 1195 m -54 X s 254 1227 m -27 X s 254 1259 m -27 X s
 gsave  2268 1415 0 0 C 148.391 220.684 t 0 r /Helvetica findfont 45.6587 sf 0 0 m (0.3) show NC gr 
 gsave  2268 1415 0 0 C 121.757 220.684 t 0 r /Symbol findfont 45.6587 sf 0 0 m (-) show NC gr 
 gsave  2268 1415 0 0 C 148.391 380.489 t 0 r /Helvetica findfont 45.6587 sf 0 0 m (0.2) show NC gr 
 gsave  2268 1415 0 0 C 121.757 380.489 t 0 r /Symbol findfont 45.6587 sf 0 0 m (-) show NC gr 
 gsave  2268 1415 0 0 C 156.001 540.295 t 0 r /Helvetica findfont 45.6587 sf 0 0 m (0.1) show NC gr 
 gsave  2268 1415 0 0 C 129.366 540.295 t 0 r /Symbol findfont 45.6587 sf 0 0 m (-) show NC gr 
 gsave  2268 1415 0 0 C 186.44 700.1 t 0 r /Helvetica findfont 45.6587 sf 0 0 m (0) show NC gr 
 gsave  2268 1415 0 0 C 156.001 859.906 t 0 r /Helvetica findfont 45.6587 sf 0 0 m (0.1) show NC gr 
 gsave  2268 1415 0 0 C 148.391 1019.71 t 0 r /Helvetica findfont 45.6587 sf 0 0 m (0.2) show NC gr 
 gsave  2268 1415 0 0 C 148.391 1179.52 t 0 r /Helvetica findfont 45.6587 sf 0 0 m (0.3) show NC gr 
 gsave  2268 1415 0 0 C 68.4881 1107.22 t 90 r /Helvetica findfont 45.6587 sf 0 0 m (Shift [%]) show NC gr  1 1 1 c black
 gsave  2268 1415 0 0 C 407.124 1350.74 t 0 r /Helvetica findfont 45.6587 sf 0 0 m (Region_BMin0_incJet1_Y2015_DCRcutbasedJvar_T2_L2_distmVH_J2) show NC gr  6 lw 0.8 0.8 0 c black 3 lw 0.8 0.8 0 c 1 lw << /PatternType 1 /PaintType 2 /TilingType 1
 /BBox [ 0 0 100 100 ] /XStep 100 /YStep 100 /PaintProc { begin gsave 0 0 m 100 100 l s gr end } >> [ 0.24 0 0 0.24 0 0 ] makepattern /P04 exch def /cs {[/Pattern /DeviceRGB] setcolorspace} def /FA {f [/DeviceRGB] setcolorspace} def cs 0.8 0.8 0 P04
 setcolor 227 142 m 90 X 1132 Y -90 X FA 6 lw 3 lw 0.8 0.8 0 c cs 0.8 0.8 0 P04 setcolor 317 142 m 91 X 1132 Y -91 X FA 6 lw 3 lw 0.8 0.8 0 c cs 0.8 0.8 0 P04 setcolor 408 142 m 91 X 1132 Y -91 X FA 6 lw 3 lw 0.8 0.8 0 c cs 0.8 0.8 0 P04 setcolor 499
 142 m 91 X 1132 Y -91 X FA 6 lw 3 lw 0.8 0.8 0 c cs 0.8 0.8 0 P04 setcolor 590 142 m 90 X 1132 Y -90 X FA 6 lw 3 lw 0.8 0.8 0 c cs 0.8 0.8 0 P04 setcolor 680 142 m 91 X 1132 Y -91 X FA 6 lw 3 lw 0.8 0.8 0 c cs 0.8 0.8 0 P04 setcolor 771 142 m 91 X
 1132 Y -91 X FA 6 lw 3 lw 0.8 0.8 0 c cs 0.8 0.8 0 P04 setcolor 862 142 m 90 X 1132 Y -90 X FA 6 lw 3 lw 0.8 0.8 0 c cs 0.8 0.8 0 P04 setcolor 952 142 m 91 X 1132 Y -91 X FA 6 lw 3 lw 0.8 0.8 0 c cs 0.8 0.8 0 P04 setcolor 1043 142 m 91 X 1132 Y -91
 X FA 6 lw 3 lw 0.8 0.8 0 c cs 0.8 0.8 0 P04 setcolor 1134 142 m 91 X 1132 Y -91 X FA 6 lw 3 lw 0.8 0.8 0 c cs 0.8 0.8 0 P04 setcolor 1225 142 m 90 X 1132 Y -90 X FA 6 lw 3 lw 0.8 0.8 0 c cs 0.8 0.8 0 P04 setcolor 1315 142 m 91 X 1132 Y -91 X FA 6 lw
 3 lw 0.8 0.8 0 c cs 0.8 0.8 0 P04 setcolor 1406 142 m 91 X 1132 Y -91 X FA 6 lw 3 lw 0.8 0.8 0 c cs 0.8 0.8 0 P04 setcolor 1497 142 m 90 X 1132 Y -90 X FA 6 lw 3 lw 0.8 0.8 0 c cs 0.8 0.8 0 P04 setcolor 1587 142 m 91 X 1132 Y -91 X FA 6 lw 3 lw 0.8
 0.8 0 c cs 0.8 0.8 0 P04 setcolor 1678 142 m 91 X 1132 Y -91 X FA 6 lw 3 lw 0.8 0.8 0 c cs 0.8 0.8 0 P04 setcolor 1769 142 m 91 X 1132 Y -91 X FA 6 lw 3 lw 0.8 0.8 0 c cs 0.8 0.8 0 P04 setcolor 1860 142 m 90 X 1132 Y -90 X FA 6 lw 3 lw 0.8 0.8 0 c
 cs 0.8 0.8 0 P04 setcolor 1950 142 m 91 X 1132 Y -91 X FA 6 lw 0 0 1 c 1 1 1 c black 0 0 1 c 227 702 m 90 X -56 Y 91 X 20 Y 91 X -34 Y 91 X 77 Y 90 X -13 Y 91 X 72 Y 91 X 54 Y 90 X 10 Y 91 X -31 Y 91 X -115 Y 91 X 46 Y 90 X 16 Y 91 X 80 Y 91 X 100 Y
 90 X -95 Y 91 X -31 Y 91 X 27 Y 91 X -11 Y 90 X 137 Y 91 X s 1 0 0 c 1 1 1 c black 1 0 0 c 227 828 m 90 X -68 Y 91 X 3 Y 91 X -30 Y 91 X 2 Y 90 X 23 Y 91 X -52 Y 91 X -6 Y 90 X -121 Y 91 X -1 Y 91 X -54 Y 91 X 15 Y 90 X 33 Y 91 X 1 Y 91 X 82 Y 90 X
 -20 Y 91 X 46 Y 91 X -57 Y 91 X -118 Y 90 X 87 Y 91 X s[ 12 12] 0 sd 3 lw 1 1 1 c black 1 0 0 c 227 845 m 90 X -134 Y 91 X 72 Y 91 X -33 Y 91 X -27 Y 90 X 133 Y 91 X -271 Y 91 X 119 Y 90 X -210 Y 91 X 85 Y 91 X -37 Y 91 X 4 Y 90 X 124 Y 91 X -117 Y
 91 X 242 Y 90 X -201 Y 91 X 107 Y 91 X -79 Y 91 X -386 Y 90 X 736 Y 91 X s 0 0 1 c 1 1 1 c black 0 0 1 c 227 696 m 90 X -112 Y 91 X 111 Y 91 X -100 Y 91 X 221 Y 90 X -155 Y 91 X 147 Y 91 X 166 Y 90 X -290 Y 91 X 32 Y 91 X -78 Y 91 X 182 Y 90 X -58 Y
 91 X 123 Y 91 X 224 Y 90 X -607 Y 91 X 276 Y 91 X 401 Y 91 X -717 Y 90 X 718 Y 91 X s 1 0 0 c[  ] 0 sd 6 lw 1 1 1 c black 1 0 0 c 227 828 m 90 X -68 Y 91 X 3 Y 91 X -30 Y 91 X 2 Y 90 X 23 Y 91 X -52 Y 91 X -6 Y 90 X -121 Y 91 X -1 Y 91 X -54 Y 91 X
 15 Y 90 X 33 Y 91 X 1 Y 91 X 82 Y 90 X -20 Y 91 X 46 Y 91 X -57 Y 91 X -118 Y 90 X 87 Y 91 X s 0 0 1 c 1 1 1 c black 0 0 1 c 227 702 m 90 X -56 Y 91 X 20 Y 91 X -34 Y 91 X 77 Y 90 X -13 Y 91 X 72 Y 91 X 54 Y 90 X 10 Y 91 X -31 Y 91 X -115 Y 91 X 46
 Y 90 X 16 Y 91 X 80 Y 91 X 100 Y 90 X -95 Y 91 X -31 Y 91 X 27 Y 91 X -11 Y 90 X 137 Y 91 X s 0.4 0.4 0.4 c[ 12 12] 0 sd 227 716 m 1814 X s 0 0 0.6 c[  ] 0 sd 3 lw 1 1 1 c black 0 0 0.6 c 272 1080 m 5 Y s 272 1085 m 5 Y s 227 1085 m 45 X s 272 1085
 m 45 X s 265 1080 m 15 X s 265 1090 m 15 X s 227 1078 m 15 Y s 317 1078 m 15 Y s black /w 2 def /w2 {w 2 div} def /w3 {w 3 div} def 272 1085 m20 0 0 0.6 c 363 969 m 4 Y s 363 973 m 5 Y s 317 973 m 46 X s 363 973 m 45 X s 355 969 m 15 X s 355 978 m
 15 X s 317 965 m 16 Y s 408 965 m 16 Y s black 363 973 m20 0 0 0.6 c 454 857 m 4 Y s 454 861 m 4 Y s 408 861 m 46 X s 454 861 m 45 X s 446 857 m 15 X s 446 865 m 15 X s 408 854 m 15 Y s 499 854 m 15 Y s black 454 861 m20 0 0 0.6 c 544 756 m 4 Y s
 544 760 m 3 Y s 499 760 m 45 X s 544 760 m 46 X s 537 756 m 15 X s 537 763 m 15 X s 499 752 m 15 Y s 590 752 m 15 Y s black 544 760 m20 0 0 0.6 c 635 667 m 3 Y s 635 670 m 3 Y s 590 670 m 45 X s 635 670 m 45 X s 627 667 m 16 X s 627 673 m 16 X s 590
 663 m 15 Y s 680 663 m 15 Y s black 635 670 m20 0 0 0.6 c 726 593 m 3 Y s 726 596 m 2 Y s 680 596 m 46 X s 726 596 m 45 X s 718 593 m 15 X s 718 598 m 15 X s 680 588 m 15 Y s 771 588 m 15 Y s black 726 596 m20 0 0 0.6 c 816 522 m 3 Y s 816 525 m 2 Y
 s 771 525 m 45 X s 816 525 m 46 X s 809 522 m 15 X s 809 527 m 15 X s 771 517 m 15 Y s 862 517 m 15 Y s black 816 525 m20 0 0 0.6 c 907 462 m 2 Y s 907 464 m 2 Y s 862 464 m 45 X s 907 464 m 45 X s 899 462 m 16 X s 899 466 m 16 X s 862 456 m 15 Y s
 952 456 m 15 Y s black 907 464 m20 0 0 0.6 c 998 412 m 2 Y s 998 414 m 1 Y s 952 414 m 46 X s 998 414 m 45 X s 990 412 m 15 X s 990 415 m 15 X s 952 406 m 15 Y s 1043 406 m 15 Y s black 998 414 m20 0 0 0.6 c 1089 367 m 1 Y s 1089 368 m 2 Y s 1043
 368 m 46 X s 1089 368 m 45 X s 1081 367 m 15 X s 1081 370 m 15 X s 1043 361 m 15 Y s 1134 361 m 15 Y s black 1089 368 m20 0 0 0.6 c 1179 330 m 2 Y s 1179 332 m 1 Y s 1134 332 m 45 X s 1179 332 m 46 X s 1172 330 m 15 X s 1172 333 m 15 X s 1134 324 m
 15 Y s 1225 324 m 15 Y s black 1179 332 m20 0 0 0.6 c 1270 298 m 1 Y s 1270 299 m 1 Y s 1225 299 m 45 X s 1270 299 m 45 X s 1262 298 m 16 X s 1262 300 m 16 X s 1225 291 m 16 Y s 1315 291 m 16 Y s black 1270 299 m20 0 0 0.6 c 1361 274 m 1 Y s 1361
 275 m 1 Y s 1315 275 m 46 X s 1361 275 m 45 X s 1353 274 m 15 X s 1353 276 m 15 X s 1315 267 m 15 Y s 1406 267 m 15 Y s black 1361 275 m20 0 0 0.6 c 1451 252 m 1 Y s 1451 253 m s 1406 253 m 45 X s 1451 253 m 46 X s 1444 252 m 15 X s 1444 253 m 15 X
 s 1406 245 m 15 Y s 1497 245 m 15 Y s black 1451 253 m20 0 0 0.6 c 1542 234 m 1 Y s 1542 235 m 1 Y s 1497 235 m 45 X s 1542 235 m 45 X s 1534 234 m 16 X s 1534 236 m 16 X s 1497 228 m 15 Y s 1587 228 m 15 Y s black 1542 235 m20 0 0 0.6 c 1633 220 m
 1 Y s 1633 221 m 1 Y s 1587 221 m 46 X s 1633 221 m 45 X s 1625 220 m 15 X s 1625 222 m 15 X s 1587 213 m 16 Y s 1678 213 m 16 Y s black 1633 221 m20 0 0 0.6 c 1723 209 m s 1723 209 m 1 Y s 1678 209 m 45 X s 1723 209 m 46 X s 1716 209 m 15 X s 1716
 210 m 15 X s 1678 202 m 15 Y s 1769 202 m 15 Y s black 1723 209 m20 0 0 0.6 c 1814 199 m 1 Y s 1814 200 m s 1769 200 m 45 X s 1814 200 m 46 X s 1807 199 m 15 X s 1807 200 m 15 X s 1769 192 m 16 Y s 1860 192 m 16 Y s black 1814 200 m20 0 0 0.6 c 1905
 191 m 1 Y s 1905 192 m s 1860 192 m 45 X s 1905 192 m 45 X s 1897 191 m 15 X s 1897 192 m 15 X s 1860 184 m 15 Y s 1950 184 m 15 Y s black 1905 192 m20 0 0 0.6 c 1996 184 m s 1996 184 m 1 Y s 1950 184 m 46 X s 1996 184 m 45 X s 1988 184 m 15 X s
 1988 185 m 15 X s 1950 177 m 15 Y s 2041 177 m 15 Y s black 1996 184 m20
 gsave  2268 1415 0 0 C 680.315 1203.11 t 0 r /Helvetica-Bold findfont 64.6832 sf 0 0 m (SysJET_CR_JET_EtaIntercalibration_Modelling) show NC gr 
 gsave  2268 1415 0 0 C 680.315 1089.87 t 0 r /Helvetica-Bold findfont 64.6832 sf 0 0 m (Z) show NC gr 
 gsave  2268 1415 0 0 C 680.315 976.64 t 0 r /Helvetica-Bold findfont 64.6832 sf 0 0 m (NormEff = 1.40%) show NC gr 
 gsave  2268 1415 0 0 C 292.977 171.22 t 0 r /Helvetica-Bold findfont 45.6587 sf 0 0 m (/NDF: Up=0.00711 Do=0.0147) show NC gr 
 gsave  2268 1415 0 0 C 273.952 190.245 t 0 r /Helvetica-Bold findfont 30.4391 sf 0 0 m (2) show NC gr 
 gsave  2268 1415 0 0 C 247.318 171.22 t 0 r /Symbol findfont 45.6587 sf 0 0 m (c) show NC gr  2041 142 m 1132 Y s 1987 142 m 54 X s 2014 170 m 27 X s 2014 199 m 27 X s 2014 228 m 27 X s 1987 257 m 54 X s 2014 285 m 27 X s 2014 314 m 27 X s 2014 343
 m 27 X s 1987 372 m 54 X s 2014 401 m 27 X s 2014 429 m 27 X s 2014 458 m 27 X s 1987 487 m 54 X s 2014 516 m 27 X s 2014 545 m 27 X s 2014 573 m 27 X s 1987 602 m 54 X s 2014 631 m 27 X s 2014 660 m 27 X s 2014 688 m 27 X s 1987 717 m 54 X s 2014
 746 m 27 X s 2014 775 m 27 X s 2014 804 m 27 X s 1987 832 m 54 X s 2014 861 m 27 X s 2014 890 m 27 X s 2014 919 m 27 X s 1987 948 m 54 X s 2014 976 m 27 X s 2014 1005 m 27 X s 2014 1034 m 27 X s 1987 1063 m 54 X s 2014 1091 m 27 X s 2014 1120 m 27 X
 s 2014 1149 m 27 X s 1987 1178 m 54 X s 1987 1178 m 54 X s 2014 1207 m 27 X s 2014 1235 m 27 X s 2014 1264 m 27 X s
 gsave  2268 1415 0 0 C 2050.84 117.952 t 0 r /Helvetica findfont 64.6832 sf 0 0 m (0) show NC gr 
 gsave  2268 1415 0 0 C 2050.84 232.098 t 0 r /Helvetica findfont 64.6832 sf 0 0 m (2000) show NC gr 
 gsave  2268 1415 0 0 C 2050.84 346.245 t 0 r /Helvetica findfont 64.6832 sf 0 0 m (4000) show NC gr 
 gsave  2268 1415 0 0 C 2050.84 460.392 t 0 r /Helvetica findfont 64.6832 sf 0 0 m (6000) show NC gr 
 gsave  2268 1415 0 0 C 2050.84 578.344 t 0 r /Helvetica findfont 64.6832 sf 0 0 m (8000) show NC gr 
 gsave  2268 1415 0 0 C 2050.84 692.491 t 0 r /Helvetica findfont 64.6832 sf 0 0 m (10000) show NC gr 
 gsave  2268 1415 0 0 C 2050.84 806.637 t 0 r /Helvetica findfont 64.6832 sf 0 0 m (12000) show NC gr 
 gsave  2268 1415 0 0 C 2050.84 924.589 t 0 r /Helvetica findfont 64.6832 sf 0 0 m (14000) show NC gr 
 gsave  2268 1415 0 0 C 2050.84 1038.74 t 0 r /Helvetica findfont 64.6832 sf 0 0 m (16000) show NC gr 
 gsave  2268 1415 0 0 C 2050.84 1152.88 t 0 r /Helvetica findfont 64.6832 sf 0 0 m (18000) show NC gr 
 gsave  2268 1415 0 0 C 2336.2 1076.78 t 90 r /Helvetica findfont 64.6832 sf 0 0 m (Events) show NC gr 
 gsave  2268 1415 0 0 C 1643.71 1225.18 t 0 r /Helvetica findfont 53.2685 sf 0 0 m (Up) show NC gr  1 0 0 c 6 lw 1596 1238 m 40 X s black
 gsave  2268 1415 0 0 C 1643.71 1152.88 t 0 r /Helvetica findfont 53.2685 sf 0 0 m (Down) show NC gr  0 0 1 c 1596 1168 m 40 X s black
 gsave  2268 1415 0 0 C 1643.71 1084.39 t 0 r /Helvetica findfont 53.2685 sf 0 0 m (Unsmoothed) show NC gr  1 0 0 c[ 12 12] 0 sd 3 lw 1596 1097 m 40 X s 1 1 1 c black
 gsave  2268 1415 0 0 C 407.124 1350.74 t 0 r /Helvetica findfont 45.6587 sf 0 0 m (Region_BMin0_incJet1_Y2015_DCRcutbasedJvar_T2_L2_distmVH_J2) show NC gr 
 gr  gr showpage
end
%%EOF
